/* XPM */
static char *ef340f7677e54947f81b6e0663dda14b[] = {
/* columns rows colors chars-per-pixel */
"125 125 247 2 ",
"   c None",
".  c #541400",
"X  c #5B1500",
"o  c #5D1A00",
"O  c #571800",
"+  c #510F00",
"@  c #631C00",
"#  c #671D00",
"$  c #652200",
"%  c #6B2400",
"&  c #6D2A00",
"*  c #662800",
"=  c #732C00",
"-  c #7A2D00",
";  c #712600",
":  c #753200",
">  c #7B3400",
",  c #7D3A01",
"<  c #773801",
"1  c #6F3000",
"2  c #5F2100",
"3  c #7F4206",
"4  c #833300",
"5  c #833C02",
"6  c #8B3C01",
"7  c #893702",
"8  c #933D01",
"9  c #983D00",
"0  c #822E00",
"q  c #854204",
"w  c #8B4403",
"e  c #8A450A",
"r  c #8D4A0B",
"t  c #8A4707",
"y  c #944401",
"u  c #9B4401",
"i  c #934C03",
"p  c #9B4B02",
"a  c #924D0B",
"s  c #9A4C0C",
"d  c #95520D",
"f  c #9B5509",
"g  c #8A4C14",
"h  c #944D12",
"j  c #955212",
"k  c #9B5413",
"l  c #9D5B14",
"z  c #995819",
"x  c #8D5117",
"c  c #A34B03",
"v  c #A64B05",
"b  c #A45202",
"n  c #AA5402",
"m  c #A75909",
"M  c #B55A05",
"N  c #A35B14",
"B  c #A35D1B",
"V  c #A65915",
"C  c #A95612",
"Z  c #9E6119",
"A  c #AA6209",
"S  c #B66706",
"D  c #BB740B",
"F  c #A4631B",
"G  c #AB641B",
"H  c #AA6818",
"J  c #B56918",
"K  c #BB7618",
"L  c #965C23",
"P  c #874F20",
"I  c #9D6325",
"U  c #AC6B23",
"Y  c #AC6C2A",
"T  c #A76623",
"R  c #B36C23",
"E  c #B66D28",
"W  c #AC7229",
"Q  c #B47324",
"!  c #B4732C",
"~  c #BC7B2B",
"^  c #BA7727",
"/  c #AD7233",
"(  c #BB7C34",
")  c #B77834",
"_  c #A56C30",
"`  c #B45E21",
"'  c #C5660A",
"]  c #C67705",
"[  c #C76A15",
"{  c #C77718",
"}  c #D87A17",
"|  c #D27210",
" . c #C47A27",
".. c #C47C35",
"X. c #D97C22",
"o. c #C15E0B",
"O. c #B47E40",
"+. c #BD822A",
"@. c #BC8238",
"#. c #CD840C",
"$. c #CA8519",
"%. c #D58A17",
"&. c #D9951A",
"*. c #D28A0D",
"=. c #E68918",
"-. c #C88629",
";. c #D58828",
":. c #D79628",
">. c #C38434",
",. c #CB8C34",
"<. c #C3853B",
"1. c #C58B3B",
"2. c #CA8C3C",
"3. c #C78835",
"4. c #D48C36",
"5. c #CC933A",
"6. c #D69639",
"7. c #CF9022",
"8. c #E78B25",
"9. c #E59627",
"0. c #E69937",
"q. c #F2992F",
"w. c #DDA33A",
"e. c #DEA12D",
"r. c #E6A63A",
"t. c #F6A73A",
"y. c #EAA933",
"u. c #B98346",
"i. c #C68A43",
"p. c #CD9446",
"a. c #D39543",
"s. c #D89A47",
"d. c #D79C53",
"f. c #D38C41",
"g. c #E39C47",
"h. c #E59F53",
"j. c #DCA44B",
"k. c #DAA447",
"l. c #DCA856",
"z. c #DEB15C",
"x. c #E2A444",
"c. c #E3AB4C",
"v. c #E7A849",
"b. c #F6A947",
"n. c #EBB44A",
"m. c #F6B849",
"M. c #E3AC53",
"N. c #E6A957",
"B. c #EBB354",
"V. c #ECB35C",
"C. c #E7B65A",
"Z. c #F4BC5D",
"A. c #F3B956",
"S. c #F4AD54",
"D. c #E7AE62",
"F. c #EBB463",
"G. c #ECBC64",
"H. c #E9B867",
"J. c #F4BB64",
"K. c #F4BD6B",
"L. c #F4B863",
"P. c #F0BB77",
"I. c #DFAF60",
"U. c #FDCC5C",
"Y. c #F9C458",
"T. c #FFD45D",
"R. c #FBC44D",
"E. c #F5C164",
"W. c #FAC464",
"Q. c #FDCB63",
"!. c #F4C36B",
"~. c #F9C36C",
"^. c #FCCB6C",
"/. c #F6C96C",
"(. c #FFD364",
"). c #FFD46C",
"_. c #FFDB6B",
"`. c #FFD966",
"'. c #FAC572",
"]. c #FECB74",
"[. c #FECD7B",
"{. c #F6C675",
"}. c #FED474",
"|. c #FFDB74",
" X c #FFD37B",
".X c #FFDB7C",
"XX c #EEC26C",
"oX c #FFE374",
"OX c #FFE37C",
"+X c #FFEA79",
"@X c #FFE762",
"#X c #F0BE82",
"$X c #FAC988",
"%X c #FFD583",
"&X c #FFDC84",
"*X c #FFDC8B",
"=X c #FED58A",
"-X c #FBCD97",
";X c #FFDC92",
":X c #FFD799",
">X c #FFE383",
",X c #FFEB84",
"<X c #FFE38D",
"1X c #FFEB8C",
"2X c #FFF38D",
"3X c #FFF587",
"4X c #FFE493",
"5X c #FFEC94",
"6X c #FFE49C",
"7X c #FFEB9C",
"8X c #FFF393",
"9X c #FFF39B",
"0X c #FFFB9C",
"qX c #FFFA93",
"wX c #FFD4A3",
"eX c #FFDCA4",
"rX c #FFDCAC",
"tX c #FFD6AA",
"yX c #FFDDB2",
"uX c #FDCFA0",
"iX c #FFE4A3",
"pX c #FFECA3",
"aX c #FFE3AB",
"sX c #FFECAB",
"dX c #FFF4A4",
"fX c #FFFBA4",
"gX c #FFF4AB",
"hX c #FFFCAC",
"jX c #FFE3B3",
"kX c #FFECB3",
"lX c #FFEDBB",
"zX c #FFE5BA",
"xX c #FFF4B3",
"cX c #FFFDB4",
"vX c #FFF4BB",
"bX c #FFFEBB",
"nX c #FFECC4",
"mX c #FFFFC4",
"MX c #FFFFCC",
"NX c #FFF4C5",
"BX c #FFFFD3",
"VX c #FFFFDB",
"CX c #FFF5D2",
"ZX c #FFFFE4",
"AX c #FFFFEB",
"SX c #FFFFF4",
"DX c #FFFFFB",
/* pixels */
"                                                                                                                                                                                                                                                          ",
"                                                                                                                                                                                                                                                          ",
"                                                                                                                                                                                                                                                          ",
"                                                                                                                                                                                                                                                          ",
"                                                                                                                                                                                                                                                          ",
"                                                                                                                                                                                                                                                          ",
"                                                                                                                                                                                                                                                          ",
"                                                                                                                                                                                                                                                          ",
"                                                                                                                                                                                                                                                          ",
"                                                                                                                                                                                                                                                          ",
"                                                                                                            S.S.S.S.Z.W.)..X,XqX8XdXdXfXhXbXmX                                                                                                            ",
"                                                                                                  g.t.b.S.S.b.b.Z.L.W.^.>X5X2XqXqX0XfXcXmXMXMXMXMXmXbXcX                                                                                                  ",
"                                                                                            0.b.b.t.t.b.t.b.b.b.S.L.^. X&X>X>X>XOX>X1X0XhXcXbXmXbXmXmXmXbXcXcX                                                                                            ",
"                                                                                      ;.0.q.b.q.q.q.0.q.t.h.S.B.K.[.%X&X&X&X.X%X&X&X5XdXfXfXhXcXcXhXhXcXcXbXcXbXcXdX                                                                                      ",
"                                                                                  8.8.q.8.8.8.0.4.4.f.g.s.h.V.~.].%X&X=X*X&X&X=X=X4XdXgXfXfXgXfXfXhXhXfXdXhXgXcXcXcXgXpX                                                                                  ",
"                                                                              ;.8.q.=.;.%.;.4.6.g.g.s.h.h.V.K.]. X&X*X<X;X;X;X*X4XpXdXgXgXhXfXfXgXdXgXgXgXsXsXpXpXpXgXgXgX7X                                                                              ",
"                                                                          ;.8.8.8.%.$.}  .;.4.s.g.g.h.h.V.K.].&X*X<X4X<X;X*X;X4X7XgXgXhXgXhXhXhXgXhXxXxXsXsXaXiX6XeXeX6X6XdXpX4X                                                                          ",
"                                                                      X.8.=.=.} | { {  .-.6.v.x.g.b.S.V.~.%X*X4X4X4X4X;X;X*X;X6XpXgXxXcXxXcXxXcXcXxXxXxXkXsXiXeX:X:X:X=X:X:X:X6X7X6X                                                                      ",
"                                                                   .%.=.=.} | ] [ {  .7.:.S.L.Z.Z.Z.K.'. X&X4X4X4X;X;X;X;X;X6X7XgXgXxXxXbXbXcXbXbXxXgXxXsXsXaXeXeX-X-X$X$X$X-X-X:XpXiXeX                                                                  ",
"                                                                $.8.=.} | { { { { { ;.g.A.K.].].[.]. X%X*X4X4X4X4X;X;X*X;X;XpXpXgXdXhXcXcXcXbXbXbXcXfXdXkXaXaXeXeXwX-X$X$X$X-X$X=X:XpXxXaX                                                                ",
"                                                              X.=.} | { { { { { K 4.v.L.]. X&X=X*X&X*X*X4X<X<X*X;X;X=X*X;X4XpXdXdXxXhXcXhXcXbXcXcXhXdXgXsXaXaXeXeXwX-X-X-X$X$X$X-X-X:XeXvXvX                                                              ",
"                                                          Q =.=.| | { { { $.$. .4.v.A.^. X&X<X<X<X<X<X<X*X*X*X=X=X=X;X<X,X5XpXqX0XcXcXcXhXcXbXcXbXvXvXxXpXaXaXrXeXeXwX:X-X-X-X$X-X-X-X:XjXmXMXvX                                                          ",
"                                                        { 8.} | { { } -.-.4.s.x.B.A.^.}.&X<X<X<X4X<X*X*X*X=X=X=X=X<X4X1X8X8X8X0X0XhXcXcXbXbXbXcXbXvXxXkXpX7XiXeXeXtXwXwX-X-XuX-X-X-XuXwXeXkXmXBXMX                                                        ",
"                                                       .8.X.{ { {  .7.;.4.0.S.A.Z.^.}.}..X.X>X<X<X<X*X=X%X=X=X=X*X,X5X2XhX0X0XfXhXcXbXbXbXmXmXbXvXvXkXkXsXsXaXeXeXeXtXwXuXuXuXuXuXuXuXtXrXyXlXBXZXVX                                                      ",
"                                                     .8.X. .[ [  .;.4.6.0.B.A.J.W.].}.}.).|..X&X&X=X=X%X=X=X=X<X,X3XqXqXhXfXfXhXcXbXbXbXmXbXbXvXvXxXkXsXsXjXaXrXyXeXtXtX:X:XwXwXwXwXtXtXtXyXzXMXVXAXVX                                                    ",
"                                                  { =.X.{ [  . .-.4.6.0.n.V.Y.W.W.^.}.}.^.). X&X%X%X%X&X=X=X;X1X3XqXqXqXqX0XfXhXcXbXbXmXmXbXbXbXxXxXsXsXsXjXjXjXrXyXrXtXtXtXtXtXtXtXyXyXyXzXNXNXBXZXSXZX                                                  ",
"                                                | =.=.| J [  . .-.4.0.v.m.V.L.J.W.^.].].^.^. X X X=X&X=X&X*X4X1X2XqXqX0X0XhXhXfXcXbXmXbXbXmXvXvXvXkXkXkXaXjXjXeXaXrXrXrXyXyXrXyXyXyXyXrXyXlXNXmXMXBXAXSXBX                                                ",
"                                              [ } } ] [ [  . .-.4.6.y.r.r.B.A.L.K.^.^.].}.}. X X%X&X=X&X>X;X6X2XqX0X0X0XfXcXbXhXbXbXbXbXbXbXvXvXlXkXkXkXpXaXaXeX6XrXyXyXyXyXyXyXrXyXyXjXsXvXbXmXmXmXVXVXVXVX                                              ",
"                                            E X.} | ] S K { ^ -.&.e.9.0.v.M.B.A.K.~.U.T.(.).}.&X&X&X>XOX>X6X7X9XdXfXfXfXfXhXbXbXbXbXcXcXcXxXxXxXvXgXsXkXdX7X6XyXyXyXyXjXrXeXzXyXyXjXzXlXvXmXMXMXMXmXMXmXBXAXVX                                            ",
"                                          G [ } ' ] ] S J E $.%.&.&.&.g.g.x.v.F.J.Y.U.Q.[. X X=X&XoX>X<X4X7X7XpXdXfXhXhXfXhXcXhXhXcXcXcXgXxXkXxXlXsXdXkXpX4XiXaXaXaXaXjXjXjXzXzXnXxXxXmXmXMXBXVXBXMXmXmXBXSXAXMX                                          ",
"                                          [ | ' S M S J J J #.*.*.&.:.6.s.g.N.V.A.R.~.'.]. X%X&X>X>X4X<X4X7X7X9XdXfXhXcXhXhXbXhXhXcXcXgXgXgXkXkXkXgXpXsXaXiX7XiXjXjX7XpXzXzXkXlXCXCXMXBXBXBXZXVXVXBXMXmXMXVXAXAX                                          ",
"                                        J | o.` m n C A M D ] #.*.*.&.:.a.g.v.S.m.L.~.'.]. X&X=X<X<X4X<X1X5X5X9X9X0XfXhXhXcXmXhXhXgXgXgXsXsXsXkXgXpXpXaXjXjXiX7XiXzXlXvXNXNXNXNXCXVXVXZXZXZXVXBXVXBXMXBXmXMXVXSXZX                                        ",
"                                      ` | ' M M S b m m S ] ] ] #.*.%.7.:.9.e.v.v.L.L.~.].[.&X*X<X<X<X1X1X5X8X0XfXfXfXhXfXcXbXcXhXdXpXpXsXkXkXzXsXkXiXjXjXjXzXpXpXzXnXnXnXCXVXZXZXZXZXZXZXZXVXVXVXBXBXVXMXmXBXAXSXBX                                      ",
"                                    V [ [ M n S M n M M S S ] ] ] #.#.$.%.:.6.x.v.B.L.K.].%X=X*X<X4X<X1X1X8X8X9X9X0XfXfXhXbXbXfXgXsXpXpXsXkXkXzXkXaXaXjXjXjXzXjXzXkXlXnXNXCXVXZXVXZXAXAXAXAXZXVXVXBXMXMXMXmXMXMXZXSXVX                                    ",
"                                    ` | M v n n M A A n m S S ] D #.#.#.*.&.6.h.N.S.V.E.^.}.OX*X<X<X1X<X<X5X9X0XfXfXfXfXfXbXcXfXdXsXaXiXpXaXjXjXpX7XaXjXjXzXzXlXnXlXNXCXCXVXZXZXZXZXSXSXSXAXAXZXVXBXBXBXBXBXmXmXMXSXSX                                    ",
"                                  V [ o.M n n b b S M S M n S ] ] ] ] #.&.&.s.v.N.L.J.'.[..X.X<X<X4X5X1X5X9XdXdXfX0X9XdXgXbXmXfXpXpX7XaXyXaXjXjXpX5X5X7XaXzXnXlXnXnXNXCXVXVXAXAXAXSXDXSXSXSXAXAXVXBXVXVXVXBXMXmXmXVXDXAX                                  ",
"                                  [ o.M c n b c c M A S S S ] S ] { #.%.&.9.r.N.B.Z.^.}.}.|.*X*X<X4X5X7X7X9X9XdX0X0X9X9XgXbXbXbXcX7X6XaXaXjXjXkXgXgXgX5XpXlXlXNXvXNXCXBXVXZXAXSXDXDXDXSXAXSXSXAXZXZXZXZXBXBXBXMXmXBXSXSX                                  ",
"                                J [ v v c n n c b S S S S S S ] {  .-.7.&.y.r.B.Y.U.]. X.X>X*X4X<X<X<X1X1X5X7XdX9X7X7XgXgXcXcXbXcX7XiXjXjXlXxXvXbXmXgX5XdXvXbXxXvXvXNXCXVXZXAXSXDXDXDXSXSXAXSXAXZXZXVXBXMXBXBXMXmXMXAXDXAX                                ",
"                                [ o.v c u c p c f K { S S ] S J ^  .-.,.:.y.n.m.R.Y.(. X|.>X<X<X<X<X<X<X1X5X5X5X<X4XpXfXcXcXcXbXdX5XiXaXkXbXmXbXbXcX7X8XgXmXbXxXvXvXNXBXVXZXAXSXDXDXDXSXSXAXAXZXZXVXBXBXBXBXBXMXMXMXVXSXDX                                ",
"                              B [ n u 9 u c p p b K $.$.D D ] D K { #.&.&.n.n.r.m.R.U.]. X.X*X&X>X<X>X>X<X&X>X&X&X*XdXhXhXcXcXcXcXgXxXxXbXmXbXbXbXbXdX8XdXdXdXkXzXvXNXCXVXZXAXSXDXDXDXDXSXDXSXSXAXVXBXVXBXBXBXBXBXBXBXAXDXAX                              ",
"                              [ o.v u y u u c p p n { $.K S D #.$.$.&.$.7.5.6.y.n.R.Y.T.^. X X}.|.%X.X%X].].}.].}.*XdXfXhXcXcXcXcXbXbXbXmXhXdXdXdXhXgXdXsXsXbXmXvXbXBXVXZXZXSXSXDXDXDXDXSXSXSXAXAXBXMXBXVXVXMXMXMXBXBXVXZXSX                              ",
"                            R [ M C c u p p u u p b D -.D S S $.:.6.$. .1.5.r.y.R.Y.U.U.U.^.^.).). X[.[.~.~.^.].'.=XfXhXhXhXhXcXcXbXbXcXbXgXdXcXcXgX9X9XsXvXMXMXcXbXMXVXZXAXAXSXSXSXDXSXSXSXZXZXZXVXMXVXVXVXVXBXBXBXBXBXBXAXVX                            ",
"                            -.;.J J m C C c p u u p S +.K H { 7.:.:.*.4.w.z.n.n.Y.Y.U.U.Q.(.}.).(.^.'.J.W.!.^.'.[.4XfXfXhXhXhXfXfXhXfX8XfXbXbXbXbXmXbXxXcXgXmXNXNXMXCXVXAXSXDXSXDXDXDXSXAXZXVXZXZXZXVXVXBXBXVXZXVXBXBXMXMXBXZX                            ",
"                          ( 0.;. .Q R G G N b p p p A $.D D 7.5.w.j.w.e.n.G.R.R.Y.Y.Y.Q.}.&X.XU.A.V.L.Z.J.J.~.'. X8XfXhXfX2X2X7X7X8X8X2X8XdXcXcXcXgXcXmXmXlXlXnXCXBXVXAXSXSXDXDXDXDXSXDXAXZXZXZXZXVXVXVXVXVXBXVXBXBXMXMXMXBXZXVX                          ",
"                          2.b.4.>...! K K K G m m m A S S D 5.k.l.z.XXn.n.R.R.C.Y.Y.U.|..X.X}.Y.A.A.F.L.L.'.)._.1XfXhXhX0X,X5XpX7X2X1X,X1X1XcXbXcXcXcXvXlXkXvXMXBXVXZXAXDXDXDXDXDXDXDXSXAXAXZXZXAXZXZXVXVXBXBXBXMXMXMXMXMXBXZXZX                          ",
"                          g.0.;.3.<.( -.^ ~ ~ K R J J J H $.7.j.M.C.C.n.c.n.C.R.Y.E./..XE.Y.m.V.V.N.N.L.^.OX,X>XdXhXhXhX2X5X6X7X3X1X,X,X,X9XfXdXhXbXbXdXvXNXCXVXVXAXSXSXDXDXDXDXDXSXSXSXSXZXZXZXZXAXZXVXBXBXBXBXMXMXMXmXmXMXBXZX                          ",
"                        ( 0.;....... .~  .~ ~ K >.~ K K $.$.7.:.:.c.C.C.w.n.R.R.E.XXQ.Y.c.N.v.h.h.N.S.'.}..XOX3XhXfX2X8X3X5X4X1X+XOX>X,X>X9X2X,X,XdXbXmXMXMXBXZXAXAXAXSXDXDXDXSXSXAXZXAXZXVXZXAXAXZXZXVXBXMXBXBXMXMXMXmXmXmXMXBXVX                        ",
"                        2.4. .~ ! E Q ^ ) ~ ^ ^ ~ ~ +.+.$.7.7.,.e.k.C.XXn.n.n.z.c.n.n.j.s.g.s.h.S.Z.~.[. X.X*X,XfXfX<X5X1X+X>X,X,X8X9X9X2X,X7XdX,X9XcXmXMXBXVXBXZXVXZXAXZXAXAXZXAXZXVXZXVXVXZXZXZXZXZXBXMXBXMXMXMXMXmXmXbXbXmXMXVX                        ",
"                        4.;. .E U R J R E E ^ ^ ~ ~  .3.7.:.:.e.w.w.C.C.r.r.k.k.r.e.v.6.s.c.N.L.J.W. X X.X&X<X>X0X5X;X4X5XoXoX+XOX0X5X5XfX,X<X:X1X3XdXcXbXBXZXVXBXVXAXAXZXAXAXZXZXVXZXZXVXVXVXVXVXZXVXBXMXBXMXMXMXMXmXbXbXbXbXbXBX                        ",
"                      O.g.4. .R T T G T R E E ^ ~ ~  .>.-.-.7.:.:.k.z.n.e.e.6.5.:.:.9.s.N.L.~.{.}.}..X.X&X<X>X8X9X<X&X*X1XoX_._.oX,X0XfX8X8X9X5X,X1X9XfXhXBXBXBXBXVXAXSXAXZXAXAXAXAXAXZXVXVXVXVXVXVXVXBXMXMXMXMXmXmXbXbXvXvXxXbXBXxX                      ",
"                      i.g.;. .E U ` V G U E R ) >.( ( ..3.1.,.7.:.w.c.k.e.:.7.7.&.:.w.B.~. X}.>X>X&X>X.XOX>X8X0X1X&X.X>X,X_.`.`.).|.1X1XOX>X0X8X9XcXbXmXmXVXVXMXVXZXVXZXZXZXZXZXBXZXZXBXVXVXBXBXBXVXBXBXBXMXmXmXmXbXbXvXxXkXsXsXmXsX                      ",
"                      d.b.4.~ Y E U R U E E ! ) 1.i.1.3.5.p.p.w.w.c.C.z.w.e.w.e.r.A.R.U.)..X,X5X5X9X8X8X8X8X9X0X1X X`._.`.(._.|.2X1X(.`.`.OX8XhXxXgXgXcXbXBXVXMXBXVXVXVXZXZXZXZXBXVXZXZXVXVXVXBXBXBXBXBXMXMXmXmXmXbXcXxXsXiXiX6XvXxX                      ",
"                      h.g.....E Y T U E ! ! ) ( i.p.p.1.p.p.p.w.k.c.z.XXH.XXXXXX/.}.U.(.`.&X|.>X1X<X*X>XOX1X8X8X<X&X+X(.T.U.T.|.,X|.(.`.`.oX,XpX:XpXdXhXMXBXMXBXBXBXVXVXVXBXVXZXZXVXZXVXZXBXVXBXBXMXBXBXMXMXmXbXbXxXxXgXaX:X;X:XsXgX                      ",
"                      h.g...) ! E Y U U ! ! ) ( i.p.1.,.p.a.k.k.l.z.z.XXXXXXXX|.).Q.U.U.|..X).).[.%X X(.|.>X1X>X>X1X|.R.R.Q.U.U.U.U.T.)._.`.|.*X4X7XvXMXBXMXMXMXMXBXBXBXVXMXMXVXVXBXVXVXVXBXBXBXBXMXMXMXMXMXmXbXbXfXsXiX6X:X-X$X:X5X                      ",
"                    u.h.a...) E Y U T Y Y E ! ( @.@.<.3.3.p.s.l.z.z.z.XXXXXXXXXXY.Y.E.(..X}.W./.'.'.Q.Q.(.Q.(.U.U.Q.Z.R.Y.|.(.R.T.`.OX1XOXoX+X,XqXgXmXMXMXMXmXmXmXmXMXMXVXBXMXBXVXBXVXVXVXVXBXBXVXBXMXmXmXmXmXcXxXgXiX6X-X$X$X$X:X4X=X                    ",
"                    i.h.f.../ E E U U Y Y Y ! ) @.) @.@.<.1.p.s.z.z.z.z.XXXXXXC.n.E././.E.Y.Z.C.V.J.W.|.|.U.R.R.R.m.^.).|.OX|.).>X1X8X8X8X0X0X3X8XcXmXMXMXMXMXmXMXmXmXMXMXBXMXMXMXBXBXVXVXVXBXBXBXMXMXMXmXcXxXcXsXpX6X:X=X$X#X#X$X4X*X                    ",
"                    u.h.f...E Y Y U T Y U Y E ! _ +._ @.@.1.u.5.5.l.z.z.z.z.XXz.C.XXXX/.XXR.n.z.V.C.R.U.R.R.t.m.t.R.).}.Q.Y._.,X1X8X8X0XfXfX2X3XfXbXmXMXMXMXMXMXMXmXMXMXMXMXMXMXMXMXBXVXBXVXBXMXBXMXmXbXbXxXgXdX7XiX;X$X$X$XP.#X$X;X;X                    ",
"                    i.g...../ ` U T U T T T U Y W I +.+.+.@.5.5.+.5.k.l.z.z.z.z.G.G.XXG.n.C.R.w.n.t.n.t.y.y.R.U.R.y.R.Q.m.m.).|.OX+X,X8XfXhX0X0XfXcXbXmXMXBXBXmXmXMXBXBXBXBXBXMXMXBXVXBXBXMXMXMXMXmXbXcXxXgXsXsXpX:X-X$X$XP.P.P.$X;X<X                    ",
"                    i.g...E Y Y T T T T B F T U W W +.+.+.+.+.@.+.5.5.k.l.z.z.z.z.z.z.z.w.z.C.z.n.r.x.g.r.y.m.A.t.y.t.m.t.R.U.R.`.`.|.+X,X0XcXcXhXbXcXbXmXMXMXMXMXBXBXVXBXBXVXBXMXBXBXBXBXMXMXMXmXbXbXgXgXsX6X6XeX:X=X$X#XH.H.#X$X<X5X                    ",
"                    u.f.) Y T B T B B B B N N F T Z I +.+.@.+.+.5.5.5.p.p.k.l.z.k.w.e.e.e.w.C.R.n.6.s.s.s.6.e.y.y.e.t.m.R.R.R.`._.oXOX+X,XqXfXhXhXhXhXmXMXmXmXMXBXBXBXMXBXBXBXBXBXBXBXBXBXMXMXmXbXcXxXdXsX6X;X;X:X:X:X$XP.P.P.P.$X5X9X                    ",
"                    ....E _ B z z B z k k d k l Z Z H H Z +.+.+.u.@.+.1.5.p.k.k.k.7.:.w.j.c.c.6.:.:.6.6.:.9.9.9.9.0.r.R.|.U.T._.oX+X<X1XdXfXhXhXfX0XcXmXmXbXmXMXBXBXMXmXMXMXMXMXMXBXBXBXMXmXmXcXcXxXgXpX6X4X;X=X:X:X$X[.P.P.P.P.4X9XfX                    ",
"                    ) ..` B k z k h h a d a i d d d Z T +.Z Z +.+.+.+.u.1.p.p.p.k.5.5.l.j.k.5.3.%.7.6.;.&.:.:.9.r.g.S.Q.|.(.`.oX+X+X1X8XhXhXhXfX0XfXcXmXmXbXbXMXMXmXbXmXMXMXMXMXMXMXMXMXMXmXbXcXgXxXsXpX6X;X;X:X:X$X$X'.H.H.J.[.4XgXhX                    ",
"                    _ ..` k s 9 h t r w w w w w t i a Z W W I W +.+.+.+.1.5.5.5.5.p.p.k.k.5. .-.:.w.c.x.:.:.:.9.r.N.B.R.(.`.oX>XOX3XfX0X0XgXgXdXfXcXmXbXbXmXmXmXbXbXbXmXMXmXmXmXmXmXMXmXbXbXvXxXgXsXsXiX:X;X:X=X$X$X{.P.H.F.~.<X4XhXcX                    ",
"                    ` ` h h s g w 5 q 5 5 5 , 5 q q t a Z Z W +.I W +.+.+.+.@.1.5.5.5.a.6.5.,.5.k.k.c.c.c.k.r.v.r.v.^.(.(.`.oX<X1XqXfX0X3X5XdXgXcXmXmXmXbXMXmXbXbXmXmXbXbXmXmXmXmXmXbXcXbXbXxXgXsXsXpXiX;X=X=X%X[.$X^.J.P.{.%X=X7XfXcX                    ",
"                    L V h 7 6 e 5 > 4 > 0 0 > - > 5 q e j Z Z Z H H W A A +.+.+.@.+.+.5.5.5.5.6.w.5.k.k.l.k.w.n.E.E.OX|.(.)..X<X<X0XhX3X+X1XdXgXbXbXbXbXmXMXmXbXbXMXBXMXbXcXbXmXbXbXcXxXgXxXsXsXsXpXiX:X;X=X%X[.$X{.}.}.&X4X*X<XdXcXcX                    ",
"                    V v 8 7 5 5 - : : : ; 0 - = : - - 4 a l l Z l f Z f f A H +.+.+.+.+.-.+.$.+.5.$.$.7.k.n.n.r.Y. X&X.X(. X.X1X5X1X3XoXOX2XhXhXbXbXbXbXmXmXmXmXmXbXmXMXmXbXmXbXbXcXcXdX9XdXsXsXpXiXiX;X;X&X[.[.$X%X&X&X5XfX9X8XdXcXbX                    ",
"                    h v 7 4 - - = = ; ; ; ; ; ; ; ; : - 3 d d f f i i p i f f D D A A A +.$.S S D #.$.$.w.C.XXn.E.}..X/.W.'.]. X).|.oX_.+XqXfXhXcXcXcXcXbXmXmXmXmXbXbXcXcXbXcXhXcXcXcXhX9X9XsXpX6XiX6X4X;X=X[.$X&X{.!.[.5XdXfXhXcXbXcX                    ",
"                    g v 7 4 - - ; ; # # # # # # ; ; - : 3 i r d w w w w i f f H H l f f H Q +.D D D D +.w.c.C.XX/././.Y.V.L.Z.Y.|.|.OX.X,X0XfX0X0XcXcXfXcXbXbXmXmXbXbXhXcXhXgXdXgXgXdX8X9X7X6X6X6X6X6X4X*X X'.{.K.!.[.&X<X7XpXhXcXmXbX                    ",
"                    g v 7 0 - 0 ; ; # @ # # # # # % = ; < t t t w 7 5 6 i f l m A Z A H F B G J K D $.-.5.c.z.E.G.G.E.E.E.Y.R.Y.Q.U..X4X8XfXfXfX0XhXhXfXcXcXcXcXcXbXcXhXgXdXpX7X7X5X1X8X8X7XiXpX7X7X6X*X%X~.W.K.'.}.&X<X5X<X5XhXcXmXcX                    ",
"                    g s 7 - ; ; ; # # @ # X # X X @ ; % & : q t w > = > q q w i f A F l z V B B H D +.+.6.k.p.k.c.c.c.A.n.n.r.n.}.(..X4X9XgXgXfXfXgXfXfXfXhXhX0X0XhXgXdX7X7X5X<X<X5X1X2X5XpXsXgXpX6X;X=X{.J.Y.!. X4X5X5X5X1X,X8XcXmXhX                    ",
"                    g s 8 0 ; ; # # # @ # # X + + X X @ $ : 3 , 5 = - = = > 7 q t t a a h k V B S D $.+.5.-.+.+.:.6.k.c.w.n.n.U.&X&X<X1X5XdX9X8X9X9X5X9X9XdX5X5X2X8XfX7X5X4X<X*X*X6X7X8XpXpXgXpX6X4X=X].K.Y.W. X<X7X5X5X<X4X<X3XfXbX7X                    ",
"                      k 9 - ; # - - # # # X X # X + X % = : , , , # ; ; % - 5 4 3 q w i s k V N A A D -.-.K ~ 3.5.s.l.D.Z.}..X/.>X4X*X<X4X4X5X5X4X1X<X<X<X<X<X>X&X>X,X1X*X4X*X&X4X5X8XqXdXdXsXpX4X=X[.'.E.Q. X1X8X8X5X5X5X4X>X+XfXhX                      ",
"                      B 9 - ; ; , 5 > ; # X # ; X X # = = : : : % @ # # # - > 0 3 q 3 f f f d d A f D +.+.7.5.p.j.z.G.XX/.&X<X&X>X&X&X*X*X*X*X<X*X*X&X&X.X%X.X X}..X|.oX&X=X*X4X7X7X8X9X7XpXpX4X=X X'.K.W.}.1XdX9X2X5X4X<X>X@X+X0XfX                      ",
"                      z 9 0 ; - - , , > ; & : # X # & ; & & : : % @ @ @ # ; - , 3 3 i f f f Z Z W #.K +.u.p.k.c.z.H.XXXXXX.X&X*X&X).).}.&X&X X X X X X].[. X].^.].].].=X=X;X4X5X6XpX9XpXdX7X4X*X[.'.K.'. X<X8X9X9X8X1X,XOXoXoX+XqX8X                      ",
"                      P v 0 ; > > = , < < = = X # ; ; ; % @ & & & & # o @ # ; < q w d d f H _ @.@.@.@.i.p.d.l.z.n.B.XXXXXXE./. X/.U.U.U.^. X}.'.'.].].'.].'.^.~.W.W.'.$X=X=X>X>X4XpXdXgX7X4X&X X'.K.K.[.4X8X2X2X5X5X*X>XoXoX,X3XqX8X                      ",
"                      P k 7 - 5 ; < < ; : > % X X # ; % $ o $ & $ & # o @ % = : , w d f f +.@.+.@.@.i.i.p.p.d.l.c.M.l.C.D.D.H.G.!.XXY.L.K.H.L.L.J.J.W.K.K.K.L.Z.Z.E.'.%X=X=X=X+X1XfX9X7X4X=X[.].~.K.%X*X5X9X2X1X<X.X.X&XOX|.oXqX0XqX                      ",
"                        B 8 7 > ; > = ; > = = $ & & $ & $ X @ @ @ o @ @ $ & 1 3 q t d l Z +.@.u.@.@.@.@.k.5.k.p.k.z.j.c.l.z.z.c.C.XX!.H.D.D.N.B.V.L.L.L.L.L.Z.V.L.J.[.%X%X=X7XdXfXhX8XOX|. X].].].%X4X9X8X1X1X>XOX}.}.[.}.U.T.3XqX                        ",
"                        L v 8 - - = ; < < & % & & = & & @ X o o o o @ $ & : < 3 t t d d Z T W +.@.@.+.@.5.5.5.w.p.p.d.l.k.k.z.j.M.G.G.H.N.N.h.c.N.V.F.F.V.V.Z.L.K.^.|.*X4X7XfXfXfX9X<X`.}.%X X%X>X8XdX7X5X1X>X.X.X}.Q.^.|.(.@X3X3X                        ",
"                        x V u 7 5 > < , , = % @ % & & & @ X o X O o $ $ & < 3 3 3 i d d L Z H W @.+./ @.@.@.@.@.p.p.p.k.p.6.j.w.k.C.D.H.V.N.l.N.N.N.B.D.L.L.Z.U.Q.}.%X%X4X7X9X7X8X*X%X}..X*X4X5X8X8X9X5X1X>X.X|. XQ.E.Y.U.+X+XqX,X                        ",
"                          ` B k g q 5 , : : % @ $ $ & = & @ o o o o $ $ * & 3 3 3 3 r x Z Z Z Z I _ W / @.@.@.@.u.i.i.1.,.,.5.5.5.a.p.d.z.H.H.H.D.N.D.H.K.P.W.'.). X[. X&X&X%X1X5X1X<X>X,X5X7X8X1X1X1X>XOX.X|.^.^.E.E.L.Y.@X3XqX                          ",
"                          _ E N h e > > ; % % % % : 1 1 & $ o o O o o @ $ & 1 < 3 t t d Z x Z Z Z H I _ ! / ) ) ) ( ) i.>.3.3.<.i.2.p.d.d.I.H.H.F.P.K.{.!.~.{.!.Q.^.].'.[.[.[..X5X9X0X0X8X2X2X5X1X1X>X>X|.|.}.].W.J.J.A.A.W.3X3X                          ",
"                          I  .` j e 5 = % % & : & = : & & 2 o O O O O o o $ 1 < , 3 3 r r r x I I Z W @./ ! W ! ) ) ) ) ( +.>.3.,.,.p.p.d.I.D.C.G.XXH./.^.K.{.!.Y.Y.~.{.'.[.%X&X8X7X7XfX0XqX+X,X5X<X>X|.}.^.W.Y.Y.Z.A.A.A.A.@XoX                          ",
"                            / E z h 5 = % % % = : : : & & o o O O . . . O 2 $ & 1 1 3 < 3 3 r x I _ W W W W / ! ! ! ) ) ~ +.( u.i.5.a.l.l.l.I.V.C.B.C.V.A.XX/.Y.A.Y.J.'.[. X%X&X4X5X4X1X+X+X,X<X<X&X|.).Q.W.Y.A.B.A.B.S.A.Y.U.                            ",
"                            L ^ B j g : & & % = : : & % @ o X . O . . . o o 2 2 * * 1 1 3 3 3 x x L I I T W / / / ! / ) ( @.@.i.i.p.d.l.z.N.H.C.M.B.D.D.V.V.W.F.V.F.J.^.}. X X&X&X*X&X.XOXOX&X.X X}.^.W.U.E.Z.A.n.m.n.S.m.R.R.                            ",
"                              ` J C e > % % % % % % % @ o o X . . . . . . . O O 2 * * 1 < 3 3 x Z Z I I T W W _ W K W ) ) u.i.i.p.p.d.k.l.I.z.j.k.j.N.z.N.M.v.N.F.J.E.^.{.}.[. X%X X X.X%X.X}. X^.W.Y.Y.Z.Z.Z.n.m.t.b.b.A.Y.                              ",
"                              P C u e - % # @ @ @ @ @ @ o X . . . . . + + + . O 2 * 1 1 < 3 t x x L I I I W _ W W / ) / @.@.i.i.1.p.p.p.p.s.a.a.a.p.s.d.d.d.B.V.J.!.!.!.'.].].[.[. X X X X X].^.].E.Z.A.C.n.n.t.y.v.b.S.Z.m.                              ",
"                                V s s 4 ; % % @ @ @ $ @ @ X X + . + + . + + + O 2 2 * 1 < 3 3 g x x Z Z Z I T W _ W / ! ) ) @.@.@.<.u.i.1.5.,.,.2.2.f.s.d.N.D.V.Z.J.!.!.!.!.{.].].).[.[. X X}.W.W.L.B.A.B.v.v.v.r.r.b.A.m.                                ",
"                                x B s 7 - = : : & % # @ X @ X X O O . . O O O O O 2 * * 1 < 3 q r x x x z Z I I T Z T W W / ) ! ) ) ( ) +.,.,.3.<.2.f.d.l.z.D.V.F.H.K.K.J.!.{.'./.W.'.~.!.J.K./.L.V.n.v.B.v.B.x.r.x.b.m.b.                                ",
"                                  z z 7 - ; ; - : ; # @ @ @ o X X X X X X O o O o 2 2 * 1 1 < , 3 t t x d d l Z Z l Z Z Z H H U E ! ! ^ K $.-.>.<.f.s.s.l.l.D.D.D.F.F.H.L.K.K.K.J.J.J.V.B.n.M.B.B.c.r.x.v.s.r.0.0.t.b.t.                                  ",
"                                  P k 9 > = & % % ; % @ @ @ @ @ @ X o O O X X O o o 2 $ * & : < 3 3 t t r r r d d d d f l l F F G T ! Q ^ +.-.1.f.p.d.d.d.l.M.N.C.N.V.V.H.H.K.G.G.V.B.c.v.v.x.v.v.x.6.6.0.6.6.:.6.t.t.g.                                  ",
"                                    x s 7 - ; % % $ @ $ @ @ @ @ o X X X X X o O o 2 2 $ $ & & : < , , , q w q t t i r f d l l F F T Y Q ^ +.+.<.i.p.p.d.d.d.j.M.l.M.N.V.F.V.N.B.M.k.c.k.x.x.k.s.x.g.e.9.&.:.&.9.9.t.b.                                    ",
"                                      z s 4 = ; % $ % @ $ @ @ @ o o o o o X o o o o o $ $ * & & & 1 < : , , 3 q t t i r d f l Z T H J W ! ( @.<.i.p.p.p.d.s.s.l.l.j.j.c.M.l.c.x.x.r.k.g.s.s.6.6.a.6.:.&.&.&.&.=.q.q.                                      ",
"                                      P k 9 - = % % % $ @ @ @ @ @ o o o o o o o o 2 $ 2 $ $ * & & = = > : , , q q w w d d l l F T H U Q ! ( ( <.i.i.2.p.a.a.s.s.s.j.l.j.j.k.k.s.s.r.x.s.a.4.4.4.4.2.;.%.$.-.;.8.q.0.                                      ",
"                                        x C 8 > = % % ; % $ $ $ @ @ @ @ @ @ @ o 2 o $ $ $ $ $ & & & : : : , , 5 q t r d l l l F H T U U Q ) ( @.<.<.3.f.p.5.s.a.s.s.d.s.a.a.6.6.s.s.6.4.6.4. .-. .-.-.*.} } X.q.q.                                        ",
"                                          L v 6 > = % % % % % % $ # # @ $ @ @ o o $ $ $ $ $ $ & & & : : < : , 5 w t d d k l l F F H T U E ) ) ..3.3.3.3.2.5.5.6.6.5.5.4.4.4.,.f.f.f.2.2.>...K K K K  .{ { | 8.q.                                          ",
"                                          P z s 7 - = = % % % % % $ $ $ $ $ $ @ $ $ $ % & & & & & = = = < , , q t r a j d l l F F F H J Y ! ) ( ( >.<.3.3.,.2.2.-.3.,.,.-.3.>.3.<.>... . .K D K [ S S S ] *.q.4.                                          ",
"                                            g z u 7 - ; ; & & % % & % % % $ % $ $ $ $ % & ; & 1 = : : : < , q q t r a d k l l Z T H T U R Q ! @.+.@.>.+.>.>.3.>.>.<.>... . ....... .^ K S D A A S S S S | %.;.                                            ",
"                                              P k 9 7 > = ; & % ; ; % % % % % % % ; ; & 1 1 = = = : : : < 5 , q t r r d j k l z Z F H H U Q Q ! ~ ^ ^ ~ ~ ~ ..( ..( ..( ^ ^ ~  .E K J A S S A S A S S | } X.                                              ",
"                                                g k y 7 > - = & = = & & & & ; ; & 1 & & = : 1 : : : < , 5 5 5 t t r d d d l l l Z F T H U U R Q Q Q Q ! ^ Q ^ ~ ~ ^ J Q J Q ^ J J J A A A A n M M M ' } {                                                 ",
"                                                  x V C e 7 > > : : : = = & 1 = = = : : = : : < > < , , 5 5 e t r r a d j k l Z B Z F H H H H U H Y Q J J H R E Q J R J H R J G A m A M m m n n S | } }                                                   ",
"                                                    L T C s 7 5 5 < < - < : : : : - : < < > > < , , , 5 5 q t t r r r d d l l z l l F F F A A F H H H H H H H H H A A A G G A m m m b n n b n M [ X.X.                                                    ",
"                                                      L U ` C s e 6 5 5 5 , , < , > < < < , , , , 5 q q q w t e r a a d d d k k l l N N N l N F N N f A N m N m V V V B m m m b f f f b n n M ' | {                                                       ",
"                                                        L ! E V k h e 6 e 5 5 , , , , , , , 5 5 5 q q q e e r r r a a a d d d j k k l k k k l f f f m f f N f m N N f C f c f b p p c c n M ' ' J                                                         ",
"                                                          L / ..E B k h g 5 e 5 5 5 5 , 5 5 5 5 q e e t e e e r r a a a d d d d j d k f f f p f f p i p i p s i p i p p p p p p p p c n M ' S J                                                           ",
"                                                              / ....` k h g g e P 7 7 5 5 5 e e e e g e r r e a r a r a a a a a a a s a i f i i i i y i y w i y w y 8 y y y u u c v n M ' [                                                               ",
"                                                                _ .... .V V h h g g g 7 g e e e e e e g r r r e t a r i t t i w i a a i i p w w w w w w 6 6 6 6 6 6 6 6 6 y 9 9 u v M ' J                                                                 ",
"                                                                    O.....R V k h h 8 g g 6 e e e s r r r r r s a t w w w w w w q w w w w w 5 6 7 7 5 5 5 7 7 7 7 8 8 8 8 u c v M o.J                                                                     ",
"                                                                      _ ....E ` B L L h h g g g e g r r r r e r e t q w 5 5 5 5 5 4 5 5 5 , 7 4 5 4 4 4 4 4 4 4 7 7 7 9 u n n o.o.J                                                                       ",
"                                                                          _ ) ..E ` B V k h h h g r g e t t q e q 5 5 4 , , > - > > > - - > 4 - - 0 0 0 4 0 4 7 7 9 9 9 M M M J                                                                           ",
"                                                                              _ ! [ E U ` z h h s g r w q q 5 5 , , < > - = = - = = - - ; - - - - 0 0 0 4 4 7 7 9 u v M M M                                                                               ",
"                                                                                  I Y E J ` V C h s r w w 6 5 5 4 > - = = - = = ; ; = - - - - 0 0 0 0 0 0 9 9 v n M M C                                                                                   ",
"                                                                                      L Y E J ` C C v s y t 6 7 5 4 > > - - - - - - - - - 0 0 0 0 7 9 9 9 v n M V B                                                                                       ",
"                                                                                            _ _ ` ` ` m v p u 8 6 7 7 7 4 4 4 0 0 0 0 0 7 0 9 9 9 c v v C C N                                                                                             ",
"                                                                                                    L B B C C v c c u 9 9 9 9 u 9 9 9 c v v v v C C C                                                                                                     ",
"                                                                                                            x z j h a s s s s s v s s d h V z                                                                                                             ",
"                                                                                                                                                                                                                                                          ",
"                                                                                                                                                                                                                                                          ",
"                                                                                                                                                                                                                                                          ",
"                                                                                                                                                                                                                                                          ",
"                                                                                                                                                                                                                                                          ",
"                                                                                                                                                                                                                                                          ",
"                                                                                                                                                                                                                                                          ",
"                                                                                                                                                                                                                                                          ",
"                                                                                                                                                                                                                                                          ",
"                                                                                                                                                                                                                                                          "
};
