/* XPM */
static char *_572135612383[] = {
/* columns rows colors chars-per-pixel */
"10 10 6 1 ",
"  c black",
". c #000101",
"X c #010101",
"o c #010202",
"O c #020303",
"+ c None",
/* pixels */
"++++++++++",
"+++OOOO+++",
"++OOOOOO++",
"+OOOOOOO++",
"+OOOOOOOO+",
"+OOOOOOOO+",
"+OOOOOOO++",
"++OOOOOO++",
"+++OOO++++",
"++++++++++"
};
