/* XPM */
static char *_572136353625[] = {
/* columns rows colors chars-per-pixel */
"85 49 2 1 ",
"  c black",
". c None",
/* pixels */
"................................            .........................................",
"..............................                 ......................................",
"..............................                   ....................................",
"..............................                     ..................................",
"...............................                      ................................",
"...................................                   ...............................",
".....................................                   .............................",
".......................................                  ............................",
"........................................                  ...........................",
".........................................                   .........................",
"..........................................                            ...............",
".................   ................                                     ............",
"................      ............                                        ...........",
"...............         . .......                                          ..........",
"..............                ..                                            .........",
"..........                                                                  .........",
"......                                                                       ........",
"....                                                                          .......",
"..                                                                            .......",
"                                                                               ......",
"                                                                                .....",
"                                                                                 ....",
"                                                                                  ...",
"                                                                                   ..",
"                                                                                   ..",
"                                                                                  ...",
".                                                                                ....",
"..                                                                              .....",
"...                                                                            ......",
"....                                                                          .......",
"......                                                                       ........",
"........                                                                     ........",
"..........                                                                  .........",
"............                  ..                                            .........",
"...........               ........                                         ..........",
"............          .............                                       ...........",
"............        .................                                    ............",
"..........................................                           ................",
".........................................                  ..........................",
"........................................                  ...........................",
".......................................                  ............................",
".....................................                  ..............................",
"...................................                   ...............................",
"...............................                     .................................",
".............................                      ..................................",
".............................                    ....................................",
"..............................                .......................................",
".................................          ..........................................",
"....................................................................................."
};
