/* XPM */
static char *_572134207637[] = {
/* columns rows colors chars-per-pixel */
"97 78 218 2 ",
"   c #1D1A15",
".  c #1E1B19",
"X  c #181615",
"o  c #221C15",
"O  c #2E1915",
"+  c #221E1A",
"@  c #291A18",
"#  c #3C1814",
"$  c #361713",
"%  c #372C0D",
"&  c #2B2413",
"*  c #25211D",
"=  c #2C251B",
"-  c #2A2519",
";  c #352A16",
":  c #3D320F",
">  c #262422",
",  c #292624",
"<  c #2B2926",
"1  c #2D2C2A",
"2  c #312F2D",
"3  c #342D23",
"4  c #33312E",
"5  c #3A372D",
"6  c #353433",
"7  c #383735",
"8  c #3B3936",
"9  c #3B3B3B",
"0  c #431814",
"q  c #4A1814",
"w  c #471813",
"e  c #581813",
"r  c #631813",
"t  c #6C1813",
"y  c #7C1913",
"u  c #711915",
"i  c #43350D",
"p  c #4B3B0B",
"a  c #503E09",
"s  c #463A1A",
"d  c #51261E",
"f  c #7A281A",
"g  c #682C1B",
"h  c #433D2A",
"j  c #423E3A",
"k  c #573124",
"l  c #59460C",
"z  c #574408",
"x  c #584713",
"c  c #644D06",
"v  c #6B5206",
"b  c #755905",
"n  c #745A07",
"m  c #675418",
"M  c #6B571D",
"N  c #7D610A",
"B  c #79621B",
"V  c #4B442B",
"C  c #4E4223",
"Z  c #564925",
"A  c #47433A",
"S  c #544D35",
"D  c #5C5130",
"F  c #69592A",
"G  c #665B39",
"H  c #764929",
"J  c #77642C",
"K  c #6B653C",
"L  c #74673A",
"P  c #7C763E",
"I  c #454341",
"U  c #4C4946",
"Y  c #58534A",
"T  c #595854",
"R  c #514E4C",
"E  c #615E5C",
"W  c #605C55",
"Q  c #615D48",
"!  c #766A45",
"~  c #64615E",
"^  c #6B675A",
"/  c #787258",
"(  c #756C4F",
")  c #696765",
"_  c #6D6C6A",
"`  c #686A67",
"'  c #716E6B",
"]  c #73716E",
"[  c #787467",
"{  c #697577",
"}  c #757473",
"|  c #7A7876",
" . c #7D7C7A",
".. c #767A75",
"X. c #5D6565",
"o. c #8C1913",
"O. c #851913",
"+. c #931913",
"@. c #9D1813",
"#. c #A31914",
"$. c #AB1914",
"%. c #A21713",
"&. c #B41A14",
"*. c #BB1A15",
"=. c #8D2A1B",
"-. c #9D2B1C",
";. c #A82519",
":. c #B1251A",
">. c #8C3C23",
",. c #A63A23",
"<. c #C31B15",
"1. c #CC1B16",
"2. c #D21C16",
"3. c #846503",
"4. c #8B6B03",
"5. c #886A08",
"6. c #916E01",
"7. c #957201",
"8. c #9B7601",
"9. c #9D7905",
"0. c #8E7117",
"q. c #937515",
"w. c #A37C01",
"e. c #A47E06",
"r. c #884628",
"t. c #8F552F",
"y. c #967B24",
"u. c #976938",
"i. c #89773B",
"p. c #8E7234",
"a. c #857845",
"s. c #847959",
"d. c #817F7A",
"f. c #877E67",
"g. c #AB8302",
"h. c #A98307",
"j. c #B18700",
"k. c #B48A01",
"l. c #BA8E00",
"z. c #B48C0B",
"x. c #B88E0A",
"c. c #BE9101",
"v. c #BD930A",
"b. c #A58417",
"n. c #B38E16",
"m. c #B99315",
"M. c #9E8535",
"N. c #A78927",
"B. c #A68B34",
"V. c #B1912A",
"C. c #C39501",
"Z. c #CC9C01",
"A. c #C59805",
"S. c #D09F00",
"D. c #CEA006",
"F. c #D4A300",
"G. c #D9A600",
"H. c #DDAA00",
"J. c #D4A409",
"K. c #E0AD00",
"L. c #938546",
"P. c #9B964D",
"I. c #9C8B56",
"U. c #89824F",
"Y. c #A6984E",
"T. c #A49549",
"R. c #A9A554",
"E. c #B1AC57",
"W. c #B5B25A",
"Q. c #BCB85D",
"!. c #8C8365",
"~. c #988B63",
"^. c #84827D",
"/. c #938C78",
"(. c #9D926F",
"). c #A29877",
"_. c #C1BE5F",
"`. c #C0BE60",
"'. c #C6C262",
"]. c #C9C664",
"[. c #CECA66",
"{. c #D0CC67",
"}. c #D1CD68",
"|. c #788889",
" X c #7C9496",
".X c #858483",
"XX c #8A8886",
"oX c #8C8B8B",
"OX c #898784",
"+X c #96938C",
"@X c #959493",
"#X c #9D9C9B",
"$X c #9A9893",
"%X c #8A9193",
"&X c #A19F99",
"*X c #A3A09A",
"=X c #8BADB2",
"-X c #89AAAF",
";X c #A4A4A4",
":X c #ADADAD",
">X c #A8A8A6",
",X c #B4B4B4",
"<X c #BCBDBD",
"1X c #B0AFAD",
"2X c #BEBFC1",
"3X c #9AC4CA",
"4X c #9ECBD2",
"5X c #BFC0C0",
"6X c #A8D5DD",
"7X c #B4D7DD",
"8X c #A7CACF",
"9X c #B4DCE2",
"0X c #A9D8E0",
"qX c #B6E4EC",
"wX c #B7E9F2",
"eX c #BBF0FA",
"rX c #C0C1C1",
"tX c None",
/* pixels */
"tXtXtXtXtXtXtXtXtXtXtXtXtXtXtXtXtXtXtXtXtXtXtXtXtXtXtXtXtXtXtXtXtXtXtXtXtXtXtXtXtXtXtXtXtXtXtXtXtXtXtXtXtXtXtXtXtXtXtXtXtXtXtXtXtXtXtXtXtXtXtXtXtXtXtXtXtXtXtXtXtXtXtXtXtXtXtXtXtXtXtXtXtXtXtXtXtX",
"tXtXtXtXtXtXtXtXtXtXtXtXtXtXtXtXtXtXtXtXtXtXtXtXtXtXtXtXtXtXtXtXtXtXtXtXtXtXtXtXtXtXtXtXtXtXtXtXtXtXtXtXtXtXtXtXtXtXtXtXtXtXtXtXtXtXtXtXtXtXtXtXtXtXtXtXtXtXtXtXtXtXtXtXtXtXtXtXtXtXtXtXtXtXtXtXtX",
"tXtXtXtXtXtXtXtXtXtXtXtXtXtXtXtXtXtXtXtXtXtXtXtXtXtXtXtXtXtXtXtXtXtXtXtXtXtXtXtXtXtXtXtXtXtXtXtXtXtXtXtXtXtXtXtXtXtXtXtXtXtXtXtXtXtXtXtXtXtXtXtXtXtXtXtXtXtXtXtXtXtXtXtXtXtXtXtXtXtXtXtXtXtXtXtXtX",
"tXtXtXtXtXtXtXtXtXtXtXtXtXtXtXtXtXtXtXtXtXtXtXtXtXtXtXtXtXtXtXtXtXtXtXtXtXtXtXtXtXtXtXtXtXtXtXtXtXtXtXtXtXtXtXtXtXtXtXtXtXtXtXtXtXtXtXtXtXtXtXtXtXtXtXtXtXtXtXtXtXtXtXtXtXtXtXtXtXtXtXtXtXtXtXtXtX",
"tXtXtXtXtXtXtXtXtXtXtXtXtXtXtXtXtXtXtXtXtXtXtXtXtXtXtXtXtXtXtXtXtXtXtXtXtXtXtXtXtXtXtXtXtXtXtXtXtXtXtXtXtXtXtXtXtXtXtXtXtXtXtXtXtXtXtXtXtXtXtXtXtXtXtXtXtXtXtXtXtXtXtXtXtXtXtXtXtXtXtXtXtXtXtXtXtX",
"tXtXtXtXtXtXtXtXtXtXtXtXtXtXtXtXtXtXtXtXtXtXtXtXtXtXtXtXtXtXtXtXtXtXtXtXtXtXtXtXtXtXtXtXtXtXtXtXtXtXtXtXtXtXtXtXtXtXtXtXtXtXtXtXtXtXtXtXtXtXtXtXtXtXtXtXtXtXtXtXtXtXtXtXtXtXtXtXtXtXtXtXtXtXtXtXtX",
"tXtXtXtXtXtXtXtXtXtXtXtXtXtXtXtXtXtXtXtXtXtXtXtXtXtXtXtXtXtXtXtXtXtXtXtXtXtXtXtXtXtXtXtXtXtXtXtXtXtXtXtXtXtXtXtXtXtXtXtXtXtXtXtXtXtXtXtXtXtXtXtXtXtXtXtXtXtXtXtXtXtXtXtXtXtXtXtXtXtXtXtXtXtXtXtXtX",
"tXtXtXtXtXtXtXtXtXtXtXtXtXtXtXtXtXtXtXtXtXtXtXtXtXtXtXtXtXtXtXtXtXtXtXtXtXtXtXtXtXtXtXtXtXtXtXtXtXtXtXtXtXtXtXtXtXtXtXtXtXtXtXtXtXtXtXtXtXtXtXtXtXtXtXtXtXtXtXtXtXtXtXtXtXtXtXtXtXtXtXtXtXtXtXtXtX",
"tXtXtXtXtXtXtXtXtXtXtXtXtXtXtXtXtXtXtXtXtXtXtXtXtXtXtXtXtXtXtXtXtXtXtXtXtXtXtXtXtXtXtXtXtXtXtXtXtXtXtXtXtXtXtXtXtXtXtXtXtXtXtXtXtXtXtXtXtXtXtXtXtXtXtXtXtXtXtXtXtXtXtXtXtXtXtXtXtXtXtXtXtXtXtXtXtX",
"tXtXtXtXtXtXtXtXtXtXtXtXtXtXtXtXtXtXtXtXtXtXtXtXtXtXtXtXtXtXtXtXtXtXtXtXtXtXtXtXtXtXtXtXtXtXtXtXtXtXtXtXtXtXtXtXtXtXtXtXtXtXtXtXtXtXtXtXtXtXtXtXtXtXtXtXtXtXtXtXtXtXtXtXtXtXtXtXtXtXtXtXtXtXtXtXtX",
"tXtXtXtXtXtXtXtXtXtXtXtXtXtXtXtXtXtXtXtXtXtXtXtXtXtXtXtXtXtXtXtXtXtXtXtXtXtXtXtXtXtXtXtXtXtXtXtXtXtXtXtXtXtXtXtXtXtXtXtXtXtXtXtXtXtXtXtXtXtXtXtXtXtXtXtXtXtXtXtXtXtXtXtXtXtXtXtXtXtXtXtXtXtXtXtXtX",
"tXtXtXtXtXtXtXtXtXtXtXtXtXtXtXtXtXtXtXtXtXtXtXtXtXtXtXtXtXtXtXtXtXtXtXtXtXtXtXtXtXtXtXtXtXtXtXtXtXtXtXtXtXtXtXtXtXtXtXtXtXtXtXtXtXtXtXtXtXtXtXtXtXtXtXtXtXtXtXtXtXtXtXtXtXtXtXtXtXtXtXtXtXtXtXtXtX",
"tXtXtXtXtXtXtXtXtXtXtXtXtXtXtXtXtXtXtXtXtXtXtXtXtXtXtXtXtXtXtXtXtXtXtXtXtXtXtXtXtXtXtXtXtXtXtXtXtXtXtXtXtXtXtXtXtXtXtXtXtXtXtXtXtXtXtXtXtXtXtXtXtXtXtXtXtXtXtXtXtXtXtXtXtXtXtXtXtXtXtXtXtXtXtXtXtX",
"tXtXtXtXtXtXtXtXtXtXtXtXtXtXtXtXtXtXtXtXtXtXtXtXtXtXtXtXtXtXtXtXtXtXtXtXtXtXtXtXtXtXtXtXtXtXtXtXtXtXtXtXtXtXtXtXtXtXtXtXtXtXtXtXtXtXtXtXtXtXtXtXtXtXtXtXtXtXtXtXtXtXtXtXtXtXtXtXtXtXtXtXtXtXtXtXtX",
"tXtXtXtXtXtXtXtXtXtXtXtXtXtXtXtXtXtXtXtXtXtXtXtXtXtXtXtXtXtXtXtXtXtXtXtXtXtXtXtXtXtXtXtXtXtXtXtXtXtXtXtXtXtXtXtXtXtXtXtXtXtXtXtXtXtXtXtXtXtXtXtXtXtXtXtXtXtXtXtXtXtXtXtXtXtXtXtXtXtXtXtXtXtXtXtXtX",
"tXtXtXtXtXtXtXtXtXtXtXtXtXtXtXtXtXtXtXtXtXtXtXtXtXtXtXtXtXtXtXtXtXtXtXtXtXtXtXtXtXtXtXtXtXtXtXtXtXtXtXtXtXtXtXtXtXtXtXtXtXtXtXtXtXtXtXtXtXtXtXtXtXtXtXtXtXtXtXtXtXtXtXtXtXtXtXtXtXtXtXtXtXtXtXtXtX",
"tXtXtXtXtXtXtXtXtXtXtXtXtXtXtXtXtXtXtXtXtXtX9 9 U j 1 6 > X tXtXtXtXtXtXtXtXtXtXtXtXtXtXtXtXtXtXtXtXtXtXtXtXtXtXtXtXtXtXtXtXtXtXtXtXtXtXtXtXtXtXtXtXtXtXtXtXtXtXtXtXtXtXtXtXtXtXtXtXtXtXtXtXtXtXtX",
"tXtXtXtXtXtXtXtXtXtXtXtXtXtXtXtXtXtXtXtX1 T ] oX ..XOX' E T j + * tXtXtXtXtXtXtXtXtXtXtXX > . > , * , , , > > + * X . tXtXtXtXtXtXtXtXtXtXtXtXtXtXtXtXtXtXtXtXtXtXtXtXtXtXtXtXtXtXtXtXtXtXtXtXtXtX",
"tXtXtXtXtXtXtXtXtXtXtXtXtXtXtXtXtXtXtXU ) oXOX_ ' ) ` .X@XOXoXXX~ 4 , tXtXtXtX. * + , , 2 1 1 < 1 1 1 6 6 6 9 6 2 1 < + . . tXtXtXtXtXtXtXtXtXtXtXtXtXtXtXtXtXtXtXtXtXtXtXtXtXtXtXtXtXtXtXtXtXtXtX",
"tXtXtXtXtXtXtXtXtXtXtXtXtXtXtXtXtXtXR d.$X#X@XOX ._ ` ` _  .@X>X>X*X~ 1   * * , 1 6 7 9 7 6 , < < , , , 6 9 9 9 9 9 9 6 2 >     tXtXtXtXtXtXtXtXtXtXtXtXtXtXtXtXtXtXtXtXtXtXtXtXtXtXtXtXtXtXtXtXtX",
"tXtXtXtXtXtXtXtXtXtXtXtXtXtXtXtX, I _ OXoX| oXOX .oX] _ } [ ...XOX~ j , , 1 7 6 9 9 9 9 9 9 6 6 6 6 6 1 6 9 9 9 9 9 9 9 9 7 4 =   tXtXtXtXtXtXtXtXtXtXtXtXtXtXtXtXtXtXtXtXtXtXtXtXtXtXtXtXtXtXtXtX",
"tXtXtXtXtXtXtXtXtXtXtXtXtXtX, i a s J F F F j Y D C F V V Y A h 3 + * > , 1 1 1 1 2 6 7 9 9 9 9 9 9 9 9 9 9 9 6 9 7 7 6 6 6 5 h c - tXtXtXtXtXtXtXtXtXtXtXtXtXtXtXtXtXtXtXtXtXtXtXtXtXtXtXtXtXtXtX",
"tXtXtXtXtXtXtXtXtXtXtXl x G ! 9.x.Z.l.C.x.n ( Q 7.A.g.k.g.6.7.N c z p & & - . * > > > , 1 6 7 7 9 9 9 9 9 6 1 1 , , , , , , 3 m N 3 + tXtXtXtXtXtXtXtXtXtXtXtXtXtXtXtXtXtXtXtXtXtXtXtXtXtXtXtXtXtX",
"tXtXtXtXtXtXtXtXtXtX: g.h.~.T.J.K.K.G.k.w.n E F h.C.H.K.H.H.H.F.G.A.k.g.4.l z i o   * > > > < 4 7 9 9 9 2 1 , > > * + + +   & z : - * . tXtXtXtXtXtXtXtXtXtXtXtXtXtXtXtXtXtXtXtXtXtXtXtXtXtXtXtXtX",
"tXtXtXtXtXtXtXtXtXtXl l.m./.b.J.K.K.H.l.8.F Q F 6.j.Z.K.K.D.c.z.F.G.K.H.G.G.c.h.7.b i $ & + * > , < 6 1 , > * o X .   .   X   o *       tXtXtXtXtXtXtXtXtXtXtXtXtXtXtXtXtXtXtXtXtXtXtXtXtXtXtXtXtX",
"tXtXtXtXtXtXtXtXtXtX: n a.I.A.K.K.K.K.G.e.! ^ 0.e.C.C.Z.h.J K F F q.F.K.K.K.H.H.S.C.C.w.n p i = . * > > * *   X tXtXtXtXtXtXtXtXtXtXtXtXtXtXtXtXtXtXtXtXtXtXtXtXtXtXtXtXtXtXtXtXtXtXtXtXtXtXtXtXtX",
"tXtXtXtXtXtXtXtXtXtXtX; ^ M.J.K.K.K.K.H.n./ f.j.S.G.Z.0.Q T { ` T K h.G.K.K.K.K.S.C.C.Z.F.Z.7.x 8 5 o o   tXtXtXtXtXtXtXtXtXtXtXtXtXtXtXtXtXtXtXtXtXtXtXtXtXtXtXtXtXtXtXtXtXtXtXtXtXtXtXtXtXtXtXtX",
"tXtXtXtXtXtXtXtXtXtXtX* C 0.A.G.K.K.K.G.y.f.B.A.K.S.e.Q { 3X4X4X%X` J x.H.K.H.K.S.C.w.C.S.S.A.p.^.^.T A * X tXtXtXtXtXtXtXtXtXtXtXtXtXtXtXtXtXtXtXtXtXtXtXtXtXtXtXtXtXtXtXtXtXtXtXtXtXtXtXtXtXtXtX",
"tXtXtXtXtXtXtXtXtXtXtXtX% c 8.C.H.H.K.Z.a.OXz.K.K.x.L |.4XwXqXeX6X{ ^ h.H.K.K.K.K.C.w.w.e.e.e.K 1X2X,XoXY s % X tXtXtXtXtXtXtXtXtXtXtXtXtXtXtXtXtXtXtXtXtXtXtXtXtXtXtXtXtXtXtXtXtXtXtXtXtXtXtXtXtX",
"tXtXtXtXtXtXtXtXtXtXtXtXo ; v 7.C.H.K.V.f.I.A.K.J.q.X.4XwXwX9X7XqX-X^ q.K.K.K.K.K.G.l.w.w.8.3.Q @X,X,X,X^.5.N z % tXtXtXtXtXtXtXtXtXtXtXtXtXtXtXtXtXtXtXtXtXtXtXtXtXtXtXtXtXtXtXtXtXtXtXtXtXtXtXtX",
"tXtXtXtXtXtXtXtXtXtXtXtXtXA Z b w.A.G.L./.n.S.K.A.i. X6X9X9X7X8XwX=X` b.G.K.K.H.K.S.C.w.w.8.v ^ .XoX#X@X!.j.K.c.3.% o tXtXtXtXtXtXtXtXtXtXtXtXtXtXtXtXtXtXtXtXtXtXtXtXtXtXtXtXtXtXtXtXtXtXtXtXtXtX",
"tXtXtXtXtXtXtXtXtXtXtXtXtXT T s v w.N.!.~.Z.K.K.C.( =X6X7X7X7X7XqX=X^ h.K.K.K.K.K.K.S.k.w.8.B } XXd..X|.F z.H.K.G.h.z tXtXtXtXtXtXtXtXtXtXtXtXtXtXtXtXtXtXtXtXtXtXtXtXtXtXtXtXtXtXtXtXtXtXtXtXtXtX",
"tXtXtXtXtXtXtXtXtXtXtXtXtXU oX} Z v a.f.V.F.K.K.n./ =X9X7X9X9XqX0X X! z.H.H.K.K.H.K.H.F.S.w.! oX&X@XXX_ Z w.K.K.K.Z.x @ tXtXtXtXtXtXtXtXtXtXtXtXtXtXtXtXtXtXtXtXtXtXtXtXtXtXtXtXtXtXtXtXtXtXtXtXtX",
"tXtXtXtXtXtXtXtXtXtXtXtXtXU OX#X^ h Y ! e.S.K.K.z.( -X0X9XqXqXqX3X{ y.D.K.K.K.K.K.K.K.K.G.z.f.,X<X:X&X[ B w.C.G.K.Z.a 7 2 tXtXtXtXtXtXtXtXtXtXtXtXtXtXtXtXtXtXtXtXtXtXtXtXtXtXtXtXtXtXtXtXtXtXtXtX",
"tXtXtXtXtXtXtXtXtXtXtXtXtX7 } #X@X_ A m 6.k.S.K.A.( %X4XwXeXqX3X X/ z.K.H.K.K.H.K.K.K.K.F.B.+X5XrX5X:X^ w.w.k.S.K.C.J } E tXtXtXtXtXtXtXtXtXtXtXtXtXtXtXtXtXtXtXtXtXtXtXtXtXtXtXtXtXtXtXtXtXtXtXtX",
"tXtXtXtXtXtXtXtXtXtXtXtXtX4 ) oX#X*X[ s v 4.j.S.F.y.[ |.=X3X-X|./ b.D.H.K.K.K.K.K.K.K.K.Z.a.1X5XrXrX>Xa.k.Z.C.S.K.C.D &X) < , , * > * tXtXtXtXtXtXtXtXtXtXtXtXtXtXtXtXtXtXtXtXtXtXtXtXtXtXtXtXtXtX",
"tXtXtXtXtXtXtXtXtXtXtXtXtX1 U } XX@X@X} D v 4.k.Z.v.i.| |.} } s.y.F.K.K.K.H.K.K.K.K.K.H.m.f.rX5X5XrX$XN.Z.K.S.G.K.e.Q ;X' 3 1 1 2 2 1 @ 0 q t r t r $ $ O tXtXtXtXtXtXtXtXtXtXtXtXtXtXtXtXtXtXtXtX",
"tXtXtXtXtXtXtXtXtXtXtXtXtXtX2 T } XXoX@X_ h a 4.g.C.h.q.i.a.y.n.F.K.K.K.K.K.K.K.K.K.K.S.p.&X2X5XrX,X(.j.K.K.K.K.K.5./ #X) < < , < 4 7 3 o.*.*.<.*.&.*.o.r 0 O tXtXtXtXtXtXtXtXtXtXtXtXtXtXtXtXtXtX",
"tXtXtXtXtXtXtXtXtXtXtXtXtXtX* j E } d.@XoX) A l 4.w.c.Z.C.Z.F.K.H.H.K.H.H.K.K.H.K.K.K.A.f.rX5X5XrX>XB.C.K.K.K.K.S.n | ,XU 1 > > > < 4 d $.2.1.<.*.&.&.*.1.#.r o tXtXtXtXtXtXtXtXtXtXtXtXtXtXtXtXtX",
"tXtXtXtXtXtXtXtXtXtXtXtXtXtXtX+ < U E ' XX&X^.V : v 4.j.Z.G.H.K.K.K.K.K.K.K.K.K.K.K.S.B.+XrX5X5X5X$Xe.K.K.K.K.K.k.J d.#XI 2 , + > , 2 d &.1.1.2.*.#.@.$.*.1.*.t tXtXtXtXtXtXtXtXtXtXtXtXtXtXtXtXtX",
"tXtXtXtXtXtXtXtXtXtXtXtXtXtXtXtXtX2 U E _ ] d.E - % z 3.w.l.Z.H.K.H.K.K.H.K.K.K.K.K.C.s.,X5X5XrX:XI.v.K.K.K.K.K.g.S @X| j 2 1 , < < < x r.r.,.$.<.*.&.$.&.<.*.o.tXtXtXtXtXtXtXtXtXtXtXtXtXtXtXtXtX",
"tXtXtXtXtXtXtXtXtXtXtXtXtXtXtXtXtXtX  4 R ] } } 9 & & p b 8.j.C.F.G.K.K.K.K.K.K.K.S.V.+XrX5X5XrX&XN.F.K.K.K.K.Z.5.T #X_ 1 4 4 2 4 2 h U.Q.Y.P.u.:.2.1.1.2.&.u q tXtXtXtXtXtXtXtXtXtXtXtXtXtXtXtXtX",
"tXtXtXtXtXtXtXtXtXtXtXtXtXtXtXtXtXtXtXtX+ 2 R ' T 1 > - % l 3.8.g.C.G.G.K.K.K.K.K.k.~.1XrX5XrX1X(.z.K.K.K.K.K.C.F | XXY 2 6 6 4 6 4 V W.[.].E.u.;.2.2.2.2.&.0 @ tXtXtXtXtXtXtXtXtXtXtXtXtXtXtXtXtX",
"tXtXtXtXtXtXtXtXtXtXtXtXtXtXtXtXtXtXtXtXtXtX, < 7 < + , , = i v 3.8.k.Z.G.H.H.K.F.N.#XrXrXrXrX&XB.Z.K.K.K.K.G.e.A +X .8 4 6 6 7 6 5 K '.{.[.L.r.;.1.1.2.2.1.*.t O tXtXtXtXtXtXtXtXtXtXtXtXtXtXtXtX",
"tXtXtXtXtXtXtXtXtXtXtXtXtXtXtXtXtXtXtXtXtXtXtXtX*   o > 1 2 > & p b 6.w.c.Z.G.H.b.(.,X5X5XrX,X(.l.K.K.K.K.K.C.M ~ .X~ 2 4 6 4 9 4 h P.].}.}.'.Y.u.>.;.1.2.2.2.$.e @ tXtXtXtXtXtXtXtXtXtXtXtXtXtXtX",
"tXtXtXtXtXtXtXtXtXtXtXtXtXtXtXtXtXtXtXtXtXtXtXtXtXtX. * , 6 7 6 - % a b 8.g.l.x.a.,X5X5X5XrX&XT.Z.K.K.K.K.K.w.S .X| I 4 6 6 6 6 4 S Q.{.}.}.}.[.'.R.u.f $.1.<.<.*.e @ tXtXtXtXtXtXtXtXtXtXtXtXtXtX",
"tXtXtXtXtXtXtXtXtXtXtXtXtXtXtXtXtXtXtXtXtXtXtXtXtXtXtX. > 1 9 9 6 1 = : z b 4.J d.;X,X<X5X<X!.A.H.K.K.K.K.k.F E .X~ 4 6 6 6 6 6 5 U.'.}.[.}.}.[.}.[.`.P.t.:.<.*.<.@.q X tXtXtXtXtXtXtXtXtXtXtXtXtX",
"tXtXtXtXtXtXtXtXtXtXtXtXtXtXtXtXtXtXtXtXtXtXtXtXtXtXtX. + , 6 9 9 9 6 , ; i i Y | oX#X>X:X).V.G.K.K.K.K.K.b Y  ._ I 4 4 7 6 7 4 5 W.].}.[.}.}.[.}.}.}.].Y.F =.:.1.1.o.# tXtXtXtXtXtXtXtXtXtXtXtXtX",
"tXtXtXtXtXtXtXtXtXtXtXtXtXtXtXtXtXtXtXtXtXtXtXtXtXtXtXtX. > 1 7 9 9 9 6 1 > + 6 Y ) } +XXXp.x.S.G.G.G.S.9.C )  .I 2 6 6 6 7 6 8 L '.}.}.[.}.{.{.{.{.{.{.{.Q.u.-.1.2.1.y O tXtXtXtXtXtXtXtXtXtXtXtX",
"tXtXtXtXtXtXtXtXtXtXtXtXtXtXtXtXtXtXtXtXtXtXtXtXtXtXtXtXX + > 2 9 9 9 6 1 2 1 > + 2 I Y Q 3.w.j.c.l.c.7.F T ' T 1 , 1 1 4 6 6 V R.[.}.}.}.[.{.]._.].].{.{.{.W.t.;.2.2.$.e X tXtXtXtXtXtXtXtXtXtXtX",
"tXtXtXtXtXtXtXtXtXtXtXtXtXtXtXtXtXtXtXtXtXtXtXtXtXtXtXtXtX  * , 1 9 9 9 1 , 1 6 7 ,   * : z b 3.8.9.6.x I } R 1 , , , , , < 4 K ].[.{.[.W.'.'.'.W.W.W.Q.'.{.{.E.>.1.2.1.+.# tXtXtXtXtXtXtXtXtXtXtX",
"tXtXtXtXtXtXtXtXtXtXtXtXtXtXtXtXtXtXtXtXtXtXtXtXtXtXtXtXtXtX. * , 1 9 9 2 , 1 1 9 2   tX    % i a c p ; j I 6 + > > > > > + s L E.W.W.W.P Z a.R.P.L.P.R.E.Q.].Q.t.<.2.2.1.r tXtXtXtXtXtXtXtXtXtXtX",
"tXtXtXtXtXtXtXtXtXtXtXtXtXtXtXtXtXtXtXtXtXtXtXtXtXtXtXtXtXtX  + , , 6 9 9 1 , < 6 4 + tXtXtXtXX & & . tXtXtXtXtX+ > , , > # y o.r.L.R.R.P.F f f r.t.L i.P.P.R.P.,.<.2.2.1.o.O tXtXtXtXtXtXtXtXtXtX",
"tXtXtXtXtXtXtXtXtXtXtXtXtXtXtXtXtXtXtXtXtXtXtXtXtXtXtXtXtXtXtX  + > , 6 9 9 2 1 6 7 + tXtXtXtXtXtXtXtXtXtXtXtXtXtX. * > , u *.2.#.f Z i.E.P =.<.$.;.;.=.g r.r.=.<.2.2.2.2.@.0 tXtXtXtXtXtXtXtXtXtX",
"tXtXtXtXtXtXtXtXtXtXtXtXtXtXtXtXtXtXtXtXtXtXtXtXtXtXtXtXtXtXtXtX. . , 1 6 9 9 9 7 9 1 . tXtXtXtXtXtXtXtXtXtXtXtXtXtX+ + @ +.*.*.1.<.#.=.g H =.1.1.1.<.<.1.*.*.<.1.2.2.2.2.*.# tXtXtXtXtXtXtXtXtXtX",
"tXtXtXtXtXtXtXtXtXtXtXtXtXtXtXtXtXtXtXtXtXtXtXtXtXtXtXtXtXtXtXtXtXX > , 1 7 9 9 9 9 6 * tXtXtXtXtXtXtXtXtXtXtXtXtXtXtXtX@ u @.$.<.1.1.1.<.&.<.2.<.&.&.$.&.<.1.<.<.2.2.2.2.#.e tXtXtXtXtXtXtXtXtXtX",
"tXtXtXtXtXtXtXtXtXtXtXtXtXtXtXtXtXtXtXtXtXtXtXtXtXtXtXtXtXtXtXtXtX. . + , 1 6 9 9 9 9 1   tXtXtXtXtXtXtXtXtXtXtXtXtXtXtXtXq y $.&.<.1.1.&.$.<.<.<.1.&.%.%.$.$.$.;.$.*.<.1.O.# tXtXtXtXtXtXtXtXtXtX",
"tXtXtXtXtXtXtXtXtXtXtXtXtXtXtXtXtXtXtXtXtXtXtXtXtXtXtXtXtXtXtXtXtXtXtX. * , 1 7 9 9 9 9 < + tXtXtXtXtXtXtXtXtXtXtXtXtXtXtXtXO y %.&.<.&.t q w r y O.O.%.+.@.%.@.#.@.@.$.O.e tXtXtXtXtXtXtXtXtXtXtX",
"tXtXtXtXtXtXtXtXtXtXtXtXtXtXtXtXtXtXtXtXtXtXtXtXtXtXtXtXtXtXtXtXtXtXtX.   + > < 6 9 9 9 6 ,   tXtXtXtXtXtXtXtXtXtXtXtXtXtXtXtXq u o.#.&.0 tXtXo   O $ o 0 0 # e w w w $ $ tXtXtXtXtXtXtXtXtXtXtXtX",
"tXtXtXtXtXtXtXtXtXtXtXtXtXtXtXtXtXtXtXtXtXtXtXtXtXtXtXtXtXtXtXtXtXtXtXtXtX  + > , 1 6 9 9 6 - o tXtXtXtXtXtXtXtXtXtXtXtXtXtXtXtXX # e q tXtXtXtXtXtXtXtXtXX           tXtXtXtXtXtXtXtXtXtXtXtXtXtX",
"tXtXtXtXtXtXtXtXtXtXtXtXtXtXtXtXtXtXtXtXtXtXtXtXtXtXtXtXtXtXtXtXtXtXtXtXtXtX  + * , < 6 7 9 V x -   tXtXtXtXtXtXtXtXtXtXtXtXtXtXtXtXtXtXtXtXtXtXtXtXtXtXtXtXtXtXtXtXtXtXtXtXtXtXtXtXtXtXtXtXtXtXtX",
"tXtXtXtXtXtXtXtXtXtXtXtXtXtXtXtXtXtXtXtXtXtXtXtXtXtXtXtXtXtXtXtXtXtXtXtXtXtXtXX   o * * < 6 N N h * + tXtXtXtXtXtXtXtXtXtXtXtXtXtXtXtXtXtXtXtXtXtXtXtXtXtXtXtXtXtXtXtXtXtXtXtXtXtXtXtXtXtXtXtXtXtX",
"tXtXtXtXtXtXtXtXtXtXtXtXtXtXtXtXtXtXtXtXtXtXtXtXtXtXtXtXtXtXtXtXtXtXtXtXtXtXtXtXtXX   o . = c x 4 , o tXtXtXtXtXtXtXtXtXtXtXtXtXtXtXtXtXtXtXtXtXtXtXtXtXtXtXtXtXtXtXtXtXtXtXtXtXtXtXtXtXtXtXtXtXtX",
"tXtXtXtXtXtXtXtXtXtXtXtXtXtXtXtXtXtXtXtXtXtXtXtXtXtXtXtXtXtXtXtXtXtXtXtXtXtXtXtXtXtXtXtX    & & o *   tXtXtXtXtXtXtXtXtXtXtXtXtXtXtXtXtXtXtXtXtXtXtXtXtXtXtXtXtXtXtXtXtXtXtXtXtXtXtXtXtXtXtXtXtXtX",
"tXtXtXtXtXtXtXtXtXtXtXtXtXtXtXtXtXtXtXtXtXtXtXtXtXtXtXtXtXtXtXtXtXtXtXtXtXtXtXtXtXtXtXtXtXtXtXtXtXtXtXtXtXtXtXtXtXtXtXtXtXtXtXtXtXtXtXtXtXtXtXtXtXtXtXtXtXtXtXtXtXtXtXtXtXtXtXtXtXtXtXtXtXtXtXtXtX",
"tXtXtXtXtXtXtXtXtXtXtXtXtXtXtXtXtXtXtXtXtXtXtXtXtXtXtXtXtXtXtXtXtXtXtXtXtXtXtXtXtXtXtXtXtXtXtXtXtXtXtXtXtXtXtXtXtXtXtXtXtXtXtXtXtXtXtXtXtXtXtXtXtXtXtXtXtXtXtXtXtXtXtXtXtXtXtXtXtXtXtXtXtXtXtXtXtX",
"tXtXtXtXtXtXtXtXtXtXtXtXtXtXtXtXtXtXtXtXtXtXtXtXtXtXtXtXtXtXtXtXtXtXtXtXtXtXtXtXtXtXtXtXtXtXtXtXtXtXtXtXtXtXtXtXtXtXtXtXtXtXtXtXtXtXtXtXtXtXtXtXtXtXtXtXtXtXtXtXtXtXtXtXtXtXtXtXtXtXtXtXtXtXtXtXtX",
"tXtXtXtXtXtXtXtXtXtXtXtXtXtXtXtXtXtXtXtXtXtXtXtXtXtXtXtXtXtXtXtXtXtXtXtXtXtXtXtXtXtXtXtXtXtXtXtXtXtXtXtXtXtXtXtXtXtXtXtXtXtXtXtXtXtXtXtXtXtXtXtXtXtXtXtXtXtXtXtXtXtXtXtXtXtXtXtXtXtXtXtXtXtXtXtXtX",
"tXtXtXtXtXtXtXtXtXtXtXtXtXtXtXtXtXtXtXtXtXtXtXtXtXtXtXtXtXtXtXtXtXtXtXtXtXtXtXtXtXtXtXtXtXtXtXtXtXtXtXtXtXtXtXtXtXtXtXtXtXtXtXtXtXtXtXtXtXtXtXtXtXtXtXtXtXtXtXtXtXtXtXtXtXtXtXtXtXtXtXtXtXtXtXtXtX",
"tXtXtXtXtXtXtXtXtXtXtXtXtXtXtXtXtXtXtXtXtXtXtXtXtXtXtXtXtXtXtXtXtXtXtXtXtXtXtXtXtXtXtXtXtXtXtXtXtXtXtXtXtXtXtXtXtXtXtXtXtXtXtXtXtXtXtXtXtXtXtXtXtXtXtXtXtXtXtXtXtXtXtXtXtXtXtXtXtXtXtXtXtXtXtXtXtX",
"tXtXtXtXtXtXtXtXtXtXtXtXtXtXtXtXtXtXtXtXtXtXtXtXtXtXtXtXtXtXtXtXtXtXtXtXtXtXtXtXtXtXtXtXtXtXtXtXtXtXtXtXtXtXtXtXtXtXtXtXtXtXtXtXtXtXtXtXtXtXtXtXtXtXtXtXtXtXtXtXtXtXtXtXtXtXtXtXtXtXtXtXtXtXtXtXtX",
"tXtXtXtXtXtXtXtXtXtXtXtXtXtXtXtXtXtXtXtXtXtXtXtXtXtXtXtXtXtXtXtXtXtXtXtXtXtXtXtXtXtXtXtXtXtXtXtXtXtXtXtXtXtXtXtXtXtXtXtXtXtXtXtXtXtXtXtXtXtXtXtXtXtXtXtXtXtXtXtXtXtXtXtXtXtXtXtXtXtXtXtXtXtXtXtXtX",
"tXtXtXtXtXtXtXtXtXtXtXtXtXtXtXtXtXtXtXtXtXtXtXtXtXtXtXtXtXtXtXtXtXtXtXtXtXtXtXtXtXtXtXtXtXtXtXtXtXtXtXtXtXtXtXtXtXtXtXtXtXtXtXtXtXtXtXtXtXtXtXtXtXtXtXtXtXtXtXtXtXtXtXtXtXtXtXtXtXtXtXtXtXtXtXtXtX",
"tXtXtXtXtXtXtXtXtXtXtXtXtXtXtXtXtXtXtXtXtXtXtXtXtXtXtXtXtXtXtXtXtXtXtXtXtXtXtXtXtXtXtXtXtXtXtXtXtXtXtXtXtXtXtXtXtXtXtXtXtXtXtXtXtXtXtXtXtXtXtXtXtXtXtXtXtXtXtXtXtXtXtXtXtXtXtXtXtXtXtXtXtXtXtXtXtX",
"tXtXtXtXtXtXtXtXtXtXtXtXtXtXtXtXtXtXtXtXtXtXtXtXtXtXtXtXtXtXtXtXtXtXtXtXtXtXtXtXtXtXtXtXtXtXtXtXtXtXtXtXtXtXtXtXtXtXtXtXtXtXtXtXtXtXtXtXtXtXtXtXtXtXtXtXtXtXtXtXtXtXtXtXtXtXtXtXtXtXtXtXtXtXtXtXtX",
"tXtXtXtXtXtXtXtXtXtXtXtXtXtXtXtXtXtXtXtXtXtXtXtXtXtXtXtXtXtXtXtXtXtXtXtXtXtXtXtXtXtXtXtXtXtXtXtXtXtXtXtXtXtXtXtXtXtXtXtXtXtXtXtXtXtXtXtXtXtXtXtXtXtXtXtXtXtXtXtXtXtXtXtXtXtXtXtXtXtXtXtXtXtXtXtXtX",
"tXtXtXtXtXtXtXtXtXtXtXtXtXtXtXtXtXtXtXtXtXtXtXtXtXtXtXtXtXtXtXtXtXtXtXtXtXtXtXtXtXtXtXtXtXtXtXtXtXtXtXtXtXtXtXtXtXtXtXtXtXtXtXtXtXtXtXtXtXtXtXtXtXtXtXtXtXtXtXtXtXtXtXtXtXtXtXtXtXtXtXtXtXtXtXtXtX",
"tXtXtXtXtXtXtXtXtXtXtXtXtXtXtXtXtXtXtXtXtXtXtXtXtXtXtXtXtXtXtXtXtXtXtXtXtXtXtXtXtXtXtXtXtXtXtXtXtXtXtXtXtXtXtXtXtXtXtXtXtXtXtXtXtXtXtXtXtXtXtXtXtXtXtXtXtXtXtXtXtXtXtXtXtXtXtXtXtXtXtXtXtXtXtXtXtX"
};
