/* XPM */
static char *_572136390632[] = {
/* columns rows colors chars-per-pixel */
"95 95 2 1 ",
"  c black",
". c None",
/* pixels */
"...............................................................................................",
"...............................................................................................",
"...............................................................................................",
"...............................................................................................",
"...............................................................................................",
"...............................................................................................",
"...............................................................................................",
"...............................................................................................",
"...............................................................................................",
"...............................................................................................",
"...............................................................................................",
"...............................................................................................",
"...............................................................................................",
"...............................................................................................",
"...............................................................................................",
"...............................................................................................",
"......................................................................     ....................",
"..........................................................   .....           ..................",
".........................................................    ...               ................",
"........................................................                       ................",
".......................................................                         ...............",
"......................................................                          ...............",
"......................................................                         ................",
"......................................   ............                          ................",
"....................................     ............                          ................",
"..................................       ............                         .................",
".................................       ............                          .................",
"................................        ...........                          ..................",
"...............................        ............                          ..................",
"...............................        ...........                          ...................",
"..............................        ...........                           ...................",
".............................         ...........                          ....................",
".............................         ...........                         .....................",
"............................          ........                            .....................",
"............................         .....                               ......................",
"...........................          ....                                ......................",
"...........................           .                                   .....................",
"...........................                                               .....................",
"..........................                                               ......................",
"..........................                                              .......................",
"..........................                                             ........................",
"..........................                                          ...........................",
"..........................                                        .............................",
".........................                                        ..............................",
".........................                                       ...............................",
".........................                                    ..................................",
".........................                                    ..................................",
".........................                                    ..................................",
".........................                                    ..................................",
"........................                                    ...................................",
"........................                                    ...................................",
".......................                                     ...................................",
"......................                                      ...................................",
".....................                                      .........   ........................",
"....................                                      ........     ........................",
"...................                                      .......       ........................",
"..................                                       ....          ........................",
"..................                                                    .........................",
".................                                                    ..........................",
".................                                                    ..........................",
"................                                                    ...........................",
"................                                                   ............................",
"................                                                  .............................",
"................                                                ...............................",
".................                                              ................................",
".................                                            ..................................",
".................                                          ....................................",
"..................                                      .......................................",
"..................                                   ..........................................",
"..................                            .................................................",
"..................                          ...................................................",
"..................                         ....................................................",
"..................                        .....................................................",
"..................                      .......................................................",
"..................                     ........................................................",
"..................                    .........................................................",
"....................  ....          ...........................................................",
".............................      ............................................................",
"...............................................................................................",
"...............................................................................................",
"...............................................................................................",
"...............................................................................................",
"...............................................................................................",
"...............................................................................................",
"...............................................................................................",
"...............................................................................................",
"...............................................................................................",
"...............................................................................................",
"...............................................................................................",
"...............................................................................................",
"...............................................................................................",
"...............................................................................................",
"...............................................................................................",
"...............................................................................................",
"..............................................................................................."
};
