/* XPM */
static char *_572134143437[] = {
/* columns rows colors chars-per-pixel */
"50 85 208 2 ",
"   c #1D1E1D",
".  c #1F1B15",
"X  c #221F1B",
"o  c #2B1D19",
"O  c #341E1A",
"+  c #3C1E1A",
"@  c #1F201F",
"#  c #25211D",
"$  c #2A241A",
"%  c #2F2819",
"&  c #352B17",
"*  c #3C3116",
"=  c #1C1C20",
"-  c #1D2020",
";  c #252321",
":  c #292622",
">  c #2B2926",
",  c #2D2C2A",
"<  c #312E2B",
"1  c #352B24",
"2  c #33312E",
"3  c #3C372C",
"4  c #353433",
"5  c #383735",
"6  c #3A3836",
"7  c #3C3C3C",
"8  c #4D1E19",
"9  c #421D18",
"0  c #581E19",
"q  c #651E19",
"w  c #6D1E19",
"e  c #761E1A",
"r  c #423513",
"t  c #4D3D11",
"y  c #483A14",
"u  c #513912",
"i  c #75251C",
"p  c #67271D",
"a  c #423C29",
"s  c #5A3422",
"d  c #493931",
"f  c #673121",
"g  c #753824",
"h  c #712F21",
"j  c #5A460D",
"k  c #5A470D",
"l  c #584818",
"z  c #6C540D",
"x  c #67500C",
"c  c #755B09",
"v  c #655011",
"b  c #7E6108",
"n  c #7B6216",
"m  c #48412A",
"M  c #474339",
"N  c #534E33",
"B  c #574E2E",
"V  c #794A2D",
"C  c #6B5A27",
"Z  c #6B5A36",
"A  c #694D27",
"S  c #7C703C",
"D  c #4A4844",
"F  c #54514C",
"G  c #595448",
"H  c #565553",
"J  c #5A5955",
"K  c #5E5C5A",
"L  c #585856",
"P  c #514D48",
"I  c #615F5C",
"U  c #605C52",
"Y  c #625A45",
"T  c #766B4B",
"R  c #64615D",
"E  c #676150",
"W  c #756D56",
"Q  c #7B7257",
"!  c #756F48",
"~  c #5B6363",
"^  c #656462",
"/  c #6B6965",
"(  c #6D6C6A",
")  c #666766",
"_  c #736E65",
"`  c #72716F",
"'  c #7B7668",
"]  c #757473",
"[  c #797775",
"{  c #7A7876",
"}  c #7C7B7A",
"|  c #767878",
" . c #6C7071",
".. c #871E1A",
"X. c #951E1A",
"o. c #9B1E1A",
"O. c #A41E1A",
"+. c #AB1E1A",
"@. c #B41F1B",
"#. c #BC1F1B",
"$. c #83231C",
"%. c #9C211B",
"&. c #A7211B",
"*. c #B4201B",
"=. c #BC201B",
"-. c #8D3825",
";. c #C41F1B",
":. c #CA1F1B",
">. c #D11F1B",
",. c #C4201C",
"<. c #CC211C",
"1. c #D1211C",
"2. c #8C6B05",
"3. c #866708",
"4. c #916F05",
"5. c #957205",
"6. c #9B7604",
"7. c #9E7804",
"8. c #94730C",
"9. c #866B16",
"0. c #9D7B12",
"q. c #977819",
"w. c #8E721C",
"e. c #A37C04",
"r. c #A47F0B",
"t. c #A17E11",
"y. c #8B7227",
"u. c #856D30",
"i. c #867843",
"p. c #887C59",
"a. c #837E72",
"s. c #AB8303",
"d. c #A9830A",
"f. c #B18703",
"g. c #B48A04",
"h. c #BA8E02",
"j. c #B28909",
"k. c #BE9102",
"l. c #BC920A",
"z. c #A88415",
"x. c #A58729",
"c. c #C49601",
"v. c #CC9C01",
"b. c #C79801",
"n. c #D09F01",
"m. c #D5A300",
"M. c #D9A600",
"N. c #DFAB00",
"B. c #E1AC00",
"V. c #8C8647",
"C. c #928749",
"Z. c #98934D",
"A. c #97974F",
"S. c #A19F53",
"D. c #A5A354",
"F. c #ACAA57",
"G. c #BAB65D",
"H. c #BDB95E",
"J. c #B5B35C",
"K. c #B1AE59",
"L. c #88847A",
"P. c #8E856A",
"I. c #BFBB60",
"U. c #C0BB5F",
"Y. c #C2BF61",
"T. c #C5C263",
"R. c #C9C665",
"E. c #CFCB67",
"W. c #D0CC67",
"Q. c #D0CD68",
"!. c #7F7E81",
"~. c #7B989B",
"^. c #728788",
"/. c #7E9DA2",
"(. c #7EA0A4",
"). c #848383",
"_. c #8D8A84",
"`. c #8D8D8C",
"'. c #888685",
"]. c #918E89",
"[. c #92918E",
"{. c #949392",
"}. c #9C9C9B",
"|. c #989794",
" X c #A09F9E",
".X c #A1A09F",
"XX c #9F9FA1",
"oX c #85A8AD",
"OX c #A4A4A4",
"+X c #ABABAB",
"@X c #A7A8A9",
"#X c #B3B3B3",
"$X c #BDBEBE",
"%X c #BFBFC0",
"&X c #91B9C0",
"*X c #97C4CB",
"=X c #9DCAD2",
"-X c #A8D3DB",
";X c #B4D5DA",
":X c #B6C3C5",
">X c #B2DCE3",
",X c #B8DFE6",
"<X c #B6E3EB",
"1X c #B7ECF5",
"2X c #BAF3FD",
"3X c #AFE0E9",
"4X c #C0C0C1",
"5X c None",
/* pixels */
"5X5X5X5X5X5X5X5X5X5X5X5X5X5X5X5X5X5X5X5X5X5X5X5X5X5X5X5X5X5X5X5X5X5X5X5X5X5X5X5X5X5X5X5X5X5X5X5X5X5X",
"5X5X5X5X5X5X5X5X5X5X5X5X5X5X5X5X5X5X5X5X5X5X5X5Xr * 5X5X5X5X5X5X5X5X5X5X5X5X5X5X5X5X5X5X5X5X5X5X5X5X",
"5X5X5X5X5X5X5X5X5X5X5X5X5X5X5X5X5X5X5X5X5X5X5Xl k.g.t 5X5X5X5X5X5X5X5X5X5X5X5X5X5X5X5X5X5X5X5X5X5X5X",
"5X5X5X5X5X5X5X5X5X5X5X5X5X5X5X5X5X5X5X5X5X5X% 3.l.g.u.< 5X5X5X5X5X5X5X5X5X5X5X5X5X5X5X5X5X5X5X5X5X5X",
"5X5X5X5X5X5X5X5X5X5X5X5X5X5X5X5X5X5X5X5X5X; F L.L.].[.U # 5X5X5X5X5X5X5X5X5X5X5X5X5X5X5X5X5X5X5X5X5X",
"5X5X5X5X5X5X5X5X5X5X5X5X5X5X5X5X5X5X5X5X  l 9.x.x.x.z.j.l   5X5X5X5X5X5X5X5X5X5X5X5X5X5X5X5X5X5X5X5X",
"5X5X5X5X5X5X5X5X5X5X5X5X5X5X5X5X5X5X@ 7 & c k.N.B.B.B.B.6.2 5 5X5X5X5X5X5X5X5X5X5X5X5X5X5X5X5X5X5X5X",
"5X5X5X5X5X5X5X5X5X5X5X5X5X5X5X5X5X4 I L j 2.b.B.B.N.N.B.n.l ] K , 5X5X5X5X5X5X5X5X5X5X5X5X5X5X5X5X5X",
"5X5X5X5X5X5X5X5X5X5X5X5X5X5X5X> D } {.a z e.m.B.N.N.N.B.M.8.H OX'.F : 5X5X5X5X5X5X5X5X5X5X5X5X5X5X5X",
"5X5X5X5X5X5X5X5X5X5X5X5X5X5X4 I '.+X{ y 2.c.N.N.N.N.N.M.g.c.l `. X|.] 2 5X5X5X5X5X5X5X5X5X5X5X5X5X5X",
"5X5X5X5X5X5X5X5X5X5X5X5X5X, I L.XX}.d z s.m.B.N.N.B.M.s.7.b.3.K OX[.).{ > 5X5X5X5X5X5X5X5X5X5X5X5X5X",
"5X5X5X5X5X5X5X5X5X5X5X5XX F ( [.}.`.* b f.m.M.M.M.M.k.2.c c v 6  X'./ {.H   5X5X5X5X5X5X5X5X5X5X5X5X",
"5X5X5X5X5X5X5X5X5X5X5X5X: ^ { `.OXL D _ a.C.i.i.u.i.T U J R L.D { {.^ } { ; 5X5X5X5X5X5X5X5X5X5X5X5X",
"5X5X5X5X5X5X5X5X5X5X5X5X4 / `.`.}.a A W P.].].`.`.).L._ G N C v P {.) ^ [.< 5X5X5X5X5X5X5X5X5X5X5X5X",
"5X5X5X5X5X5X5X5X5X5X5X  M / `.`.} r 2.e.v.c.g.g.j.g.g.e.2.2.k.b.m ).( I |.d 5X5X5X5X5X5X5X5X5X5X5X5X",
"5X5X5X5X5X5X5X5X5X5X5X  H / {.`.F x 5.c.B.B.B.B.B.B.B.v.k.7.k.N.z I a.K }.H = 5X5X5X5X5X5X5X5X5X5X5X",
"5X5X5X5X5X5X5X5X5X5X5XX I ` }.] a c e.m.B.N.B.B.N.N.B.B.n.f.m.B.e.3 { / {./   5X5X5X5X5X5X5X5X5X5X5X",
"5X5X5X5X5X5X5X5X5X5X5X; / ` XXH y 2.h.N.B.N.c.d.q.z.z.j.n.m.B.B.b.* ] ` `.} X 5X5X5X5X5X5X5X5X5X5X5X",
"5X5X5X5X5X5X5X5X5X5X5X% ] ` OXD j e.v.B.c.y.E ^ ~ ~ J G C d.M.B.N.x R } |.{.$ 5X5X5X5X5X5X5X5X5X5X5X",
"5X5X5X5X5X5X5X5X5X5X5X, ] { { & c h.M.g.T  .~.*X-X-X=X(.~ G 9.N.B.5.2 { #X}.: 5X5X5X5X5X5X5X5X5X5X5X",
"5X5X5X5X5X5X5X5X5X5X5X, { ` % * 4.h.c.T  .oX<X3X;X;X1X2X=XL P d.B.k.& D #X}.> 5X5X5X5X5X5X5X5X5X5X5X",
"5X5X5X5X5X5X5X5X5X5X5X< ( 6 . j 4.c.0.{ ^.1X;X>X;X;X1X3X2XoXH C N.m.t X R }., 5X5X5X5X5X5X5X5X5X5X5X",
"5X5X5X5X5X5X5X5X5X5X5X, d ; # j 6.v.w.| /.<X,X<X;X3X-X;X2X*XL Z n.B.z # > I < 5X5X5X5X5X5X5X5X5X5X5X",
"5X5X5X5X5X5X5X5X5X5X5X@ ; > $ c s.M.q.| !.1X2X,X3X-X:X-X2X(.K C M.B.8.# > # # 5X5X5X5X5X5X5X5X5X5X5X",
"5X5X5X5X5X5X5X5X5X5X@ # , > & 3.f.M.c.T | oX1X2X,X<X1X2X*X^ R 7.B.B.j.$ > < # 5X5X5X5X5X5X5X5X5X5X5X",
"5X5X5X5X5X5X5X5X5X5XX : , , * 5.h.N.B.t.W ] ^.&X=X-X*X~.) R n M.B.B.b.& : 4 4 X 5X5X5X5X5X5X5X5X5X5X",
"5X5X5X5X5X5X5X5X5XX : > 4 > t 6.c.N.N.N.j.S _ (  . .) I Y 8.m.B.N.B.m.t : , 7 < X 5X5X5X5X5X5X5X5X5X",
"5X5X5X5X5X5X5X5XX ; > 4 7 $ j e.c.N.N.N.B.M.j.q.y.y.w.r.b.N.B.N.N.N.N.k # > 5 7 > X 5X5X5X5X5X5X5X5X",
"5X5X5X5X5X5X5XX # > 2 7 7 ; x 6.c.B.N.N.N.B.B.B.N.N.B.B.B.N.N.N.N.B.B.c X > 4 7 7 : 5X5X5X5X5X5X5X5X",
"5X5X5X5X5X5X5X# : 2 7 D 5 # z 7.v.B.N.N.N.N.N.N.N.N.N.N.B.N.B.N.N.B.B.8.X : , 7 7 5 # 5X5X5X5X5X5X5X",
"5X5X5X5X5X5XX : , 6 7 7 4 % b e.n.B.N.N.N.N.N.B.B.N.N.N.N.N.N.N.N.v.m.e.# > , 7 7 7 < X 5X5X5X5X5X5X",
"5X5X5X5X5XX # > , 7 7 7 2 & 3.s.M.B.N.N.N.N.N.N.N.N.N.N.N.N.N.N.v.s.c.g.% : > 7 7 7 5 : 5X5X5X5X5X5X",
"5X5X5X5X5X@ > , 4 7 7 7 > * 2.g.M.N.N.N.N.N.N.N.N.N.N.N.B.B.B.n.s.s.v.c.& : > 5 7 7 , , = 5X5X5X5X5X",
"5X5X5X5X@ - > , 6 D 7 7 > r 4.h.M.N.N.N.N.N.N.B.N.N.N.N.N.B.b.f.7.s.m.v.r : , 5 7 7 , 4 > = 5X5X5X5X",
"5X5X5X5XX > , 4 7 7 5 5 : t 6.k.N.N.N.N.N.N.N.N.N.N.N.B.N.M.e.e.6.s.m.m.y ; , 5 7 7 , , 4 # 5X5X5X5X",
"5X5X5XX ; > 4 7 7 5 , 2 # j 6.c.N.N.N.N.B.N.N.B.N.B.N.N.B.v.e.7.6.e.v.N.j ; , 6 7 7 4 > 4 : X 5X5X5X",
"5X5X5XX , , 4 7 7 , , 4 $ y b f.M.B.B.B.B.B.B.B.B.B.B.B.B.M.e.7.4.6.h.h.t ; > 5 D 7 7 , , 4 X 5X5X5X",
"5X5X@ $ , , 7 7 4 > , 4 # D / T u.q.z.j.h.c.b.b.b.v.v.c.c.s.2.c v A Z Q d - , 6 7 7 7 2 > 7 : 5X5X5X",
"5X5XX : , 4 7 7 , , , 5 # K '.OX#XOX|._.a.a.p.Q Q Q Q Q ' a.( ( / } +X%XR X , 5 7 7 7 2 , 7 , X 5X5X",
"5X5XX : , 7 7 7 , , 7 7 # I ).@X%X4X4X:X%X%X%X$X$X$X%X$X$X$X#X{.^.`.#X:X^   , , 7 7 7 7 7 7 5 ; 5X5X",
"5XX # > 4 7 7 7 5 7 7 2 X L '.@X%X%X4X$X$X$X4X$X$X$X%X$X$X%X#X{.a.[.#X%X^ X : , , 5 7 7 7 7 7 : 5X5X",
"5XX : > 5 7 7 7 d 5 ,   # H [.+X$X$X$X4X$X$X$X$X%X%X$X%X$X$X#X[.!.'.+X4X^ X X $ , , , 7 7 7 7 2 X 5X",
"5XX : , 7 D 7 7 5 # X 5XX M { }.$X4X4X4X4X4X4X4X%X%X%X4X%X4X+X|.] } {.a.M . 5XX # > , 4 7 7 7 < X 5X",
"5X# : < 7 7 7 7 ; - 5X5XX j 9.y.i.P.P.].].]. X X X}.}.{._.a.W Y B A 9.r.k   5X5XX # > > 5 D 7 4 X 5X",
"5XX : 4 7 7 7 > X 5X5X5XX j 6.c.M.v.c.j.g.d.r.t.0.t.t.r.s.s.e.4.2.g.N.B.x = 5X5X5XX # , 4 7 7 7 # 5X",
"5X  : 5 7 7 4 X 5X5X5X5XX j 6.c.N.B.B.B.B.B.B.B.B.B.B.B.B.N.b.e.s.m.N.N.k = 5X5X5X5X# : > 7 7 5 X 5X",
"5XX > 5 7 7 ; = 5X5X5X5XX u 6.h.M.N.N.N.B.B.B.B.N.N.N.N.B.N.h.f.m.N.N.m.t = 5X5X5X5XX # : 4 7 5 # 5X",
"5XX > 5 M 2 X 5X5X5X5X5X  r 7.e.v.B.N.N.N.B.B.B.N.N.N.B.B.M.b.m.N.N.B.v.* 5X5X5X5X5X5XX : , 7 7 # 5X",
"5X# : 5 7 : # 5X5X5X5X5X5X& 3.e.c.B.B.N.N.N.B.B.B.B.N.N.B.B.N.B.B.B.v.4.$ 5X5X5X5X5X5XX # > 7 4 X 5X",
"5XX k 8.9.$ 5X5X5X5X5X5X5X; % t c g.n.B.B.B.B.B.B.B.B.B.B.B.M.b.s.c y $ 5X5X5X5X5X5X5X5X# 1 a a X 5X",
"5XX * n v # 5X5X5X5X5X5X5X5X> P D 3 u v 2.7.r.j.s.j.e.7.3.z k m P / 6 5X5X5X5X5X5X5X5X5X$ x r.x   5X",
"5X= ; 4 , X 5X5X5X5X5X5X5X5X5XD [ | ) L F D M M M d M D K { [.@X$X}.4 5X5X5X5X5X5X5X5X5X# & a & 5X5X",
"5X5XX < : X 5X5X5X5X5X5X5X5X5X5XD ^ } ).`.`.`.`.`.}.}.@X#X$X+X].R 2 5X5X5X5X5X5X5X5X5X5XX ; > X 5X5X",
"5X5X@ # X 5X5X5X5X5X5X5X5X5X5X5X# > < D J / ` ] { } { / K D 6 2 , ; 5X5X5X5X5X5X5X5X5X5X5X# ; X 5X5X",
"5X5X5X5X5X5X5X5X5X5X5X5X5X5X5X; : > > 2 4 2 4 2 2 2 < 2 2 2 , , , < X 5X5X5X5X5X5X5X5X5X5XX @ 5X5X5X",
"5X5X5X5X5X5X5X5X5X5X5X5X5X5X5X; , > , 5 5 5 5 5 5 5 4 4 4 2 : : , 5 : 5X5X5X5X5X5X5X5X5X5X5X5X5X5X5X",
"5X5X5X5X5X5X5X5X5X5X5X5X5X5X5X; > < > , 5 7 5 5 5 5 5 5 5 > : : , 4 : 5X5X5X5X5X5X5X5X5X5X5X5X5X5X5X",
"5X5X5X5X5X5X5X5X5X5X5X5X5X5X5X: > > > > 5 5 5 5 5 5 5 5 4 > > : , 7 , 5X5X5X5X5X5X5X5X5X5X5X5X5X5X5X",
"5X5X5X5X5X5X5X5X5X5X5X5X5X5XX : , > > , 5 7 7 5 5 5 5 5 5 4 , , 2 7 < - 5X5X5X5X5X5X5X5X5X5X5X5X5X5X",
"5X5X5X5X5X5X5X5X5X5X5X5X5X5X5X$ & : > < 5 4 4 4 5 4 4 4 4 4 , 4 4 1 1 ; 5X5X5X5X5X5X5X5X5X5X5X5X5X5X",
"5X5X5X5X5X5X5X5X5X5X5X5X5X5XO %.@.o.q m N m M m 3 3 m M M B N 0 ..&.X.O 5X5X5X5X5X5X5X5X5X5X5X5X5X5X",
"5X5X5X5X5X5X5X5X5X5X5X5X5X5Xq +.#.1.$.C.W.Y.H.H.H.H.H.H.Y.Y.Y.-.1.1.1.w 5X5X5X5X5X5X5X5X5X5X5X5X5X5X",
"5X5X5X5X5X5X5X5X5X5X5X5X5XO o.O.=.1.h D.R.W.W.Q.W.W.W.W.Q.Y.G.u.;.1.1.*.+ 5X5X5X5X5X5X5X5X5X5X5X5X5X",
"5X5X5X5X5X5X5X5X5X5X5X5X5X0 @.+.<.:.s D.G.W.E.E.E.E.E.E.E.E.Y.C.+.1.,.<.w 5X5X5X5X5X5X5X5X5X5X5X5X5X",
"5X5X5X5X5X5X5X5X5X5X5X5X= e @.@.1.;.s S.K.E.E.E.E.E.E.E.E.C.D.Z.&.<.@.<.o.o 5X5X5X5X5X5X5X5X5X5X5X5X",
"5X5X5X5X5X5X5X5X5X5X5X5X# ..@.,.1.;.s S.K.S T.E.E.E.E.Q.R.V -.-.,.;.X.#.*.O 5X5X5X5X5X5X5X5X5X5X5X5X",
"5X5X5X5X5X5X5X5X5X5X5X5X  e ,.<.1.;.s K.V.3 H.E.E.E.E.E.R.V ;.>.1.@.X.+.,.+ 5X5X5X5X5X5X5X5X5X5X5X5X",
"5X5X5X5X5X5X5X5X5X5X5X5X5X0 *.o.*.,.p Z.A s G.E.E.E.E.E.T.V ;.>.<.#.o.+.<.8 5X5X5X5X5X5X5X5X5X5X5X5X",
"5X5X5X5X5X5X5X5X5X5X5X5X5X5X+ X e 1.+.h %.i D.Y.H.W.E.W.Y.g <.<.1.<.+.#.<.8 5X5X5X5X5X5X5X5X5X5X5X5X",
"5X5X5X5X5X5X5X5X5X5X5X5X5X5X5X; 8 <.1.<.1.$.Z.D.H.Q.W.Q.J.g 1.1.<.1.=.<.,.+ 5X5X5X5X5X5X5X5X5X5X5X5X",
"5X5X5X5X5X5X5X5X5X5X5X5X5X5X5X5XO #.1.,.<.o.S Z.J.E.E.Q.D.$.1.<.<.&.=.1.O.o 5X5X5X5X5X5X5X5X5X5X5X5X",
"5X5X5X5X5X5X5X5X5X5X5X5X5X5X5X5XX o.1.@.1.+.Z S.F.E.W.W.i.%.1.1.,.9 8 O.q @ 5X5X5X5X5X5X5X5X5X5X5X5X",
"5X5X5X5X5X5X5X5X5X5X5X5X5X5X5X5X  e :.+.;.#.A S.D.E.E.R.Z =.,.1.&.o 5XO 5X5X5X5X5X5X5X5X5X5X5X5X5X5X",
"5X5X5X5X5X5X5X5X5X5X5X5X5X5X5X5X  8 #.O.@.:.f A.K.E.W.K.i ,.*.<.w   5X5X5X5X5X5X5X5X5X5X5X5X5X5X5X5X",
"5X5X5X5X5X5X5X5X5X5X5X5X5X5X5X5X5Xo O.o.+.1.$.C.H.E.Q.i.o.,.,.*.O 5X5X5X5X5X5X5X5X5X5X5X5X5X5X5X5X5X",
"5X5X5X5X5X5X5X5X5X5X5X5X5X5X5X5X5XX ..+.O.1.&.Z T.Q.K.g ;.<.<.i @ 5X5X5X5X5X5X5X5X5X5X5X5X5X5X5X5X5X",
"5X5X5X5X5X5X5X5X5X5X5X5X5X5X5X5X5X  0 +.+.<.<.$.i.Z.V =.1.1.*.O 5X5X5X5X5X5X5X5X5X5X5X5X5X5X5X5X5X5X",
"5X5X5X5X5X5X5X5X5X5X5X5X5X5X5X5X5X# O o.+.#.1.:.*.&.:.1.1.<.q @ 5X5X5X5X5X5X5X5X5X5X5X5X5X5X5X5X5X5X",
"5X5X5X5X5X5X5X5X5X5X5X5X5X5X5X5X5X5XX ..+.O.<.1.1.1.1.1.1.X.o 5X5X5X5X5X5X5X5X5X5X5X5X5X5X5X5X5X5X5X",
"5X5X5X5X5X5X5X5X5X5X5X5X5X5X5X5X5X5X  8 +.&.<.1.1.1.<.1.,.9   5X5X5X5X5X5X5X5X5X5X5X5X5X5X5X5X5X5X5X",
"5X5X5X5X5X5X5X5X5X5X5X5X5X5X5X5X5X5X5Xo ..@.;.1.1.1.1.<.q   5X5X5X5X5X5X5X5X5X5X5X5X5X5X5X5X5X5X5X5X",
"5X5X5X5X5X5X5X5X5X5X5X5X5X5X5X5X5X5X5X  0 #.#.1.1.1.<.w X 5X5X5X5X5X5X5X5X5X5X5X5X5X5X5X5X5X5X5X5X5X",
"5X5X5X5X5X5X5X5X5X5X5X5X5X5X5X5X5X5X5X5Xo ..>.>.1.*.0 X 5X5X5X5X5X5X5X5X5X5X5X5X5X5X5X5X5X5X5X5X5X5X",
"5X5X5X5X5X5X5X5X5X5X5X5X5X5X5X5X5X5X5X5XX o w i q +   5X5X5X5X5X5X5X5X5X5X5X5X5X5X5X5X5X5X5X5X5X5X5X",
"5X5X5X5X5X5X5X5X5X5X5X5X5X5X5X5X5X5X5X5X5X5X    5X5X5X5X5X5X5X5X5X5X5X5X5X5X5X5X5X5X5X5X5X5X5X5X5X5X"
};
