/* XPM */
static char *_572135092885[] = {
/* columns rows colors chars-per-pixel */
"49 85 24 1 ",
"  c black",
". c #000001",
"X c #000101",
"o c #000002",
"O c #010102",
"+ c #000103",
"@ c #000203",
"# c #020203",
"$ c #000204",
"% c #010204",
"& c #010304",
"* c #020204",
"= c #020305",
"- c #000206",
"; c #020206",
": c #020406",
"> c #030406",
", c #040608",
"< c #04060A",
"1 c #04080E",
"2 c #080A0D",
"3 c #050A11",
"4 c #10131B",
"5 c None",
/* pixels */
"55555555555555555555<   5555555555555555555555555",
"55555555555555555555     555555555555555555555555",
"5555555555555555555      *55555555555555555555555",
"5555555555555555555       ;5555555555555555555555",
"5555555555555555555        5555555555555555555555",
"555555555555555555         *555555555555555555555",
"555555555555555555          555555555555555555555",
"555555555555555555          555555555555555555555",
"555555555555555555          :55555555555555555555",
"55555555555555555            55555555555555555555",
"55555555555555555            55555555555555555555",
"55555555555555555            35555555555555555555",
"55555555555555555            :5555555555555555555",
"55555555555555555             5555555555555555555",
"55555555555555555             * 55555555555555555",
"5555555555555555                 5555555555555555",
"5555555555555555*                5555555555555555",
"5555555555555555                 5555555555555555",
"5555555555555555                 <555555555555555",
"55555555555555*                  3555555555555555",
"55555555555555                   *555555555555555",
"55555555555555                   5555555555555555",
"55555555555555                   5555555555555555",
"55555555555555                   5555555555555555",
"55555555555555                   5555555555555555",
"55555555555555                   5555555555555555",
"55555555555555                   5555555555555555",
"55555555 555555                 555555* 455555555",
"5555555   55555                 555555   55555555",
"555555    555555               5555555    5555555",
"555555    55555*                255555     555555",
"55555     5555                   55555     555555",
"5555      5555                   55555     *55555",
"5555      5555*                  555555     55555",
"555      555555                  555555      5555",
"555      555555                 5555555      *555",
"55       555555                  555555       555",
"55       55555*                   55555       *55",
"5*       55555                     5555        55",
"5        555                        *55        55",
"         55                          55         5",
"         55                          55         5",
"          5                                     5",
"                                                5",
"                                                5",
"                                                5",
"                                                5",
"                                               >5",
"5                                              55",
"5                                              55",
"55                                            555",
"55                                           5555",
"555                                         *5555",
"5555                                        55555",
"55555                                      555555",
"55555                                     5555555",
"555555*                                  55555555",
"5555555                                 555555555",
"55555555                               5555555555",
"555555555                             55555555555",
"5555555555                           555555555555",
"55555555555                          555555555555",
"55555555555                         5555555555555",
"555555555555                       55555555555555",
"5555555555555                      55555555555555",
"5555555555555                      55555555555555",
"55555555555555                    555555555555555",
"55555555555555                    555555555555555",
"555555555555555                   555555555555555",
"555555555555555                  5555555555555555",
"555555555555555                  5555555555555555",
"5555555555555555                 5555555555555555",
"5555555555555555                55555555555555555",
"55555555555555555               55555555555555555",
"55555555555555555              555555555555555555",
"555555555555555555             555555555555555555",
"555555555555555555            5555555555555555555",
"5555555555555555555           5555555555555555555",
"5555555555555555555          55555555555555555555",
"55555555555555555555         55555555555555555555",
"55555555555555555555        555555555555555555555",
"555555555555555555555      5555555555555555555555",
"5555555555555555555555    55555555555555555555555",
"55555555555555555555555:*555555555555555555555555",
"5555555555555555555555555555555555555555555555555"
};
