/* XPM */
static char *_572134148880[] = {
/* columns rows colors chars-per-pixel */
"78 97 218 2 ",
"   c #1D1A15",
".  c #1E1B19",
"X  c #181615",
"o  c #221C15",
"O  c #2E1915",
"+  c #221E1A",
"@  c #291A18",
"#  c #3C1814",
"$  c #361713",
"%  c #372C0D",
"&  c #2B2413",
"*  c #25211D",
"=  c #2C251B",
"-  c #2A2519",
";  c #352A16",
":  c #3D320F",
">  c #262422",
",  c #292624",
"<  c #2B2926",
"1  c #2D2C2A",
"2  c #312F2D",
"3  c #342D23",
"4  c #33312E",
"5  c #3A372D",
"6  c #353433",
"7  c #383735",
"8  c #3B3936",
"9  c #3B3B3B",
"0  c #431814",
"q  c #4A1814",
"w  c #471813",
"e  c #581813",
"r  c #631813",
"t  c #6C1813",
"y  c #7C1913",
"u  c #711915",
"i  c #43350D",
"p  c #4B3B0B",
"a  c #503E09",
"s  c #463A1A",
"d  c #51261E",
"f  c #7A281A",
"g  c #682C1B",
"h  c #433D2A",
"j  c #423E3A",
"k  c #573124",
"l  c #59460C",
"z  c #574408",
"x  c #584713",
"c  c #644D06",
"v  c #6B5206",
"b  c #755905",
"n  c #745A07",
"m  c #675418",
"M  c #6B571D",
"N  c #7D610A",
"B  c #79621B",
"V  c #4B442B",
"C  c #4E4223",
"Z  c #564925",
"A  c #47433A",
"S  c #544D35",
"D  c #5C5130",
"F  c #69592A",
"G  c #665B39",
"H  c #764929",
"J  c #77642C",
"K  c #6B653C",
"L  c #74673A",
"P  c #7C763E",
"I  c #454341",
"U  c #4C4946",
"Y  c #58534A",
"T  c #595854",
"R  c #514E4C",
"E  c #615E5C",
"W  c #605C55",
"Q  c #615D48",
"!  c #766A45",
"~  c #64615E",
"^  c #6B675A",
"/  c #787258",
"(  c #756C4F",
")  c #696765",
"_  c #6D6C6A",
"`  c #686A67",
"'  c #716E6B",
"]  c #73716E",
"[  c #787467",
"{  c #697577",
"}  c #757473",
"|  c #7A7876",
" . c #7D7C7A",
".. c #767A75",
"X. c #5D6565",
"o. c #8C1913",
"O. c #851913",
"+. c #931913",
"@. c #9D1813",
"#. c #A31914",
"$. c #AB1914",
"%. c #A21713",
"&. c #B41A14",
"*. c #BB1A15",
"=. c #8D2A1B",
"-. c #9D2B1C",
";. c #A82519",
":. c #B1251A",
">. c #8C3C23",
",. c #A63A23",
"<. c #C31B15",
"1. c #CC1B16",
"2. c #D21C16",
"3. c #846503",
"4. c #8B6B03",
"5. c #886A08",
"6. c #916E01",
"7. c #957201",
"8. c #9B7601",
"9. c #9D7905",
"0. c #8E7117",
"q. c #937515",
"w. c #A37C01",
"e. c #A47E06",
"r. c #884628",
"t. c #8F552F",
"y. c #967B24",
"u. c #976938",
"i. c #89773B",
"p. c #8E7234",
"a. c #857845",
"s. c #847959",
"d. c #817F7A",
"f. c #877E67",
"g. c #AB8302",
"h. c #A98307",
"j. c #B18700",
"k. c #B48A01",
"l. c #BA8E00",
"z. c #B48C0B",
"x. c #B88E0A",
"c. c #BE9101",
"v. c #BD930A",
"b. c #A58417",
"n. c #B38E16",
"m. c #B99315",
"M. c #9E8535",
"N. c #A78927",
"B. c #A68B34",
"V. c #B1912A",
"C. c #C39501",
"Z. c #CC9C01",
"A. c #C59805",
"S. c #D09F00",
"D. c #CEA006",
"F. c #D4A300",
"G. c #D9A600",
"H. c #DDAA00",
"J. c #D4A409",
"K. c #E0AD00",
"L. c #938546",
"P. c #9B964D",
"I. c #9C8B56",
"U. c #89824F",
"Y. c #A6984E",
"T. c #A49549",
"R. c #A9A554",
"E. c #B1AC57",
"W. c #B5B25A",
"Q. c #BCB85D",
"!. c #8C8365",
"~. c #988B63",
"^. c #84827D",
"/. c #938C78",
"(. c #9D926F",
"). c #A29877",
"_. c #C1BE5F",
"`. c #C0BE60",
"'. c #C6C262",
"]. c #C9C664",
"[. c #CECA66",
"{. c #D0CC67",
"}. c #D1CD68",
"|. c #788889",
" X c #7C9496",
".X c #858483",
"XX c #8A8886",
"oX c #8C8B8B",
"OX c #898784",
"+X c #96938C",
"@X c #959493",
"#X c #9D9C9B",
"$X c #9A9893",
"%X c #8A9193",
"&X c #A19F99",
"*X c #A3A09A",
"=X c #8BADB2",
"-X c #89AAAF",
";X c #A4A4A4",
":X c #ADADAD",
">X c #A8A8A6",
",X c #B4B4B4",
"<X c #BCBDBD",
"1X c #B0AFAD",
"2X c #BEBFC1",
"3X c #9AC4CA",
"4X c #9ECBD2",
"5X c #BFC0C0",
"6X c #A8D5DD",
"7X c #B4D7DD",
"8X c #A7CACF",
"9X c #B4DBE2",
"0X c #A9D8E0",
"qX c #B6E4EC",
"wX c #B7E9F2",
"eX c #BBF0FA",
"rX c #C0C1C1",
"tX c None",
/* pixels */
"tXtXtXtXtXtXtXtXtXtXtXtXtXtXtXtXtXtXtXtXtXtXtXtXtXtXtXtXtXtXtXtXtXtXtXtXtXtXtXtXtXtXtXtXtXtXtXtXtXtXtXtXtXtXtXtXtXtXtXtXtXtXtXtXtXtXtXtXtXtXtXtXtXtXtXtXtXtX",
"tXtXtXtXtXtXtXtXtXtXtXtXtXtXtXtXtXtXtXtXtXtXtXtXtXtXtXtXtXtXtXtXtXtXtXtXtXtXtXtXtXtXtXtXtXtXtXtXtXtXtXtXtXtXtXtXtXtXtXtXtXtXtXtXtXtXtXtXtXtXtXtXtXtXtXtXtXtX",
"tXtXtXtXtXtXtXtXtXtXtXtXtXtXtXtXtXtXtXtXtXtXtXtXtXtXtXtXtXtXtXtXtXtXtXtXtXtXtXtXtXtXtXtXtXtXtXtXtXtXtXtXtXtXtXtXtXtXtXtXtXtXtXtXtXtXtXtXtXtXtXtXtXtXtXtXtXtX",
"tXtXtXtXtXtXtXtXtXtXtXtXtXtXtXtXtXtXtXtXtXtXtXtXtXtXtXtXtXtXtXtXtXtXtXtXtXtXtXtXtXtXtXtXtXtXtXtXtXtXtXtXtXtXtXtXtXtXtXtXtXtXtXtXtXtXtXtXtXtXtXtXtXtXtXtXtXtX",
"tXtXtXtXtXtXtXtXtXtXtXtXtXtXtXtXtXtXtXtXtXtXtXtXtXtXtXtXtXtXtXtXtXtXtXtXtXtXtXtXtXtXtXtXtXtXtXtXtXtXtXtXtXtXtXtXtXtXtXtXtXtXtXtXtXtXtXtXtXtXtXtXtXtXtXtXtXtX",
"tXtXtXtXtXtXtXtXtXtXtXtXtXtXtXtXtXtXtXtXtXtXtXtXtXtXtXtXtXtXtXtXtXtXtXtXtXtXtXtXtXtXtXtXtXtXtXtXtXtXtXtXtXtXtXtXtXtXtXtXtXtXtXtXtXtXtXtXtXtXtXtXtXtXtXtXtXtX",
"tXtXtXtXtXtXtXtXtXtXtXtXtXtXtXtXtXtXtXtXtXtXtXtXtXtXtXtXtXtXtXtXtXtXtXtXtXtXtXtXtXtXtXtXtXtXtXtXtXtXtXtXtXtXtXtXtXtXtXtXtXtXtXtXtXtXtXtXtXtXtXtXtXtXtXtXtXtX",
"tXtXtXtXtXtXtXtXtXtXtXtXtXtXtXtXtXtXtXtXtXtXtXtXtXtXtXtXtXtXtXtXtXtXtXtXtXtXtXtXtXtXtXtXtXtXtXtXtXtXtXtXtXtXtXtXtXtXtXtXtXtXtXtXtXtXtXtXtXtXtXtXtXtXtXtXtXtX",
"tXtXtXtXtXtXtXtXtXtXtXtXtXtXtXtXtXtXtXtXtXtXtXtXtXtXtXtXtXtXtXtXtXtXtXtXtXtXtXtXtXtXtXtXtXtXtXtXtXtXtXtXtXtXtXtXtXtXtXtXtXtXtXtXtXtXtXtXtXtXtXtXtXtXtXtXtXtX",
"tXtXtXtXtXtXtXtXtXtXtXtXtXtXtXtXtXtXtXtXtXtXtXtXtXtXtXtXtXtXtXtXtXtXtXtXtXtXtXtXtXtXtXtXtXtXtXtXtXtXtXtXtXtXtXtXtXtXtXtXtXtXtXtXtXtXtXtXtXtXtXtXtXtXtXtXtXtX",
"tXtXtXtXtXtXtXtXtXtXtXtXtXtXtXtXtXtXtXtXtXtXtXtXtXtXtXtXtXtXtXtXtXtXtXtXtXtXtXtXtXtXtXtXtXtXtXtXtXtXtXtX: l : tXtXtXtXtXtXtXtXtXtXtXtXtXtXtXtXtXtXtXtXtXtXtX",
"tXtXtXtXtXtXtXtXtXtXtXtXtXtXtXtXtXtXtXtXtXtXtXtXtXtXtXtXtXtXtXtXtXtXtXtXtXtXtXtXtXtXtXtXtXtXtXtXtXtX* & n l.e.x tXtXtXtXtXtXtXtXtXtXtXtXtXtXtXtXtXtXtXtXtXtX",
"tXtXtXtXtXtXtXtXtXtXtXtXtXtXtXtXtXtXtXtXtXtXtXtXtXtXtXtXtXtXtXtXtXtXtXtXtXtXtXtXtXtXtXtXtXtXtXtX  % V ^ L.m.h.x tXtXtXtXtXtXtXtXtXtXtXtXtXtXtXtXtXtXtXtXtXtX",
"tXtXtXtXtXtXtXtXtXtXtXtXtXtXtXtXtXtXtXtXtXtXtXtXtXtXtXtXtXtXtXtXtXtXtXtXtXtXtXtXtX< 4 6 U U T j ; v q.M.I./.~.G tXtXtXtXtXtXtXtXtXtXtXtXtXtXtXtXtXtXtXtXtXtX",
"tXtXtXtXtXtXtXtXtXtXtXtXtXtXtXtXtXtXtXtXtXtXtXtXtXtXtXtXtXtXtXtXtXtXtXtXtXtXtX> 2 U ) } OXoXW Z v 8.A.J.m.N.B.! , tXtXtXtXtXtXtXtXtXtXtXtXtXtXtXtXtXtXtXtXtX",
"tXtXtXtXtXtXtXtXtXtXtXtXtXtXtXtXtXtXtXtXtXtXtXtXtXtXtXtXtXtXtXtXtXtXtXtXtXtX+ 9 T } oX#X#X} s b 7.C.G.K.K.H.A.9.i tXtXtXtXtXtXtXtXtXtXtXtXtXtXtXtXtXtXtXtXtX",
"tXtXtXtXtXtXtXtXtXtXtXtXtXtXtXtXtXtXtXtXtXtXtXtXtXtXtXtXtXtXtXtXtXtXtXtXtXtX1 T } XX@X@X) x b w.C.H.K.K.H.K.K.k.x > tXtXtXtXtXtXtXtXtXtXtXtXtXtXtXtXtXtXtXtX",
"tXtXtXtXtXtXtXtXtXtXtXtXtXtXtXtXtXtXtXtXtXtXtXtXtXtXtXtXtXtXtXtXtXtXtXtXtX2 U ] XX@X;X_ h b 9.Z.H.K.H.K.K.K.K.Z.h I tXtXtXtXtXtXtXtXtXtXtXtXtXtXtXtXtXtXtXtX",
"tXtXtXtXtXtXtXtXtXtXtXtXtXtXtXtXtXtXtXtXtXtXtXtXtXtXtXtXtXtXtXtXtXtXtXtX  U ~ .XoX@X] S Y ! N.G.H.H.K.K.K.H.G.l.J _ R tXtXtXtXtXtXtXtXtXtXtXtXtXtXtXtXtXtXtX",
"tXtXtXtXtXtXtXtXtXtXtXtXtXtXtXtXtXtXtXtXtXtXtXtXtXtXtXtXtXtXtXtXtXtXtXtX2 E ] @X@X} C m L f.!.L.V.S.G.H.G.l.k.c.F OXd.I tXtXtXtXtXtXtXtXtXtXtXtXtXtXtXtXtXtX",
"tXtXtXtXtXtXtXtXtXtXtXtXtXtXtXtXtXtXtXtXtXtXtXtXtXtXtXtXtXtXtXtXtXtXtX+ Y _ XXoX) D c 7.g.V.~./.!.a.y.n.g.8.w.k.F oX@X) 2 tXtXtXtXtXtXtXtXtXtXtXtXtXtXtXtXtX",
"tXtXtXtXtXtXtXtXtXtXtXtXtXtXtXtXtXtXtXtXtXtXtXtXtXtXtXtXtXtXtXtXtXtXtX2 ] ] #X) h v 4.k.F.G.A.N.I.OXf.s.! F n n F  .&XoXT tXtXtXtXtXtXtXtXtXtXtXtXtXtXtXtXtX",
"tXtXtXtXtXtXtXtXtXtXtXtXtXtXtXtXtXtXtXtXtXtXtXtXtXtXtXtXtXtXtXtXtXtX> R | d.OXh a 6.j.S.H.K.K.F.C.z.M.f.^ Y ~ / h @X@X.X' j tXtXtXtXtXtXtXtXtXtXtXtXtXtXtXtX",
"tXtXtXtXtXtXtXtXtXtXtXtXtXtXtXtXtXtXtXtXtXtXtXtXtXtXtXtXtXtXtXtXtXtX< ' } E j l 4.k.S.K.K.K.K.K.K.H.A.g.0.F G G Y .XOX_ oX9 tXtXtXtXtXtXtXtXtXtXtXtXtXtXtXtX",
"tXtXtXtXtXtXtXtXtXtXtXtXtXtXtXtXtXtXtXtXtXtXtXtXtXtXtXtXtXtXtXtXtX* 8 T j = i 3.g.F.Z.Z.z.n.c.v.G.K.K.S.g.7.h.7.D  .| '  .R tXtXtXtXtXtXtXtXtXtXtXtXtXtXtXtX",
"tXtXtXtXtXtXtXtXtXtXtXtXtXtXtXtXtXtXtXtXtXtXtXtXtXtXtXtXtXtXtXtXtXo < , - % v w.A.A.y.( / / ! i.q.z.F.J.C.g.A.A.h OX_ ) d.j tXtXtXtXtXtXtXtXtXtXtXtXtXtXtXtX",
"tXtXtXtXtXtXtXtXtXtXtXtXtXtXtXtXtXtXtXtXtXtXtXtXtXtXtXtXtXtXtXtX. o * > o z 6.l.h.i.[ |.-X-X=X XX.L e.Z.C.Z.H.g.F } _ _ OX< tXtXtXtXtXtXtXtXtXtXtXtXtXtXtXtX",
"tXtXtXtXtXtXtXtXtXtXtXtXtXtXtXtXtXtXtXtXtXtXtXtXtXtXtXtXtXtX  . + > , * p 3.j.Z.0.| |.6X6X9X6X6X4X|.Q 0.Z.K.K.j.C ' ) .X' 6 tXtXtXtXtXtXtXtXtXtXtXtXtXtXtXtX",
"tXtXtXtXtXtXtXtXtXtXtXtXtXtXtXtXtXtXtXtXtXtXtXtXtXtXtXtX. . + > , 2 , % b w.Z.C.i.|.=XwX7X7X7X9XwX4X{ Q z.H.H.h.h } _ @XE > tXtXtXtXtXtXtXtXtXtXtXtXtXtXtXtX",
"tXtXtXtXtXtXtXtXtXtXtXtXtXtXtXtXtXtXtXtXtXtXtXtXtXtXtX  + * > 1 6 2 ; a 8.l.G.Z.a...3XwXwXqX7X7XwXwX3XE B S.K.6.G }  ..XT X tXtXtXtXtXtXtXtXtXtXtXtXtXtXtXtX",
"tXtXtXtXtXtXtXtXtXtXtXtXtXtXtXtXtXtXtXtXtXtXtXtXtX    + , 1 6 9 7 , p 3.j.Z.H.S.y.} -XwXqX9X9X7X6XqX8X{ G c.G.7.A | @XXXA tXtXtXtXtXtXtXtXtXtXtXtXtXtXtXtXtX",
"tXtXtXtXtXtXtXtXtXtXtXtXtXtXtXtXtXtXtXtXtXtXtXtX  + > , 1 9 9 9 6 & c 8.C.H.K.K.n.a.|.3XqXqX7X8X0XeX4X{ G x.F.N h .X:XOX+ tXtXtXtXtXtXtXtXtXtXtXtXtXtXtXtXtX",
"tXtXtXtXtXtXtXtXtXtXtXtXtXtXtXtXtXtXtXtXtXtXtX. . > , 1 7 9 9 6 = p 3.w.S.K.K.K.S.y.[  X3X6XqXwXqX6X XT F G.G.c 3 OX>X~ * tXtXtXtXtXtXtXtXtXtXtXtXtXtXtXtXtX",
"tXtXtXtXtXtXtXtXtXtXtXtXtXtXtXtXtXtXtXtXtX. + . > 1 1 6 j 9 9 2 & b w.C.K.K.K.K.K.S.e.s.{ %X=X-X-X{ ` K q.H.A.l * ~ *X4 tXtXtXtXtXtXtXtXtXtXtXtXtXtXtXtXtXtX",
"tXtXtXtXtXtXtXtXtXtXtXtXtXtXtXtXtXtXtXtXtX. . > 1 6 9 9 9 j 6 = a 7.k.S.K.K.K.K.K.K.S.b.p.! ^ ) ^ ~ J h.F.K.j.p * A T < tXtXtXtXtXtXtXtXtXtXtXtXtXtXtXtXtXtX",
"tXtXtXtXtXtXtXtXtXtXtXtXtXtXtXtXtXtXtXX . > > 1 6 9 9 9 7 7 > : b w.Z.H.K.K.K.K.K.K.K.K.Z.z.h.b.q.h.v.G.K.H.g.& > > 1 tXtXtXtXtXtXtXtXtXtXtXtXtXtXtXtXtXtXtX",
"tXtXtXtXtXtXtXtXtXtXtXtXtXtXtXtXtXtXtX  > > 1 9 9 9 1 1 1 1 = z 7.l.S.K.K.K.K.K.K.K.K.K.K.K.K.G.H.K.K.K.K.G.5.& < >   tXtXtXtXtXtXtXtXtXtXtXtXtXtXtXtXtXtXtX",
"tXtXtXtXtXtXtXtXtXtXtXtXtXtXtXtXtXtXo + > 1 6 9 9 1 1 , 1 > i b w.Z.K.K.K.K.K.K.K.K.K.G.K.K.K.K.K.K.H.K.K.G.c - 1 1 * tXtXtXtXtXtXtXtXtXtXtXtXtXtXtXtXtXtXtX",
"tXtXtXtXtXtXtXtXtXtXtXtXtXtXtXtXtX  + * 1 6 9 9 6 > > 1 1 - i 3.C.S.K.K.K.K.K.G.H.K.K.K.K.K.K.K.K.H.K.K.H.c.z . 1 7 * tXtXtXtXtXtXtXtXtXtXtXtXtXtXtXtXtXtXtX",
"tXtXtXtXtXtXtXtXtXtXtXtXtXtXtXtX  + > < 6 9 9 6 1 1 1 6 = 4 Y p.x.K.K.K.K.K.K.K.K.K.K.K.K.K.K.K.K.K.K.K.K.h.: + 1 7 <   tXtXtXtXtXtXtXtXtXtXtXtXtXtXtXtXtXtX",
"tXtXtXtXtXtXtXtXtXtXtXtXtXtXtXtX  + < 6 9 9 9 9 6 7 7 7 + T } d.a.e.S.K.K.K.K.K.K.K.K.K.K.K.K.K.K.H.F.F.F.4.o > 1 9 1 + tXtXtXtXtXtXtXtXtXtXtXtXtXtXtXtXtXtX",
"tXtXtXtXtXtXtXtXtXtXtXtXtXtXtX  o > 1 9 9 9 9 9 7 4 1 < 2 ) oX;X,X(.y.C.S.K.K.K.K.K.K.K.K.K.K.G.G.A.k.C.c.n   > 1 9 7 + tXtXtXtXtXtXtXtXtXtXtXtXtXtXtXtXtXtX",
"tXtXtXtXtXtXtXtXtXtXtXtXtXtXtX  + < 7 9 9 7 7 1 + +   o A } #X,X2X,X;X~.V.C.S.K.K.K.K.K.K.K.Z.C.k.e.g.A.c.p * > 4 9 9 > tXtXtXtXtXtXtXtXtXtXtXtXtXtXtXtXtXtX",
"tXtXtXtXtXtXtXtXtXtXtXtXtXtXtX  > 6 9 9 7 1 * . tXtXtX+ T oX:X<X2XrXrX1X+Xs.B.A.S.H.K.K.K.S.k.w.w.w.l.F.w.& > < 6 9 9 < tXtXtXtXtXtXtXtXtXtXtXtXtXtXtXtXtXtX",
"tXtXtXtXtXtXtXtXtXtXtXtXtXtX  + < 7 9 7 <   tXtXtXtX  : G oX:X<XrXrXrXrXrX,X+Xs.p.m.Z.S.H.S.e.w.8.e.S.F.n & * 1 9 9 9 1 . tXtXtXtXtXtXtXtXtXtXtXtXtXtXtXtXtX",
"tXtXtXtXtXtXtXtXtXtXtXtXtXtX  ; 2 9 6 > . tXtXtXtXtXX z 3.y.+X<XrXrXrX2XrXrX2X2X&X/.a.N.z.e.8.8.8.g.S.S.p + , 4 9 9 2 1 * tXtXtXtXtXtXtXtXtXtXtXtXtXtXtXtXtX",
"tXtXtXtXtXtXtXtXtXtXtXtXtXtX& c B Z -   tXtXtXtXtXtX% v e.x.B.~.&X,XrX2X2X2X2X2X5X2X1X+Xf.! B v 3.e.Z.7.: * < 6 9 9 , 1 * tXtXtXtXtXtXtXtXtXtXtXtXtXtXtXtXtX",
"tXtXtXtXtXtXtXtXtXtXtXtXtXtX& x n x * tXtXtXtXtXtXX p 3.k.S.F.A.B.(.&X,XrXrX2X2X5X5X5X5X,XoX] ^ ! K i.x * > 2 9 9 4 , 1 * tXtXtXtXtXtXtXtXtXtXtXtXtXtXtXtXtX",
"tXtXtXtXtXtXtXtXtXtXtXtXtXtXo 6 s - tXtXtXtXtXtXtX& a 8.l.H.K.H.F.c.B.(.*X1X5XrXrXrXrXrX<X#XXX.X@X:X.Xj . , 6 9 9 6 1 1 > tXtXtXtXtXtXtXtXtXtXtXtXtXtXtXtXtX",
"tXtXtXtXtXtXtXtXtXtXtXtXtXtX+ > > . tXtXtXtXtXtXtX& c 8.l.F.K.K.H.K.Z.l.N.I.$X>X,XrXrX<X:X@Xd.oX:X2Xd.4 + 1 9 9 9 6 > 1 + tXtXtXtXtXtXtXtXtXtXtXtXtXtXtXtXtX",
"tXtXtXtXtXtXtXtXtXtXtXtXtXtX  + . tXtXtXtXtXtXtXtX. p 6.c.G.K.K.H.K.K.K.F.l.e.L.(.$X>X1X;XXX.X@X,X,XE o > 2 9 9 9 6 , 1 , tXtXtXtXtXtXtXtXtXtXtXtXtXtXtXtXtX",
"tXtXtXtXtXtXtXtXtXtXtXtXtXtXtXtXtXtXtXtXtXtXtXtXtXtX; x 7.F.K.K.K.K.K.K.K.K.K.C.k.b.a.^ [ _  .$X,X+Xj o , 1 9 9 9 2 1 6 , tXtXtXtXtXtXtXtXtXtXtXtXtXtXtXtXtX",
"tXtXtXtXtXtXtXtXtXtXtXtXtXtXtXtXtXtXtXtXtXtXtXtXtXtXI I Z e.G.K.K.K.K.K.K.K.K.K.K.S.k.9.B m F !.d.Y + o * , 6 9 7 6 2 7 , tXtXtXtXtXtXtXtXtXtXtXtXtXtXtXtXtX",
"tXtXtXtXtXtXtXtXtXtXtXtXtXtXtXtXtXtXtXtXtXtXtXtXtXtXI } W V n k.H.K.K.K.K.K.K.K.K.K.Z.e.9.g.z.g.5.s X tX+ , 1 7 9 9 9 7 , tXtXtXtXtXtXtXtXtXtXtXtXtXtXtXtXtX",
"tXtXtXtXtXtXtXtXtXtXtXtXtXtXtXtXtXtXtXtXtXtXtXtXtXtX2 R ' ) Y B 9.c.G.K.K.K.K.K.K.F.C.j.c.G.H.K.3.; tXtX  + , < 9 9 9 9 * tXtXtXtXtXtXtXtXtXtXtXtXtXtXtXtXtX",
"tXtXtXtXtXtXtXtXtXtXtXtXtXtXtXtXtXtXtXtXtXtXtXtXtXtX* 1 T  .| E S J e.c.S.K.K.K.K.H.S.S.G.K.H.c.a X tXtX  + > 1 6 9 9 7 + tXtXtXtXtXtXtXtXtXtXtXtXtXtXtXtXtX",
"tXtXtXtXtXtXtXtXtXtXtXtXtXtXtXtXtXtXtXtXtXtXtXtXtX* > > 1 A _ .X.X~ A F 5.g.l.F.K.H.K.K.K.K.F.3.% tXtXtXtX  * , 9 9 9 2 + tXtXtXtXtXtXtXtXtXtXtXtXtXtXtXtXtX",
"tXtXtXtXtXtXtXtXtXtXtXtXtXtXtXtXtXtXtXtXtXtXtXtX+ * > , 1 1 I ) ...XoX| T S J n 5.e.C.l.Z.Z.g.% tXtXtXtXtX  * 1 6 9 9 2 X tXtXtXtXtXtXtXtXtXtXtXtXtXtXtXtXtX",
"tXtXtXtXtXtXtXtXtXtXtXtXtXtXtXtXtXtXtXtXtXtXtX. * > > , 1 6 6 < I ~ | XX#X@X.X} [ G D J x l a & tXtXtXtXtX  * , 6 9 9 < . tXtXtXtXtXtXtXtXtXtXtXtXtXtXtXtXtX",
"tXtXtXtXtXtXtXtXtXtXtXtXtXtXtXtXtXtXtXtXtXtXtX* * > > , 1 7 6 6 4 4 7 T _ | @X,X#X>X&X .7 o tXtXtXtXtXtXtX  . , 6 9 6 + tXtXtXtXtXtXtXtXtXtXtXtXtXtXtXtXtXtX",
"tXtXtXtXtXtXtXtXtXtXtXtXtXtXtXtXtXtXtXtXtXtX@ O = > > , 1 6 7 7 6 6 2 2 < j I U ) ' ) E 4 tXtXtXtXtXtXtXtX  + , 6 9 2 . tXtXtXtXtXtXtXtXtXtXtXtXtXtXtXtXtXtX",
"tXtXtXtXtXtXtXtXtXtXtXtXtXtXtXtXtXtXtXtXtXq u +.u 3 > < 7 7 6 6 6 6 6 6 6 2 2 < < 1 < tXtXtXtXtXtXtXtXtXtX  o , 7 7 > . tXtXtXtXtXtXtXtXtXtXtXtXtXtXtXtXtXtX",
"tXtXtXtXtXtXtXtXtXtXtXtXtXtXtXtXtXtXtXtXO O.@.&.&.y d 4 6 6 7 7 6 2 6 6 6 2 , > , < > tXtXtXtXtXtXtXtXtXtX  - ; 7 2   tXtXtXtXtXtXtXtXtXtXtXtXtXtXtXtXtXtXtX",
"tXtXtXtXtXtXtXtXtXtXtXtXtXtXtXtXtXtXtX0 y $.$.<.2.o.L K V 5 4 6 6 8 6 4 2 , * > , 2 > tXtXtXtXtXtXtXtXtXtX  z m h = . tXtXtXtXtXtXtXtXtXtXtXtXtXtXtXtXtXtXtX",
"tXtXtXtXtXtXtXtXtXtXtXtXtXtXtXtXtXtX  u %.&.<.1.#.r.R.].R.L h 5 4 4 6 6 4 < = > , 2 + tXtXtXtXtXtXtXtXtXtX+ i N c o tXtXtXtXtXtXtXtXtXtXtXtXtXtXtXtXtXtXtXtX",
"tXtXtXtXtXtXtXtXtXtXtXtXtXtXtXtXtXtX# o.&.*.2.1.f L.Q.[.].'.E.U.S 5 5 4 2 , , < 6 2 > tXtXtXtXtXtXtXtXtXtX. = < & tXtXtXtXtXtXtXtXtXtXtXtXtXtXtXtXtXtXtXtXtX",
"tXtXtXtXtXtXtXtXtXtXtXtXtXtXtXtXtXtXe %.<.1.1.#.Z R.W.[.{.{.[.'.`.P.K V h 1 1 4 7 2 + tXtXtXtXtXtXtXtXtXtX  * . tXtXtXtXtXtXtXtXtXtXtXtXtXtXtXtXtXtXtXtXtXtX",
"tXtXtXtXtXtXtXtXtXtXtXtXtXtXtXtXtXtXw &.&.1.1.f i.R.W.[.{.{.{.{.}.].'.W.U.C d d 3 > tXtXtXtXtXtXtXtXtXtXtX. . tXtXtXtXtXtXtXtXtXtXtXtXtXtXtXtXtXtXtXtXtXtXtX",
"tXtXtXtXtXtXtXtXtXtXtXtXtXtXtXtXtXtXtX0 t &.<.g W.P.P W.{.{.{.{.}.[.}.]._.>.&.$.o.0 tXtXtXtXtXtXtXtXtXtXtXtXtXtXtXtXtXtXtXtXtXtXtXtXtXtXtXtXtXtXtXtXtXtXtXtX",
"tXtXtXtXtXtXtXtXtXtXtXtXtXtXtXtXtXtXtXtXq #.&.r.a.F Z '.{.{.{.{.}.}.].].Y.r.1.2.*.q tXtXtXtXtXtXtXtXtXtXtXtXtXtXtXtXtXtXtXtXtXtXtXtXtXtXtXtXtXtXtXtXtXtXtXtX",
"tXtXtXtXtXtXtXtXtXtXtXtXtXtXtXtXtXtXtXtXw <.<.=.=.g i.'.{.{.{.{.[.].L.W.T.:.1.2.*.t tXtXtXtXtXtXtXtXtXtXtXtXtXtXtXtXtXtXtXtXtXtXtXtXtXtXtXtXtXtXtXtXtXtXtXtX",
"tXtXtXtXtXtXtXtXtXtXtXtXtXtXtXtXtXtXtXo r <.2.2.<.f R.'.].{.{.{.[.Y.r.u.u.$.2.<.<.r tXtXtXtXtXtXtXtXtXtXtXtXtXtXtXtXtXtXtXtXtXtXtXtXtXtXtXtXtXtXtXtXtXtXtXtX",
"tXtXtXtXtXtXtXtXtXtXtXtXtXtXtXtXtXtXtX  y <.<.1.&.r.P.W.`.}.}.{.].p.;.$.:.<.*.*.*.u tXtXtXtXtXtXtXtXtXtXtXtXtXtXtXtXtXtXtXtXtXtXtXtXtXtXtXtXtXtXtXtXtXtXtXtX",
"tXtXtXtXtXtXtXtXtXtXtXtXtXtXtXtXtXtXtXO O.1.&.2.;.t.L.E.].}.[.[.R.r.<.2.2.*.@.*.&.r tXtXtXtXtXtXtXtXtXtXtXtXtXtXtXtXtXtXtXtXtXtXtXtXtXtXtXtXtXtXtXtXtXtXtXtX",
"tXtXtXtXtXtXtXtXtXtXtXtXtXtXtXtXtXtXtX$ O.&.&.<.;.J P.W.{.}.}.`.u.;.1.2.1.$.@.$.*.$ tXtXtXtXtXtXtXtXtXtXtXtXtXtXtXtXtXtXtXtXtXtXtXtXtXtXtXtXtXtXtXtXtXtXtXtX",
"tXtXtXtXtXtXtXtXtXtXtXtXtXtXtXtXtXtXtXo %.%.$.<.=.P R.Q.{.}.].P.f 1.2.2.1.&.$.*.o.# tXtXtXtXtXtXtXtXtXtXtXtXtXtXtXtXtXtXtXtXtXtXtXtXtXtXtXtXtXtXtXtXtXtXtXtX",
"tXtXtXtXtXtXtXtXtXtXtXtXtXtXtXtXtXtXtX0 +.$.&.1.g P.R.'.{.[.R.t.#.2.2.2.1.&.*.1.r O tXtXtXtXtXtXtXtXtXtXtXtXtXtXtXtXtXtXtXtXtXtXtXtXtXtXtXtXtXtXtXtXtXtXtXtX",
"tXtXtXtXtXtXtXtXtXtXtXtXtXtXtXtXtXtXX 0 +.$.*.*.r.P.`.}.{.`.F ;.1.2.1.&.&.<.<.#.0 tXtXtXtXtXtXtXtXtXtXtXtXtXtXtXtXtXtXtXtXtXtXtXtXtXtXtXtXtXtXtXtXtXtXtXtXtX",
"tXtXtXtXtXtXtXtXtXtXtXtXtXtXtXtXtXtX  # %.$.1.<.r.R.].}.E.u.=.<.<.2.&.w u <.*.r O tXtXtXtXtXtXtXtXtXtXtXtXtXtXtXtXtXtXtXtXtXtXtXtXtXtXtXtXtXtXtXtXtXtXtXtXtX",
"tXtXtXtXtXtXtXtXtXtXtXtXtXtXtXtXtXtX  e @.$.<.<.=.P.Q.W.t.-.*.*.<.$.u o w +.u o tXtXtXtXtXtXtXtXtXtXtXtXtXtXtXtXtXtXtXtXtXtXtXtXtXtXtXtXtXtXtXtXtXtXtXtXtXtX",
"tXtXtXtXtXtXtXtXtXtXtXtXtXtXtXtXtXtX  w %.#.<.1.*.,.u.>.$.1.1.<.*.e O tXtXtXtXtXtXtXtXtXtXtXtXtXtXtXtXtXtXtXtXtXtXtXtXtXtXtXtXtXtXtXtXtXtXtXtXtXtXtXtXtXtXtX",
"tXtXtXtXtXtXtXtXtXtXtXtXtXtXtXtXtXtX  w %.$.2.2.2.<.<.1.2.2.<.%.e @ tXtXtXtXtXtXtXtXtXtXtXtXtXtXtXtXtXtXtXtXtXtXtXtXtXtXtXtXtXtXtXtXtXtXtXtXtXtXtXtXtXtXtXtX",
"tXtXtXtXtXtXtXtXtXtXtXtXtXtXtXtXtXtXX q @.*.1.2.2.2.2.2.2.1.o.q @ tXtXtXtXtXtXtXtXtXtXtXtXtXtXtXtXtXtXtXtXtXtXtXtXtXtXtXtXtXtXtXtXtXtXtXtXtXtXtXtXtXtXtXtXtX",
"tXtXtXtXtXtXtXtXtXtXtXtXtXtXtXtXtXtXtX$ $.<.2.2.2.2.2.1.$.y #   tXtXtXtXtXtXtXtXtXtXtXtXtXtXtXtXtXtXtXtXtXtXtXtXtXtXtXtXtXtXtXtXtXtXtXtXtXtXtXtXtXtXtXtXtXtX",
"tXtXtXtXtXtXtXtXtXtXtXtXtXtXtXtXtXtXtX$ O.1.2.2.2.2.1.+.e O tXtXtXtXtXtXtXtXtXtXtXtXtXtXtXtXtXtXtXtXtXtXtXtXtXtXtXtXtXtXtXtXtXtXtXtXtXtXtXtXtXtXtXtXtXtXtXtX",
"tXtXtXtXtXtXtXtXtXtXtXtXtXtXtXtXtXtXtXtXe o.#.&.#.o.e #   tXtXtXtXtXtXtXtXtXtXtXtXtXtXtXtXtXtXtXtXtXtXtXtXtXtXtXtXtXtXtXtXtXtXtXtXtXtXtXtXtXtXtXtXtXtXtXtXtX",
"tXtXtXtXtXtXtXtXtXtXtXtXtXtXtXtXtXtXtXtXtX# e # 0 O tXtXtXtXtXtXtXtXtXtXtXtXtXtXtXtXtXtXtXtXtXtXtXtXtXtXtXtXtXtXtXtXtXtXtXtXtXtXtXtXtXtXtXtXtXtXtXtXtXtXtXtX",
"tXtXtXtXtXtXtXtXtXtXtXtXtXtXtXtXtXtXtXtXtXtXtXtXtXtXtXtXtXtXtXtXtXtXtXtXtXtXtXtXtXtXtXtXtXtXtXtXtXtXtXtXtXtXtXtXtXtXtXtXtXtXtXtXtXtXtXtXtXtXtXtXtXtXtXtXtXtX",
"tXtXtXtXtXtXtXtXtXtXtXtXtXtXtXtXtXtXtXtXtXtXtXtXtXtXtXtXtXtXtXtXtXtXtXtXtXtXtXtXtXtXtXtXtXtXtXtXtXtXtXtXtXtXtXtXtXtXtXtXtXtXtXtXtXtXtXtXtXtXtXtXtXtXtXtXtXtX",
"tXtXtXtXtXtXtXtXtXtXtXtXtXtXtXtXtXtXtXtXtXtXtXtXtXtXtXtXtXtXtXtXtXtXtXtXtXtXtXtXtXtXtXtXtXtXtXtXtXtXtXtXtXtXtXtXtXtXtXtXtXtXtXtXtXtXtXtXtXtXtXtXtXtXtXtXtXtX",
"tXtXtXtXtXtXtXtXtXtXtXtXtXtXtXtXtXtXtXtXtXtXtXtXtXtXtXtXtXtXtXtXtXtXtXtXtXtXtXtXtXtXtXtXtXtXtXtXtXtXtXtXtXtXtXtXtXtXtXtXtXtXtXtXtXtXtXtXtXtXtXtXtXtXtXtXtXtX",
"tXtXtXtXtXtXtXtXtXtXtXtXtXtXtXtXtXtXtXtXtXtXtXtXtXtXtXtXtXtXtXtXtXtXtXtXtXtXtXtXtXtXtXtXtXtXtXtXtXtXtXtXtXtXtXtXtXtXtXtXtXtXtXtXtXtXtXtXtXtXtXtXtXtXtXtXtXtX",
"tXtXtXtXtXtXtXtXtXtXtXtXtXtXtXtXtXtXtXtXtXtXtXtXtXtXtXtXtXtXtXtXtXtXtXtXtXtXtXtXtXtXtXtXtXtXtXtXtXtXtXtXtXtXtXtXtXtXtXtXtXtXtXtXtXtXtXtXtXtXtXtXtXtXtXtXtXtX",
"tXtXtXtXtXtXtXtXtXtXtXtXtXtXtXtXtXtXtXtXtXtXtXtXtXtXtXtXtXtXtXtXtXtXtXtXtXtXtXtXtXtXtXtXtXtXtXtXtXtXtXtXtXtXtXtXtXtXtXtXtXtXtXtXtXtXtXtXtXtXtXtXtXtXtXtXtXtX",
"tXtXtXtXtXtXtXtXtXtXtXtXtXtXtXtXtXtXtXtXtXtXtXtXtXtXtXtXtXtXtXtXtXtXtXtXtXtXtXtXtXtXtXtXtXtXtXtXtXtXtXtXtXtXtXtXtXtXtXtXtXtXtXtXtXtXtXtXtXtXtXtXtXtXtXtXtXtX",
"tXtXtXtXtXtXtXtXtXtXtXtXtXtXtXtXtXtXtXtXtXtXtXtXtXtXtXtXtXtXtXtXtXtXtXtXtXtXtXtXtXtXtXtXtXtXtXtXtXtXtXtXtXtXtXtXtXtXtXtXtXtXtXtXtXtXtXtXtXtXtXtXtXtXtXtXtXtX",
"tXtXtXtXtXtXtXtXtXtXtXtXtXtXtXtXtXtXtXtXtXtXtXtXtXtXtXtXtXtXtXtXtXtXtXtXtXtXtXtXtXtXtXtXtXtXtXtXtXtXtXtXtXtXtXtXtXtXtXtXtXtXtXtXtXtXtXtXtXtXtXtXtXtXtXtXtXtX"
};
