/* XPM */
static char *_572134218609[] = {
/* columns rows colors chars-per-pixel */
"78 97 218 2 ",
"   c #1D1A15",
".  c #1D1B19",
"X  c #171715",
"o  c #2B1712",
"O  c #221C15",
"+  c #221E1A",
"@  c #2B1814",
"#  c #321813",
"$  c #3C1914",
"%  c #341B16",
"&  c #2D250F",
"*  c #362B0E",
"=  c #2B2415",
"-  c #25221E",
";  c #2A2319",
":  c #332A14",
">  c #3E3211",
",  c #272522",
"<  c #292623",
"1  c #2B2926",
"2  c #2D2C2A",
"3  c #312F2D",
"4  c #342D26",
"5  c #33312D",
"6  c #3A3628",
"7  c #353433",
"8  c #393735",
"9  c #3B3936",
"0  c #3B3B3B",
"q  c #441814",
"w  c #481814",
"e  c #541814",
"r  c #5D1813",
"t  c #531B16",
"y  c #6C1913",
"u  c #641812",
"i  c #731A14",
"p  c #791812",
"a  c #43350C",
"s  c #4D3C0C",
"d  c #4C3B06",
"f  c #503F09",
"g  c #483C1A",
"h  c #5B2C1C",
"j  c #6B281B",
"k  c #443B28",
"l  c #423F3B",
"z  c #733D24",
"x  c #5E490A",
"c  c #584408",
"v  c #584716",
"b  c #4D401C",
"n  c #6C5305",
"m  c #6B540E",
"M  c #765B04",
"N  c #715B18",
"B  c #665113",
"V  c #7D6006",
"C  c #7B6217",
"Z  c #4A442B",
"A  c #574825",
"S  c #47433C",
"D  c #5B5437",
"F  c #5A4E2E",
"G  c #675728",
"H  c #685C39",
"J  c #725229",
"K  c #75632B",
"L  c #6D6439",
"P  c #796939",
"I  c #7A713D",
"U  c #4B4945",
"Y  c #504E4B",
"T  c #585349",
"R  c #595754",
"E  c #5A5856",
"W  c #645D46",
"Q  c #625E57",
"!  c #6B634B",
"~  c #776E4D",
"^  c #66645D",
"/  c #7A7258",
"(  c #7F7147",
")  c #6A6966",
"_  c #6E6C6A",
"`  c #656664",
"'  c #706F6C",
"]  c #746E61",
"[  c #73716D",
"{  c #757265",
"}  c #757372",
"|  c #7B7975",
" . c #7C7B7A",
".. c #787774",
"X. c #6A7576",
"o. c #5D6460",
"O. c #8B1A14",
"+. c #931914",
"@. c #9B1A14",
"#. c #9D1713",
"$. c #A41914",
"%. c #AC1914",
"&. c #A51713",
"*. c #B31914",
"=. c #BB1A15",
"-. c #952519",
";. c #8D2D1D",
":. c #A9281C",
">. c #B82419",
",. c #8F3822",
"<. c #A53D24",
"1. c #C41B16",
"2. c #CB1B16",
"3. c #C51B16",
"4. c #D11C16",
"5. c #846502",
"6. c #8C6B02",
"7. c #876A0C",
"8. c #967302",
"9. c #9B7601",
"0. c #9E7901",
"q. c #9B7A0B",
"w. c #987915",
"e. c #8A6C0B",
"r. c #A37C01",
"t. c #A87F00",
"y. c #874426",
"u. c #8D542E",
"i. c #846D27",
"p. c #937A28",
"a. c #95793A",
"s. c #8D6F31",
"d. c #867A45",
"f. c #977C41",
"g. c #857956",
"h. c #837C6B",
"j. c #807F7D",
"k. c #AC8301",
"l. c #AA8409",
"z. c #B48A02",
"x. c #B98D01",
"c. c #B18701",
"v. c #BC9102",
"b. c #BB920B",
"n. c #A68415",
"m. c #B79217",
"M. c #B08C16",
"N. c #9C8333",
"B. c #A48729",
"V. c #AD8F2F",
"C. c #C39601",
"Z. c #C69801",
"A. c #CC9C00",
"S. c #C0960D",
"D. c #C19813",
"F. c #D4A300",
"G. c #D9A700",
"H. c #DDAA00",
"J. c #CFA001",
"K. c #E0AD00",
"L. c #8D8445",
"P. c #978948",
"I. c #98934C",
"U. c #998956",
"Y. c #A5994E",
"T. c #A49B52",
"R. c #A08D4B",
"E. c #AAA655",
"W. c #B4AE58",
"Q. c #B8B65C",
"!. c #8B8269",
"~. c #968B67",
"^. c #86837A",
"/. c #918A76",
"(. c #9E9577",
"). c #C0BD5F",
"_. c #C3BF60",
"`. c #C6C262",
"'. c #C9C663",
"]. c #CECA66",
"[. c #D0CC67",
"{. c #D1CD68",
"}. c #768788",
"|. c #7C9296",
" X c #858483",
".X c #8C8B8A",
"XX c #888683",
"oX c #928E87",
"OX c #92908E",
"+X c #9C978A",
"@X c #949393",
"#X c #9C9B9A",
"$X c #9B9995",
"%X c #81969A",
"&X c #A39F93",
"*X c #A3A19B",
"=X c #85A6AB",
"-X c #8EB1B7",
";X c #A3A3A2",
":X c #ACACAC",
">X c #BBBCBC",
",X c #B4B4B3",
"<X c #B1B0AD",
"1X c #849CA0",
"2X c #98BFC5",
"3X c #BFBFC0",
"4X c #9DC7CD",
"5X c #9ECBD3",
"6X c #BFC0C0",
"7X c #ABD5DC",
"8X c #B4D7DD",
"9X c #ABD9E1",
"0X c #B3DEE6",
"qX c #B6E3EA",
"wX c #B9EBF5",
"eX c #AEE0E8",
"rX c #C1C1C2",
"tX c None",
/* pixels */
"tXtXtXtXtXtXtXtXtXtXtXtXtXtXtXtXtXtXtXtXtXtXtXtXtXtXtXtXtXtXtXtXtXtXtXtXtXtXtXtXtXtXtXtXtXtXtXtXtXtXtXtXtXtXtXtXtXtXtXtXtXtXtXtXtXtXtXtXtXtXtXtXtXtXtXtXtXtX",
"tXtXtXtXtXtXtXtXtXtXtXtXtXtXtXtXtXtXtXtXtXtXtXtXtXtXtXtXtXtXtXtXtXtXtXtXtXtXtXtXtXtXtXtXtXtXtXtXtXtXtXtXtXtXtXtXtXtXtXtXtXtXtXtXtXtXtXtXtXtXtXtXtXtXtXtXtXtX",
"tXtXtXtXtXtXtXtXtXtXtXtXtXtXtXtXtXtXtXtXtXtXtXtXtXtXtXtXtXtXtXtXtXtXtXtXtXtXtXtXtXtXtXtXtXtXtXtXtXtXtXtXtXtXtXtXtXtXtXtXtXtXtXtXtXtXtXtXtXtXtXtXtXtXtXtXtXtX",
"tXtXtXtXtXtXtXtXtXtXtXtXtXtXtXtXtXtXtXtXtXtXtXtXtXtXtXtXtXtXtXtXtXtXtXtXtXtXtXtXtXtXtXtXtXtXtXtXtXtXtXtXtXtXtXtXtXtXtXtXtXtXtXtXtXtXtXtXtXtXtXtXtXtXtXtXtXtX",
"tXtXtXtXtXtXtXtXtXtXtXtXtXtXtXtXtXtXtXtXtXtXtXtXtXtXtXtXtXtXtXtXtXtXtXtXtXtXtXtXtXtXtXtXtXtXtXtXtXtXtXtXtXtXtXtXtXtXtXtXtXtXtXtXtXtXtXtXtXtXtXtXtXtXtXtXtXtX",
"tXtXtXtXtXtXtXtXtXtXtXtXtXtXtXtXtXtXtXtXtXtXtXtXtXtXtXtXtXtXtXtXtXtXtXtXtXtXtXtXtXtXtXtXtXtXtXtXtXtXtXtXtXtXtXtXtXtXtXtXtXtXtXtXtXtXtXtXtXtXtXtXtXtXtXtXtXtX",
"tXtXtXtXtXtXtXtXtXtXtXtXtXtXtXtXtXtXtXtXtXtXtXtXtXtXtXtXtXtXtXtXtXtXtXtXtXtXtXtXtXtXtXtXtXtXtXtXtXtXtXtXtXtXtXtXtXtXtXtXtXtXtXtXtXtXtXtXtXtXtXtXtXtXtXtXtXtX",
"tXtXtXtXtXtXtXtXtXtXtXtXtXtXtXtXtXtXtXtXtXtXtXtXtXtXtXtXtXtXtXtXtXtXtXtXtXtXtXtXtXtXtXtXtXtXtXtXtXtXtXtXtXtXtXtXtXtXtXtXtXtXtXtXtXtXtXtXtXtXtXtXtXtXtXtXtXtX",
"tXtXtXtXtXtXtXtXtXtXtXtXtXtXtXtXtXtXtXtXtXtXtXtXtXtXtXtXtXtXtXtXtXtXtXtXtXtXtXtXtXtXtXtXtXtXtXtXtXtXtXtXtXtXtXtXtXtXtXtXtXtXtXtXtXtXtXtXtXtXtXtXtXtXtXtXtXtX",
"tXtXtXtXtXtXtXtXtXtXtXtXtXtXtXtXtXtXtXtXtXtXtXtXtXtXtXtXtXtXtXtXtXtXtXtXtXtXtXtXtXtXtXtXtXtXtXtXtXtXtXtXtXtXtXtXtXtXtXtXtXtXtXtXtXtXtXtXtXtXtXtXtXtXtXtXtXtX",
"tXtXtXtXtXtXtXtXtXtXtXtXtXtXtXtXtXtXtXtXtXtXtX> x tXtXtXtXtXtXtXtXtXtXtXtXtXtXtXtXtXtXtXtXtXtXtXtXtXtXtXtXtXtXtXtXtXtXtXtXtXtXtXtXtXtXtXtXtXtXtXtXtXtXtXtXtX",
"tXtXtXtXtXtXtXtXtXtXtXtXtXtXtXtXtXtXtXtXtXtXc k.z.N 4 tXtXtXtXtXtXtXtXtXtXtXtXtXtXtXtXtXtXtXtXtXtXtXtXtXtXtXtXtXtXtXtXtXtXtXtXtXtXtXtXtXtXtXtXtXtXtXtXtXtXtX",
"tXtXtXtXtXtXtXtXtXtXtXtXtXtXtXtXtXtXtXtXtXtXx k.m.U.' F * tXtXtXtXtXtXtXtXtXtXtXtXtXtXtXtXtXtXtXtXtXtXtXtXtXtXtXtXtXtXtXtXtXtXtXtXtXtXtXtXtXtXtXtXtXtXtXtXtX",
"tXtXtXtXtXtXtXtXtXtXtXtXtXtXtXtXtXtXtXtXtX= F U./.U.n.x.5.6 U E Y Y 0 8 tXtXtXtXtXtXtXtXtXtXtXtXtXtXtXtXtXtXtXtXtXtXtXtXtXtXtXtXtXtXtXtXtXtXtXtXtXtXtXtXtXtX",
"tXtXtXtXtXtXtXtXtXtXtXtXtXtXtXtXtXtXtXtXtX1 ! N.V.m.F.K.A.e.H ' #X.XXX} E 2 tXtXtXtXtXtXtXtXtXtXtXtXtXtXtXtXtXtXtXtXtXtXtXtXtXtXtXtXtXtXtXtXtXtXtXtXtXtXtXtX",
"tXtXtXtXtXtXtXtXtXtXtXtXtXtXtXtXtXtXtXtXtX> C m.H.K.K.K.K.J.9.F XX#X@XXX X' U tXtXtXtXtXtXtXtXtXtXtXtXtXtXtXtXtXtXtXtXtXtXtXtXtXtXtXtXtXtXtXtXtXtXtXtXtXtXtX",
"tXtXtXtXtXtXtXtXtXtXtXtXtXtXtXtXtXtXtXtX- a 6.A.K.K.K.K.H.Z.C.e.H | $Xj.' j...< tXtXtXtXtXtXtXtXtXtXtXtXtXtXtXtXtXtXtXtXtXtXtXtXtXtXtXtXtXtXtXtXtXtXtXtXtXtX",
"tXtXtXtXtXtXtXtXtXtXtXtXtXtXtXtXtXtXtXtXS a 6.Z.H.K.K.H.F.c.t.8.v S .XOX) )  XR 5 tXtXtXtXtXtXtXtXtXtXtXtXtXtXtXtXtXtXtXtXtXtXtXtXtXtXtXtXtXtXtXtXtXtXtXtXtX",
"tXtXtXtXtXtXtXtXtXtXtXtXtXtXtXtXtXtXtXY E v 6.C.K.K.K.K.J.9.M G ] W T | j.` }  XU X tXtXtXtXtXtXtXtXtXtXtXtXtXtXtXtXtXtXtXtXtXtXtXtXtXtXtXtXtXtXtXtXtXtXtXtX",
"tXtXtXtXtXtXtXtXtXtXtXtXtXtXtXtXtXtXl } | s 8.Z.K.K.H.G.b.i.W W W N 7.D  ...Q @X_ 5 tXtXtXtXtXtXtXtXtXtXtXtXtXtXtXtXtXtXtXtXtXtXtXtXtXtXtXtXtXtXtXtXtXtXtXtX",
"tXtXtXtXtXtXtXtXtXtXtXtXtXtXtXtXtX2 E #X .v 8.A.K.H.D.B.d.{ ] H N x.J.5.T ` ' j.XX^   tXtXtXtXtXtXtXtXtXtXtXtXtXtXtXtXtXtXtXtXtXtXtXtXtXtXtXtXtXtXtXtXtXtXtX",
"tXtXtXtXtXtXtXtXtXtXtXtXtXtXtXtX1 Y j.;X_ v 6.x.V.a.g.!.^.P.w.9.r.c.J.C.7.Z } } @X@X3 tXtXtXtXtXtXtXtXtXtXtXtXtXtXtXtXtXtXtXtXtXtXtXtXtXtXtXtXtXtXtXtXtXtXtX",
"tXtXtXtXtXtXtXtXtXtXtXtXtXtXtXtX7 Q .X#X| g ( h.~./.~.R.l.Z.J.A.C.x.G.K.A.x Q ' $X;X` - tXtXtXtXtXtXtXtXtXtXtXtXtXtXtXtXtXtXtXtXtXtXtXtXtXtXtXtXtXtXtXtXtXtX",
"tXtXtXtXtXtXtXtXtXtXtXtXtXtXtXtX8 ) OX#X' D ! h.R.V.x.A.H.K.K.K.A.A.G.K.H.k.N U | <X@X< tXtXtXtXtXtXtXtXtXtXtXtXtXtXtXtXtXtXtXtXtXtXtXtXtXtXtXtXtXtXtXtXtXtX",
"tXtXtXtXtXtXtXtXtXtXtXtXtXtXtX  U )  X$Xj.k N t.A.G.K.K.K.G.v.z.t.w.z.C.H.H.l.* 6 ` XXU , tXtXtXtXtXtXtXtXtXtXtXtXtXtXtXtXtXtXtXtXtXtXtXtXtXtXtXtXtXtXtXtXtX",
"tXtXtXtXtXtXtXtXtXtXtXtXtXtXtXtX8 _ .XOXXXs 6.x.G.K.K.G.b.w.I W Q W Y K r.J.F.5.* < 8 9 + tXtXtXtXtXtXtXtXtXtXtXtXtXtXtXtXtXtXtXtXtXtXtXtXtXtXtXtXtXtXtXtXtX",
"tXtXtXtXtXtXtXtXtXtXtXtXtXtXtXtX3 o. XOX} A 5.c.H.K.G.M.P ` %X-X2X=X}.o.H w.G.Z.n . , , + . tXtXtXtXtXtXtXtXtXtXtXtXtXtXtXtXtXtXtXtXtXtXtXtXtXtXtXtXtXtXtXtX",
"tXtXtXtXtXtXtXtXtXtXtXtXtXtXtXtX3 R  .OX[ g 5.c.H.F.n.~ |.4X7X0XwXwX9X=XY H Z.K.k.c - 1 2 1 -   tXtXtXtXtXtXtXtXtXtXtXtXtXtXtXtXtXtXtXtXtXtXtXtXtXtXtXtXtXtX",
"tXtXtXtXtXtXtXtXtXtXtXtXtXtXtXtX, R _ #X' g M x.G.b.d.}.2X7X0X0XwX9XwX5XX.H l.K.F.8.: - 3 0 3 < + tXtXtXtXtXtXtXtXtXtXtXtXtXtXtXtXtXtXtXtXtXtXtXtXtXtXtXtXtX",
"tXtXtXtXtXtXtXtXtXtXtXtXtXtXtXtX  Y _ .X .Z M x.J.n.{ -X9X8X0XrX8X7XwX7XX.! c.K.K.J.x = , 3 8 8 5 , . tXtXtXtXtXtXtXtXtXtXtXtXtXtXtXtXtXtXtXtXtXtXtXtXtXtXtX",
"tXtXtXtXtXtXtXtXtXtXtXtXtXtXtXtXtX9 '  .OX4 M c.Z.s.X.4X0XqX0X8X7X7XqX4X` P Z.H.K.H.r.a . 1 3 0 0 8 1 - tXtXtXtXtXtXtXtXtXtXtXtXtXtXtXtXtXtXtXtXtXtXtXtXtXtX",
"tXtXtXtXtXtXtXtXtXtXtXtXtXtXtXtXtX, ) | ' k n t.b.p.}.=XwXwX0XqX0XqX5X}.! w.H.K.H.H.H.V - , 1 7 0 0 8 2 -   tXtXtXtXtXtXtXtXtXtXtXtXtXtXtXtXtXtXtXtXtXtXtXtX",
"tXtXtXtXtXtXtXtXtXtXtXtXtXtXtXtXtX1 Y ..Y = c r.Z.w.h.}.4X0XwX0X7X4X|.^ i.Z.K.H.K.K.K.c.x O , 2 8 0 0 2 2 - . tXtXtXtXtXtXtXtXtXtXtXtXtXtXtXtXtXtXtXtXtXtXtX",
"tXtXtXtXtXtXtXtXtXtXtXtXtXtXtXtXtXtX3 ' l @ d 6.C.c.a.{ }.%X=X-X|.' ~ p.A.H.K.K.K.K.F.A.9.o , , 7 0 0 2 2 2 2 . tXtXtXtXtXtXtXtXtXtXtXtXtXtXtXtXtXtXtXtXtXtX",
"tXtXtXtXtXtXtXtXtXtXtXtXtXtXtXtXtXtX1 S 4 O a 6.x.F.S.p.] / { g.d.i.n.A.K.K.K.K.K.K.Z.Z.v.x ; , 2 0 0 7 , , 2 1 + tXtXtXtXtXtXtXtXtXtXtXtXtXtXtXtXtXtXtXtXtX",
"tXtXtXtXtXtXtXtXtXtXtXtXtXtXtXtXtXtX+ - - - & 5.c.F.K.A.C.M.M.t.b.J.K.K.K.H.K.K.K.F.x.x.A.r.* + 1 7 0 0 7 2 2 2 2 + tXtXtXtXtXtXtXtXtXtXtXtXtXtXtXtXtXtXtXtX",
"tXtXtXtXtXtXtXtXtXtXtXtXtXtXtXtXtXtXtX  + < : n t.A.K.K.K.K.G.K.K.K.K.K.K.K.K.K.K.A.t.k.F.F.x = , 2 0 0 0 7 2 2 8 2 . tXtXtXtXtXtXtXtXtXtXtXtXtXtXtXtXtXtXtX",
"tXtXtXtXtXtXtXtXtXtXtXtXtXtXtXtXtXtXtX. , 2 < x r.Z.K.K.K.K.K.K.K.K.K.H.K.K.K.K.F.C.r.t.Z.F.r.a . 2 8 0 0 0 3 2 8 8 1 + tXtXtXtXtXtXtXtXtXtXtXtXtXtXtXtXtXtX",
"tXtXtXtXtXtXtXtXtXtXtXtXtXtXtXtXtXtXtXO , 3 < d 6.x.F.K.G.K.K.K.K.K.K.K.K.H.H.K.A.k.9.r.k.A.Z.d + , 7 0 0 0 0 0 0 0 8 , . tXtXtXtXtXtXtXtXtXtXtXtXtXtXtXtXtX",
"tXtXtXtXtXtXtXtXtXtXtXtXtXtXtXtXtXtX  - 1 7 3 a M t.F.K.K.K.K.K.K.H.K.K.K.K.K.K.J.t.9.8.r.t.p.T 3 + 1 7 0 0 0 0 0 0 0 2 - tXtXtXtXtXtXtXtXtXtXtXtXtXtXtXtXtX",
"tXtXtXtXtXtXtXtXtXtXtXtXtXtXtXtXtXtX. - 2 8 7 = M r.Z.G.K.K.K.K.K.K.K.K.K.K.K.K.G.x.r.6.M G ^.*XR   , 1 2 3 7 7 0 0 0 0 2   tXtXtXtXtXtXtXtXtXtXtXtXtXtXtXtX",
"tXtXtXtXtXtXtXtXtXtXtXtXtXtXtXtXtXtX. , 7 0 8 ; f 8.C.G.K.K.K.K.K.K.K.H.K.H.K.K.H.x.6.N W  .:XrX| 5 - ; , , , 1 3 0 0 0 7 , tXtXtXtXtXtXtXtXtXtXtXtXtXtXtXtX",
"tXtXtXtXtXtXtXtXtXtXtXtXtXtXtXtXtX  + 1 7 0 8 2 a 6.x.G.K.K.K.K.K.K.K.K.H.K.H.F.v.B.~ } | XX;X>X#XY X   . - - - , 3 8 0 8 2 . tXtXtXtXtXtXtXtXtXtXtXtXtXtXtX",
"tXtXtXtXtXtXtXtXtXtXtXtXtXtXtXtXtX. + 1 0 0 0 3 * M t.A.K.K.K.G.K.K.K.K.H.F.b.N.g.oX;X;X.X}.@X,XrXQ + tXtX  . + , , 2 8 0 8 + tXtXtXtXtXtXtXtXtXtXtXtXtXtXtX",
"tXtXtXtXtXtXtXtXtXtXtXtXtXtXtXtXtXX . 2 7 0 l 7 : x r.Z.G.K.K.K.K.H.F.A.m.a.g.+X,X6X3X>X@X X X$X.XH > tXtXtXtX    - , 2 8 8 , . tXtXtXtXtXtXtXtXtXtXtXtXtXtX",
"tXtXtXtXtXtXtXtXtXtXtXtXtXtXtXtXtXX , 2 7 0 l 7 + d 9.x.G.K.K.J.Z.b.V.d./.*X>X6X3X3X3X>X;XXX| ~ w.l.x X tXtXtXtXtX. + , 3 8 3   tXtXtXtXtXtXtXtXtXtXtXtXtXtX",
"tXtXtXtXtXtXtXtXtXtXtXtXtXtXtXtXtX. , 2 0 0 0 7 , a M r.b.m.r.B.U./.+X<X3X3X6X3X3XrXrX>X$X] A C C.K.7.* tXtXtXtXtXtX  O 1 6 k = tXtXtXtXtXtXtXtXtXtXtXtXtXtX",
"tXtXtXtXtXtXtXtXtXtXtXtXtXtXtXtXtX- , 2 7 0 7 , 3 = g ! ~ ~.&X;X:X>X3X3X3X6X3X3XrXrX<XoX~ i.6.c.G.H.z.a tXtXtXtXtXtXtX  * m 6.a tXtXtXtXtXtXtXtXtXtXtXtXtXtX",
"tXtXtXtXtXtXtXtXtXtXtXtXtXtXtXtX  + , 2 0 0 2 , 7 . 0 _ @X,X3X3XrX6XrXrX3XrXrX>X:X#X~.B.k.k.0.x.H.K.G.c tXtXtXtXtXtXtXtX& s g ; tXtXtXtXtXtXtXtXtXtXtXtXtXtX",
"tXtXtXtXtXtXtXtXtXtXtXtXtXtXtXtX. . , 2 0 8 2 , 2 2 7 _ .X:X3X3X6X6X6XrXrX,X:X$XU.n.z.F.H.A.k.J.H.H.Z.m O tXtXtXtXtXtXtX  = , - tXtXtXtXtXtXtXtXtXtXtXtXtXtX",
"tXtXtXtXtXtXtXtXtXtXtXtXtXtXtXtX  + , 3 0 8 2 , 5 7 + R j.;X>XrX6XrX6X:X*X(.P.l.b.F.K.K.H.A.Z.H.K.H.k.s tXtXtXtXtXtXtXtXtX.   . tXtXtXtXtXtXtXtXtXtXtXtXtXtX",
"tXtXtXtXtXtXtXtXtXtXtXtXtXtXtXtX. + , 2 0 8 1 2 8 8 - 9 ' $X:X3X<X&XoXI.B.z.Z.H.K.K.H.K.H.H.G.K.J.8.s ; tXtXtXtXtXtXtXtXtXtX    tXtXtXtXtXtXtXtXtXtXtXtXtXtX",
"tXtXtXtXtXtXtXtXtXtXtXtXtXtXtXtX  + , 7 0 0 5 7 8 2 O - T ..~.U.P.V.S.Z.G.K.K.K.K.K.K.K.K.H.H.J.w.L R 3 tXtXtXtXtXtXtXtXtXtXtXtXtXtXtXtXtXtXtXtXtXtXtXtXtXtX",
"tXtXtXtXtXtXtXtXtXtXtXtXtXtXtXtXX + < 3 0 0 8 8 7 - tX  g n w.b.F.F.H.K.K.K.K.K.H.K.K.K.H.H.k.m W .X$X7 tXtXtXtXtXtXtXtXtXtXtXtXtXtXtXtXtXtXtXtXtXtXtXtXtXtX",
"tXtXtXtXtXtXtXtXtXtXtXtXtXtXtXtXtX+ , 3 0 0 0 0 < . tXtX& n r.Z.H.H.K.K.K.K.K.K.K.H.K.G.z.5.K h.;X@XY , tXtXtXtXtXtXtXtXtXtXtXtXtXtXtXtXtXtXtXtXtXtXtXtXtXtX",
"tXtXtXtXtXtXtXtXtXtXtXtXtXtXtXtXtX. , 3 0 0 0 7 + tXtXtX  f 6.c.A.H.K.K.K.K.K.K.K.J.v.q.K T  X;X@XE 3 - tXtXtXtXtXtXtXtXtXtXtXtXtXtXtXtXtXtXtXtXtXtXtXtXtXtX",
"tXtXtXtXtXtXtXtXtXtXtXtXtXtXtXtXtX. - 2 0 0 0 3 . tXtXtXtX* n r.x.A.K.K.K.K.F.Z.k.e.G U _ #X;X[ 8 1 2 2 , tXtXtXtXtXtXtXtXtXtXtXtXtXtXtXtXtXtXtXtXtXtXtXtXtX",
"tXtXtXtXtXtXtXtXtXtXtXtXtXtXtXtXtX  - 1 0 0 0 1 O tXtXtXtX  a 6.t.k.x.Z.z.9.6.K F T } #XOX .R 0 2 , 1 1 2 , tXtXtXtXtXtXtXtXtXtXtXtXtXtXtXtXtXtXtXtXtXtXtXtX",
"tXtXtXtXtXtXtXtXtXtXtXtXtXtXtXtXtX  + 1 8 0 8 <   tXtXtXtXtX= f c x B v A H Y `  ..X^. .^ S 2 2 2 - , , 7 1 + tXtXtXtXtXtXtXtXtXtXtXtXtXtXtXtXtXtXtXtXtXtXtX",
"tXtXtXtXtXtXtXtXtXtXtXtXtXtXtXtXtXtXO - 7 0 0 , tXtXtXtXtXtXtXtX< Y R ) _ } XXj..._ R 9 3 3 7 7 1 - , , 7 3 2 tXtXtXtXtXtXtXtXtXtXtXtXtXtXtXtXtXtXtXtXtXtXtX",
"tXtXtXtXtXtXtXtXtXtXtXtXtXtXtXtXtXtX  - 2 8 8 , tXtXtXtXtXtXtXtXtXl R Q ` E Y Y U 2 3 5 7 7 7 7 3 1 , 1 3 5 % - tXtXtXtXtXtXtXtXtXtXtXtXtXtXtXtXtXtXtXtXtXtX",
"tXtXtXtXtXtXtXtXtXtXtXtXtXtXtXtXtXtX  . 1 8 0 , tXtXtXtXtXtXtXtXtXtXtX2 , 1 7 7 5 7 7 7 7 5 7 7 5 3 , 1 6 j +.i w tXtXtXtXtXtXtXtXtXtXtXtXtXtXtXtXtXtXtXtXtX",
"tXtXtXtXtXtXtXtXtXtXtXtXtXtXtXtXtXtXtX  , k B s O tXtXtXtXtXtXtXtXtXtX- , , 2 7 8 7 7 7 7 7 7 8 3 2 5 k y %.2.1.+.% tXtXtXtXtXtXtXtXtXtXtXtXtXtXtXtXtXtXtXtX",
"tXtXtXtXtXtXtXtXtXtXtXtXtXtXtXtXtXtXtX  * n 7.v   tXtXtXtXtXtXtXtXtXtX+ - , 1 1 7 7 7 7 8 7 7 5 8 Z L f.,.2.4.4.3.O.e tXtXtXtXtXtXtXtXtXtXtXtXtXtXtXtXtXtXtX",
"tXtXtXtXtXtXtXtXtXtXtXtXtXtXtXtXtXtXtXtXO * v 4 + tXtXtXtXtXtXtXtXtXtX+ , 1 , 1 3 7 0 7 7 7 6 6 I E.'.).N.<.=.4.3.1.O.o tXtXtXtXtXtXtXtXtXtXtXtXtXtXtXtXtXtX",
"tXtXtXtXtXtXtXtXtXtXtXtXtXtXtXtXtXtXtXtXtX. < 1 - tXtXtXtXtXtXtXtXtXtX+ - , , 1 2 7 3 8 6 D L.W.`.'.].`.W.f.%.4.&.=.=.r @ tXtXtXtXtXtXtXtXtXtXtXtXtXtXtXtXtX",
"tXtXtXtXtXtXtXtXtXtXtXtXtXtXtXtXtXtXtXtXtXtX. -   tXtXtXtXtXtXtXtXtXtX. - < , , 1 Z Z ! I.Q.`.].[.[.[.Q.E.P.:.1.&.&.*.@.q tXtXtXtXtXtXtXtXtXtXtXtXtXtXtXtXtX",
"tXtXtXtXtXtXtXtXtXtXtXtXtXtXtXtXtXtXtXtXtXtXtX. tXtXtXtXtXtXtXtXtXtXtXtX+ % t u h I Q.'.].{.{.[.[.[.].T.u.;.>.2.*.#.*.2.e O tXtXtXtXtXtXtXtXtXtXtXtXtXtXtXtX",
"tXtXtXtXtXtXtXtXtXtXtXtXtXtXtXtXtXtXtXtXtXtXtXtXtXtXtXtXtXtXtXtXtXtXtXtXq O.*.*.O.I.`.].[.[.[.[.{.].].W.y.2.4.4.1.%.*.3.O.% tXtXtXtXtXtXtXtXtXtXtXtXtXtXtXtX",
"tXtXtXtXtXtXtXtXtXtXtXtXtXtXtXtXtXtXtXtXtXtXtXtXtXtXtXtXtXtXtXtXtXtXtXtXw &.=.2.;.s.W.`.].[.{.].{.{.{.].s.:.2.4.2.1.=.2.#.@ tXtXtXtXtXtXtXtXtXtXtXtXtXtXtXtX",
"tXtXtXtXtXtXtXtXtXtXtXtXtXtXtXtXtXtXtXtXtXtXtXtXtXtXtXtXtXtXtXtXtXtXtXtXu #.*.2.:.J Y.W.W._.].[.].{.{.].Y.,.2.4.4.1.=.3.+.$ tXtXtXtXtXtXtXtXtXtXtXtXtXtXtXtX",
"tXtXtXtXtXtXtXtXtXtXtXtXtXtXtXtXtXtXtXtXtXtXtXtXtXtXtXtXtXtXtXtXtXtXtXtXe %.%.2.2.j L.E.d.L.`.[.].{.{.{.).z 1.4.2.$.y i i tXtXtXtXtXtXtXtXtXtXtXtXtXtXtXtXtX",
"tXtXtXtXtXtXtXtXtXtXtXtXtXtXtXtXtXtXtXtXtXtXtXtXtXtXtXtXtXtXtXtXtXtXtXtXr $.*.2.2.-.L E.P A Q.]._.{.{.{.).s.%.4.4.$.# tXtXtXtXtXtXtXtXtXtXtXtXtXtXtXtXtXtXtX",
"tXtXtXtXtXtXtXtXtXtXtXtXtXtXtXtXtXtXtXtXtXtXtXtXtXtXtXtXtXtXtXtXtXtXtXtXe +.=.3.4.=.j L.J j f.E.W._.[.{.`.f.&.2.4.$.q tXtXtXtXtXtXtXtXtXtXtXtXtXtXtXtXtXtXtX",
"tXtXtXtXtXtXtXtXtXtXtXtXtXtXtXtXtXtXtXtXtXtXtXtXtXtXtXtXtXtXtXtXtXtXtXtXO p =.3.=.2.$.,.O.$.,.I.Y.).].[.{.d.:.1.3.$.q tXtXtXtXtXtXtXtXtXtXtXtXtXtXtXtXtXtXtX",
"tXtXtXtXtXtXtXtXtXtXtXtXtXtXtXtXtXtXtXtXtXtXtXtXtXtXtXtXtXtXtXtXtXtXtXtXtXe +.&.p +.2.=.2.4.#.i.P.T.).[.].P.;.3.=.%.@ tXtXtXtXtXtXtXtXtXtXtXtXtXtXtXtXtXtXtX",
"tXtXtXtXtXtXtXtXtXtXtXtXtXtXtXtXtXtXtXtXtXtXtXtXtXtXtXtXtXtXtXtXtXtXtXtXtXtXq $   e %.2.2.3.=.;.P E.W.].[.T.-.3.2.+.$ tXtXtXtXtXtXtXtXtXtXtXtXtXtXtXtXtXtXtX",
"tXtXtXtXtXtXtXtXtXtXtXtXtXtXtXtXtXtXtXtXtXtXtXtXtXtXtXtXtXtXtXtXtXtXtXtXtXtXtXtXtX# y =.2.=.3.=.z P.W.].[.I.,.2.2.+.@ tXtXtXtXtXtXtXtXtXtXtXtXtXtXtXtXtXtXtX",
"tXtXtXtXtXtXtXtXtXtXtXtXtXtXtXtXtXtXtXtXtXtXtXtXtXtXtXtXtXtXtXtXtXtXtXtXtXtXtXtXtXtXo O.1.%.*.1.-.u.T.'.'.N.:.4.4.p , tXtXtXtXtXtXtXtXtXtXtXtXtXtXtXtXtXtXtX",
"tXtXtXtXtXtXtXtXtXtXtXtXtXtXtXtXtXtXtXtXtXtXtXtXtXtXtXtXtXtXtXtXtXtXtXtXtXtXtXtXtXtX  t +.*.&.=.=.-.L E.T.y.1.4.3.y O tXtXtXtXtXtXtXtXtXtXtXtXtXtXtXtXtXtXtX",
"tXtXtXtXtXtXtXtXtXtXtXtXtXtXtXtXtXtXtXtXtXtXtXtXtXtXtXtXtXtXtXtXtXtXtXtXtXtXtXtXtXtXtXO w &.&.%.2.1.@.u.<.=.4.4.=.r X tXtXtXtXtXtXtXtXtXtXtXtXtXtXtXtXtXtXtX",
"tXtXtXtXtXtXtXtXtXtXtXtXtXtXtXtXtXtXtXtXtXtXtXtXtXtXtXtXtXtXtXtXtXtXtXtXtXtXtXtXtXtXtXtXO y +.%.=.2.2.2.3.4.4.4.*.w tXtXtXtXtXtXtXtXtXtXtXtXtXtXtXtXtXtXtXtX",
"tXtXtXtXtXtXtXtXtXtXtXtXtXtXtXtXtXtXtXtXtXtXtXtXtXtXtXtXtXtXtXtXtXtXtXtXtXtXtXtXtXtXtXtXtXo u &.%.*.2.4.4.4.4.2.@.$ tXtXtXtXtXtXtXtXtXtXtXtXtXtXtXtXtXtXtXtX",
"tXtXtXtXtXtXtXtXtXtXtXtXtXtXtXtXtXtXtXtXtXtXtXtXtXtXtXtXtXtXtXtXtXtXtXtXtXtXtXtXtXtXtXtXtX  o p &.&.>.4.4.4.4.3.y . tXtXtXtXtXtXtXtXtXtXtXtXtXtXtXtXtXtXtXtX",
"tXtXtXtXtXtXtXtXtXtXtXtXtXtXtXtXtXtXtXtXtXtXtXtXtXtXtXtXtXtXtXtXtXtXtXtXtXtXtXtXtXtXtXtXtXtX  $ y &.*.3.4.4.4.@.$ tXtXtXtXtXtXtXtXtXtXtXtXtXtXtXtXtXtXtXtXtX",
"tXtXtXtXtXtXtXtXtXtXtXtXtXtXtXtXtXtXtXtXtXtXtXtXtXtXtXtXtXtXtXtXtXtXtXtXtXtXtXtXtXtXtXtXtXtXtX  o p &.1.2.4.=.y tXtXtXtXtXtXtXtXtXtXtXtXtXtXtXtXtXtXtXtXtXtX",
"tXtXtXtXtXtXtXtXtXtXtXtXtXtXtXtXtXtXtXtXtXtXtXtXtXtXtXtXtXtXtXtXtXtXtXtXtXtXtXtXtXtXtXtXtXtXtXtX  # u &.*.@.u # tXtXtXtXtXtXtXtXtXtXtXtXtXtXtXtXtXtXtXtXtXtX",
"tXtXtXtXtXtXtXtXtXtXtXtXtXtXtXtXtXtXtXtXtXtXtXtXtXtXtXtXtXtXtXtXtXtXtXtXtXtXtXtXtXtXtXtXtXtXtXtXtXtX  q r e . tXtXtXtXtXtXtXtXtXtXtXtXtXtXtXtXtXtXtXtXtXtXtX",
"tXtXtXtXtXtXtXtXtXtXtXtXtXtXtXtXtXtXtXtXtXtXtXtXtXtXtXtXtXtXtXtXtXtXtXtXtXtXtXtXtXtXtXtXtXtXtXtXtXtXtXtXtXtXtXtXtXtXtXtXtXtXtXtXtXtXtXtXtXtXtXtXtXtXtXtXtXtX",
"tXtXtXtXtXtXtXtXtXtXtXtXtXtXtXtXtXtXtXtXtXtXtXtXtXtXtXtXtXtXtXtXtXtXtXtXtXtXtXtXtXtXtXtXtXtXtXtXtXtXtXtXtXtXtXtXtXtXtXtXtXtXtXtXtXtXtXtXtXtXtXtXtXtXtXtXtXtX",
"tXtXtXtXtXtXtXtXtXtXtXtXtXtXtXtXtXtXtXtXtXtXtXtXtXtXtXtXtXtXtXtXtXtXtXtXtXtXtXtXtXtXtXtXtXtXtXtXtXtXtXtXtXtXtXtXtXtXtXtXtXtXtXtXtXtXtXtXtXtXtXtXtXtXtXtXtXtX",
"tXtXtXtXtXtXtXtXtXtXtXtXtXtXtXtXtXtXtXtXtXtXtXtXtXtXtXtXtXtXtXtXtXtXtXtXtXtXtXtXtXtXtXtXtXtXtXtXtXtXtXtXtXtXtXtXtXtXtXtXtXtXtXtXtXtXtXtXtXtXtXtXtXtXtXtXtXtX",
"tXtXtXtXtXtXtXtXtXtXtXtXtXtXtXtXtXtXtXtXtXtXtXtXtXtXtXtXtXtXtXtXtXtXtXtXtXtXtXtXtXtXtXtXtXtXtXtXtXtXtXtXtXtXtXtXtXtXtXtXtXtXtXtXtXtXtXtXtXtXtXtXtXtXtXtXtXtX",
"tXtXtXtXtXtXtXtXtXtXtXtXtXtXtXtXtXtXtXtXtXtXtXtXtXtXtXtXtXtXtXtXtXtXtXtXtXtXtXtXtXtXtXtXtXtXtXtXtXtXtXtXtXtXtXtXtXtXtXtXtXtXtXtXtXtXtXtXtXtXtXtXtXtXtXtXtXtX",
"tXtXtXtXtXtXtXtXtXtXtXtXtXtXtXtXtXtXtXtXtXtXtXtXtXtXtXtXtXtXtXtXtXtXtXtXtXtXtXtXtXtXtXtXtXtXtXtXtXtXtXtXtXtXtXtXtXtXtXtXtXtXtXtXtXtXtXtXtXtXtXtXtXtXtXtXtXtX",
"tXtXtXtXtXtXtXtXtXtXtXtXtXtXtXtXtXtXtXtXtXtXtXtXtXtXtXtXtXtXtXtXtXtXtXtXtXtXtXtXtXtXtXtXtXtXtXtXtXtXtXtXtXtXtXtXtXtXtXtXtXtXtXtXtXtXtXtXtXtXtXtXtXtXtXtXtXtX",
"tXtXtXtXtXtXtXtXtXtXtXtXtXtXtXtXtXtXtXtXtXtXtXtXtXtXtXtXtXtXtXtXtXtXtXtXtXtXtXtXtXtXtXtXtXtXtXtXtXtXtXtXtXtXtXtXtXtXtXtXtXtXtXtXtXtXtXtXtXtXtXtXtXtXtXtXtXtX"
};
