/* XPM */
static char *_572136375918[] = {
/* columns rows colors chars-per-pixel */
"49 85 2 1 ",
"  c black",
". c None",
/* pixels */
"......................       ....................",
".....................        ....................",
"....................          ...................",
"...................           ...................",
"..................             ..................",
"..................             ..................",
".................               .................",
".................               .................",
"................                .................",
"................                .................",
"...............                  ................",
"............. .                  ................",
"...........                      ................",
"...........                      ................",
"...........                       ...............",
"...........                        ..............",
"...........                         .............",
"...........                          ............",
"...........                          ............",
"...........                          ............",
"............                        .............",
"............                        .............",
".............                      ..............",
".............                      ..............",
".............                     ...............",
".............                      ..............",
"..............                    ...............",
"..............                    ...............",
"..............                    ...............",
"..  ..........                    ...............",
".   ...........                  ...........   ..",
".    ..........                  ..........    ..",
".    .........                    .........     .",
"     .........                     ........     .",
"     ........                       .......     .",
"      ......                        ......      .",
"      ......                         .....      .",
"       ....                          ....       .",
"       ....                          ....       .",
"        ...                          ...        .",
"         ..                          ..         .",
"          .                          .          .",
"                                                .",
".                                               .",
".                                              ..",
".                                              ..",
"..                                             ..",
"..                                            ...",
"..                                            ...",
"...                                          ....",
"...                                          ....",
"....                                        .....",
".....                                       .....",
".....                                      ......",
"......                                    .......",
".......                                   .......",
".......                                  ........",
"........                                .........",
".........                              ..........",
"..........                             ..........",
"..........                            ...........",
"..........                            ...........",
"..........                            ...........",
"..........                            ...........",
"..........                            ...........",
"..........                            ...........",
"..........                            ...........",
"..........                            ...........",
"..........                            ...........",
"...........                           ...........",
"...........                          ............",
"...........                          ............",
"...........                          ............",
"............                        .............",
".............                      ..............",
"..............                    ...............",
"................                .................",
"..................             ..................",
"...................          ....................",
"....................        .....................",
".....................      ......................",
"......................    .......................",
".......................  ........................",
".................................................",
"................................................."
};
