/* XPM */
static char *_572136380951[] = {
/* columns rows colors chars-per-pixel */
"78 97 2 1 ",
"  c black",
". c None",
/* pixels */
"..............................................................................",
"..............................................................................",
"..............................................................................",
"..............................................................................",
"..............................................................................",
"..............................................................................",
"..............................................................................",
"..............................................................................",
"..............................................................................",
"....................................................     .....................",
".................................................         ....................",
"................................................           ...................",
"..............................................             ...................",
".............................................               ..................",
"............................................                ..................",
"...........................................                 ..................",
"......................................                      ..................",
".....................................                       ..................",
".....................................                       ..................",
"....................................                       ...................",
"....................................                       ...................",
"....................................                       ...................",
"....................................                       ...................",
"....................................                       ...................",
"....................................                       ...................",
"....................................                      ....................",
"....................................                      ....................",
"....................................                       ...................",
".......................  ...........                        ..................",
"......................   ..........                         ..................",
".....................    ..........                         ..................",
"....................     ..........                         ..................",
"...................      ..........                        ...................",
"...................      ..........                       ....................",
"..................       ..........                      .....................",
"..................       ........                       ......................",
"..................       .......                       .......................",
".................        .....                         .......................",
".................        .....                        ........................",
".................        ....                        .........................",
".................         ..                        ..........................",
".................         ..                        ..........................",
".................         .                         ..........................",
".................                                   ..........................",
".................                                   ..........................",
".................                                    ........   ..............",
".................                                    .......    ..............",
".................                                    .......    ..............",
".................                                    ......     ..............",
".................                                   ......      ..............",
".................                                   .....       ..............",
".................                                   ....        ..............",
"..................                                 ...         ...............",
"..................                                             ...............",
"..................                                             ...............",
"..................                                            ................",
"..................                                            ................",
"...................                                          .................",
"...................                                         ..................",
"...................                                        ...................",
"...................                                        ...................",
"..................                                       .....................",
"..................                                       .....................",
".................                                      .......................",
".................                                     ........................",
".................                                    .........................",
"................                                   ...........................",
"................                                  ............................",
"................                                ..............................",
"................                              ................................",
"................                             .................................",
"................                             .................................",
"................                            ..................................",
"................                            ..................................",
".................                          ...................................",
".................                          ...................................",
"..................                        ....................................",
"...................                       ....................................",
"....................                     .....................................",
"....................                    ......................................",
".....................                   ......................................",
".....................                  .......................................",
"......................               .........................................",
"......................        ................................................",
"......................      ..................................................",
".......................   ....................................................",
"..............................................................................",
"..............................................................................",
"..............................................................................",
"..............................................................................",
"..............................................................................",
"..............................................................................",
"..............................................................................",
"..............................................................................",
"..............................................................................",
"..............................................................................",
".............................................................................."
};
