/* XPM */
static char *_572135087952[] = {
/* columns rows colors chars-per-pixel */
"78 97 27 1 ",
"  c black",
". c #000001",
"X c #000101",
"o c #010101",
"O c #000002",
"+ c #000102",
"@ c #010102",
"# c #010103",
"$ c #000202",
"% c #000203",
"& c #010303",
"* c #020202",
"= c #020203",
"- c #000204",
"; c #010204",
": c #010304",
"> c #020204",
", c #020205",
"< c #020305",
"1 c #030305",
"2 c #010405",
"3 c #030607",
"4 c #040404",
"5 c #080B0E",
"6 c #0D1115",
"7 c #171D23",
"8 c None",
/* pixels */
"888888888888888888888888888888888888888888888888888888888888888888888888888888",
"888888888888888888888888888888888888888888888888888888888888888888888888888888",
"888888888888888888888888888888888888888888888888888888888888888888888888888888",
"888888888888888888888888888888888888888888888888888888888888888888888888888888",
"888888888888888888888888888888888888888888888888888888888888888888888888888888",
"888888888888888888888888888888888888888888888888888888888888888888888888888888",
"888888888888888888888888888888888888888888888888888888888888888888888888888888",
"888888888888888888888888888888888888888888888888888888888888888888888888888888",
"888888888888888888888888888888888888888888888888888888888888888888888888888888",
"8888888888888888888888:8888888888888888888888888888888888888888888888888888888",
"888888888888888888881   :88888888888888888888888888888888888888888888888888888",
"88888888888888888888      :888888888888888888888888888888888888888888888888888",
"8888888888888888888        :88888888888888888888888888888888888888888888888888",
"8888888888888888888          8888888888888888888888888888888888888888888888888",
"88888888888888888888         :888888888888888888888888888888888888888888888888",
"88888888888888888888          188888888888888888888888888888888888888888888888",
"88888888888888888888           88888888888888888888888888888888888888888888888",
"88888888888888888888           :8888888888888888888888888888888888888888888888",
"88888888888888888888            1888888888888888888888888888888888888888888888",
"88888888888888888888             :8 888888888888888888888888888888888888888888",
"88888888888888888888                 88888888888888888888888888888888888888888",
"888888888888888888888                 8888888888888888888888888888888888888888",
"888888888888888888888                 1888888888888888888888888888888888888888",
"888888888888888888888:                1888888888888888888888888888888888888888",
"888888888888888888888                  :88888888888888888888888888888888888888",
"8888888888888888888888                  88888888888888888888888888888888888888",
"8888888888888888888888                 :88888888888888888888888888888888888888",
"8888888888888888888888                  78888888888888888888888888888888888888",
"88888888888888888888881                  8888881588888888888888888888888888888",
"8888888888888888888888:                  888888    888888888888888888888888888",
"8888888888888888888888                   888888     88888888888888888888888888",
"8888888888888888888888                   888888      1888888888888888888888888",
"8888888888888888888888                   8888888      :88888888888888888888888",
"8888888888888888888888                   8888888       :8888888888888888888888",
"8888888888888888888888                    3888888        888888888888888888888",
"88888888888888888888888                     888888        88888888888888888888",
"88888888888888888888888:                    8888888        8888888888888888888",
"8888888888888888888888881                   8888888         888888888888888888",
"8888888888888888888888888:                  88888888         88888888888888888",
"88888888888888888888888888:                  8888888          8888888888888888",
"888888888888888888888888888                     8888          8888888888888888",
"888888888888888888   88888                        88           888888888888888",
"888888888888888888    8888                         8           888888888888888",
"888888888888888888    88886                                    888888888888888",
"888888888888888888    88888:                                  1888888888888888",
"88888888888888888     888888                                   888888888888888",
"88888888888888888      888888                                  888888888888888",
"88888888888888888      88888:                                 :888888888888888",
"88888888888888888      88888                                  8888888888888888",
"88888888888888888      8888                                   8888888888888888",
"88888888888888888       888                                   8888888888888888",
"88888888888888888       888                                  :8888888888888888",
"88888888888888888        88                                  88888888888888888",
"88888888888888888        88                                  88888888888888888",
"88888888888888888                                           :88888888888888888",
"88888888888888888                                           888888888888888888",
"88888888888888888                                           888888888888888888",
"88888888888888888                                          8888888888888888888",
"88888888888888888:                                         8888888888888888888",
"888888888888888881                                         8888888888888888888",
"888888888888888888                                        88888888888888888888",
"8888888888888888888                                       88888888888888888888",
"8888888888888888888                                       88888888888888888888",
"888888888888888888888                                     88888888888888888888",
"8888888888888888888888                                    88888888888888888888",
"88888888888888888888888                                   88888888888888888888",
"8888888888888888888888888                                 88888888888888888888",
"888888888888888888888888888                               88888888888888888888",
"88888888888888888888888888888                             88888888888888888888",
"8888888888888888888888888888888                           88888888888888888888",
"888888888888888888888888888888888                         88888888888888888888",
"88888888888888888888888888888888888                       88888888888888888888",
"888888888888888888888888888888888888                      88888888888888888888",
"88888888888888888888888888888888888888                    88888888888888888888",
"888888888888888888888888888888888888888                   88888888888888888888",
"8888888888888888888888888888888888888888                  88888888888888888888",
"88888888888888888888888888888888888888888                 88888888888888888888",
"888888888888888888888888888888888888888888                88888888888888888888",
"8888888888888888888888888888888888888888888               88888888888888888888",
"88888888888888888888888888888888888888888888              88888888888888888888",
"888888888888888888888888888888888888888888888             88888888888888888888",
"8888888888888888888888888888888888888888888888           888888888888888888888",
"88888888888888888888888888888888888888888888888          888888888888888888888",
"888888888888888888888888888888888888888888888888         888888888888888888888",
"88888888888888888888888888888888888888888888888888       888888888888888888888",
"888888888888888888888888888888888888888888888888888     8888888888888888888888",
"888888888888888888888888888888888888888888888888888888888888888888888888888888",
"888888888888888888888888888888888888888888888888888888888888888888888888888888",
"888888888888888888888888888888888888888888888888888888888888888888888888888888",
"888888888888888888888888888888888888888888888888888888888888888888888888888888",
"888888888888888888888888888888888888888888888888888888888888888888888888888888",
"888888888888888888888888888888888888888888888888888888888888888888888888888888",
"888888888888888888888888888888888888888888888888888888888888888888888888888888",
"888888888888888888888888888888888888888888888888888888888888888888888888888888",
"888888888888888888888888888888888888888888888888888888888888888888888888888888",
"888888888888888888888888888888888888888888888888888888888888888888888888888888",
"888888888888888888888888888888888888888888888888888888888888888888888888888888"
};
