/* XPM */
static char *_e2e55a820c24062b33dfad9e5587e02[] = {
/* columns rows colors chars-per-pixel */
"78 97 232 2 ",
"   c None",
".  c #030304",
"X  c #0B0404",
"o  c #0B0B0C",
"O  c #06070A",
"+  c #130303",
"@  c #1A0403",
"#  c #13090B",
"$  c #1C0B0B",
"%  c #160708",
"&  c #0D0E11",
"*  c #131315",
"=  c #1B1B1B",
"-  c #181718",
";  c #111014",
":  c #240503",
">  c #2B0401",
",  c #2E0A05",
"<  c #240B0B",
"1  c #280A08",
"2  c #340501",
"3  c #3D0601",
"4  c #380B08",
"5  c #28170D",
"6  c #3A150B",
"7  c #271A18",
"8  c #391716",
"9  c #2C241F",
"0  c #3E2F1D",
"q  c #1C1F22",
"w  c #1F2222",
"e  c #242424",
"r  c #2B2B2B",
"t  c #282828",
"y  c #342826",
"u  c #2F3334",
"i  c #343434",
"p  c #3B3332",
"a  c #3B3B3B",
"s  c #333A3B",
"d  c #30302F",
"f  c #4B0B02",
"g  c #440D0B",
"h  c #4B0C0C",
"j  c #450701",
"k  c #540A01",
"l  c #5B0C02",
"z  c #530C0A",
"x  c #5B0C0C",
"c  c #570600",
"v  c #4C140A",
"b  c #581107",
"n  c #471A13",
"m  c #511813",
"M  c #6B0C00",
"N  c #650C07",
"B  c #750D00",
"V  c #7B0E00",
"C  c #7B0E0C",
"Z  c #6A1202",
"A  c #7C1202",
"S  c #74100E",
"D  c #791609",
"F  c #671913",
"G  c #731412",
"H  c #4A211B",
"J  c #5A2419",
"K  c #52270F",
"L  c #6B2518",
"P  c #772617",
"I  c #71351E",
"U  c #55332E",
"Y  c #473B3A",
"T  c #553933",
"R  c #4B2E2B",
"E  c #6B3229",
"W  c #663A31",
"Q  c #713328",
"!  c #534930",
"~  c #64433B",
"^  c #77532C",
"/  c #766D36",
"(  c #3C3E40",
")  c #3B4547",
"_  c #444444",
"`  c #4C4C4C",
"'  c #454849",
"]  c #574745",
"[  c #425053",
"{  c #535454",
"}  c #5B5B5B",
"|  c #595656",
" . c #565050",
".. c #775752",
"X. c #6E5551",
"o. c #75625E",
"O. c #5C7479",
"+. c #57676A",
"@. c #636363",
"#. c #6C6C6C",
"$. c #6C6563",
"%. c #766B68",
"&. c #727272",
"*. c #7C7C7C",
"=. c #777778",
"-. c #840F00",
";. c #8B0F0C",
":. c #831200",
">. c #8C1300",
",. c #86140E",
"<. c #931400",
"1. c #9B1500",
"2. c #951A05",
"3. c #981907",
"4. c #871511",
"5. c #9B1511",
"6. c #941812",
"7. c #A51600",
"8. c #AA1600",
"9. c #A51A01",
"0. c #AB1A01",
"q. c #A61E0B",
"w. c #B41A00",
"e. c #BC1C00",
"r. c #A51612",
"t. c #AC1713",
"y. c #AB1913",
"u. c #B41613",
"i. c #B41A14",
"p. c #BC1A14",
"a. c #BB1713",
"s. c #97220D",
"d. c #852716",
"f. c #992A19",
"g. c #96311E",
"h. c #852A15",
"j. c #B72409",
"k. c #A72715",
"l. c #B62815",
"z. c #A4331E",
"x. c #AF290E",
"c. c #883728",
"v. c #973924",
"b. c #AA3922",
"n. c #BA3A21",
"m. c #C41D00",
"M. c #CB1F00",
"N. c #C41A15",
"B. c #CC1B16",
"V. c #C31713",
"C. c #D21C16",
"Z. c #C82203",
"A. c #964A2C",
"S. c #94542D",
"D. c #974635",
"F. c #8A532D",
"G. c #A2452A",
"H. c #AB4835",
"J. c #B4533C",
"K. c #85783C",
"L. c #95773D",
"P. c #8A6736",
"I. c #885247",
"U. c #985446",
"Y. c #8C574B",
"T. c #AC5846",
"R. c #95655A",
"E. c #8B6D53",
"W. c #AA6858",
"Q. c #866862",
"!. c #97746C",
"~. c #8C7B77",
"^. c #91746D",
"/. c #A6756A",
"(. c #A17970",
"). c #978544",
"_. c #8E8944",
"`. c #A8994E",
"'. c #A99E50",
"]. c #A78445",
"[. c #A9A553",
"{. c #B2AE58",
"}. c #B5B25A",
"|. c #BDBB5E",
" X c #8B807E",
".X c #C1BD5F",
"XX c #C2BF60",
"oX c #C6C362",
"OX c #C9C664",
"+X c #CECB66",
"@X c #D2CE68",
"#X c #D0CC67",
"$X c #6F8D92",
"%X c #7EA5AB",
"&X c #848484",
"*X c #8C8C8C",
"=X c #998A86",
"-X c #949493",
";X c #9D9D9D",
":X c #9A9493",
">X c #8F9090",
",X c #AB9793",
"<X c #9FA1A1",
"1X c #87ADB3",
"2X c #A3A3A3",
"3X c #ABACAC",
"4X c #A7A8A8",
"5X c #AFB0B0",
"6X c #B3B3B3",
"7X c #BCBCBC",
"8X c #BEABA7",
"9X c #AEA19E",
"0X c #C9A89F",
"qX c #90BAC2",
"wX c #98C4CC",
"eX c #9CC9D0",
"rX c #BFC0C0",
"tX c #B2D4DA",
"yX c #B7D8DE",
"uX c #A7CFD6",
"iX c #ABDAE3",
"pX c #B3DBE3",
"aX c #B7E5EC",
"sX c #B7EBF4",
"dX c #C4C4C4",
"fX c #CECECE",
"gX c #C7C8C8",
"hX c #D1D1D1",
"jX c #DBD9D8",
"kX c #FCFCFC",
"lX c #F4F4F4",
"zX c #E6E6E6",
/* pixels */
"                                                                                                                                                            ",
"                                                                                                                                                            ",
"                                                                                                                                                            ",
"                                                                                                                                                            ",
"                                                                                                                                                            ",
"                                                                                                                                                            ",
"                                                                                                                                                            ",
"                                                                                                                                                            ",
"                                                                                                      ; $ $                                                 ",
"                                                                                                    1 x 6.x o                                               ",
"                                                                                                  $ S a.N.r.h                                               ",
"                                                                                                $ z p.C.B.N.S $                                             ",
"                                                                                              o z r.B.B.N.p.6.<                                             ",
"                                                                                              1 5.C.C.C.p.i.6.g                                             ",
"                                                                                            < S N.C.C.B.p.r.y.4                                             ",
"                                                                                          o h p.C.C.C.B.p.i.5.h                                             ",
"                                                                                          g 4.B.B.N.i.r.N.i.r.g                                             ",
"                                                                                        # ,.u.N.p.v.P.A.i.N.y.4                                             ",
"                                                                                        h r.p.N.s.L.|.E.k.N.5.h                                             ",
"                                                                                      4 6.u.u.y.F.}.+X`.6.C.u.4                                             ",
"                                                                                    : N B.t.a.c.'.+X+X).f.C.r.4                                             ",
"                                                                                    z 5.N.u.k.P.OX+XoXL.l.C.5.8                                             ",
"                                                                                  + ;.B.B.a.A.'.+XoX{.P.t.C.5.#                                             ",
"                                                                              < $ x u.C.B.q.K.#X#XXX[.F.p.B.4.<                                             ",
"                                                                            g C f r.t.N.t.S.'.@X#XXX`.c.C.C.F                                               ",
"                                                                          h 4.p.i.i.P J 4.).OX@X+XXXE.g.C.N.x < ;                                           ",
"                                                                          x y.p.N.g.^ ! ^ {.@X#XoX}.P.l.C.p.4.C x                                           ",
"                                                                          G p.p.Z.I [.! ).oX@XoX{.`.A.N.C.C.a.C.x                                           ",
"                                                                        h 5.B.N.k.P.{./ }.#X#X}.'.K.z.B.C.B.C.u.x                                           ",
"                                                        # # X           h B.B.N.I '.|.{.oX#XOX{.'.L.i.C.C.B.N.6.h                                           ",
"                                                    o : f l X           G N.C.i.^ .X|.#X#X#XOXoX'.G.N.C.B.V.p.C o                                           ",
"                                                  * 4 L ,.k .           G N.B.f.L.}..X#X#X@X#X#X_.g.i.C.N.p.5.x                                             ",
"                                                * Y  X/.W $             G C.B.P {.}.+XoX{.}.OXOX[./ g.B.u.u.C :                                             ",
"                                            o 5 J I.R...i .             G B.i.S.}.+X|./ 5 ! {.+XoX).z.i.t.5.x                                               ",
"                                          # , :.j.j.q.v @           ; ; 1 S G ^ [.oX/ K 6 6 _.#X.XS.p.5.t.N 8                                               ",
"                                        # f >.Z.M.e.:.@             = e r 9 - y ! ! , <.:., K.XX].z.i.5.5.4                                                 ",
"                                      # f 0.M.M.M.>.j o           . e d d e r r = 7 L l.:.$ _.}.G.p.u.;.z                                                   ",
"                                    < b 9.M.M.M.e.k X             o e r e - = r - ! R.U.J 5 0 ^ k.B.t.x                                                     ",
"                                  O l w.M.M.M.m.:.,               & e r e e r e , h.T.R.T X = 8 S ;.N                                                       ",
"                                $ f 2.m.M.m.M.j.l %               * d w e i r $ Z w.Z.2.n o q - o , #                                                       ",
"                                , >.1.9.z.G.U.D.H O           . a ` ` } _ t - > 0.M.e.:.: - 9 = - * O ;           O X                                       ",
"                              $ f s.L o.=X:X:XQ.i o     O X O o * a ` ` ` { y F j.m.0.M + e e - - * O .           @ 3 .                                     ",
"                              $ W ..o.^.!.D.b.f.j X   . o e r r r e = e = & y !./.J.3.f $ e r - * & O           X l M @                                     ",
"                              = >X%.E f.j.m.M.0.c +   X = s i a a d r r 9 9 W 9X9X=XQ.5 - e e w * o X           X D :.>                                     ",
"                              p ..c.-.w.M.M.M.w.V > . a } } | ) d e = r t n s.l.J./.$.9 i } a = o .             9 W P 2 O                                   ",
"                              5 3.3.>.7.m.M.M.m.<.j . >XzXzXrX5X&X` e t 7 Z M.M.m.q.m # o r ` { t               H %...8 O                                   ",
"                              , 1.9.:.<.e.M.M.m.>.3 p 4XlXkXkXkXhX;X*X@.H 2.M.M.e.>.4 & d t e a s q             4 k.~ p o                                   ",
"                              , >.w.>.<.e.M.M.m.D + | ;X;X3XhXjXdX3X6X-Xl m.M.M.8.M : q a i e - r t           X Z w.d.Y &                                   ",
"                              o :.e.<.>.w.l.H.U.U 9 *X7X7X6X-X*X*X*X*X..:.M.M.m.<.j - ) i a a w & .           X >.m.1.v #                                   ",
"                                Z Z.7.A h.!.9X&Xe  .6XhXfXdXdX6X$X X=.m w.M.m.8.B H $.-X#.` d t = * X         2 1.M.w.M +                                   ",
"                                b 0.6.E o.=X/.Q + $XfXhXdX4X6XdXrX6X%.Z M.M.m.7.c ] dXkXjX:X| i w - . .     . J 9.M.w.B :                                   ",
"                                , 3.I.$.X.A.j.l p ;XhXdX2X:X6XfXhX3X~ 2.M.M.w.-.g _ gXlXkXkXjX*.r * . .     * ] D.w.w.:.>                                   ",
"                                # ~ ~...,.m.m.>  .7XfX4X*X2XdXhXgX:XH b.n.Z.7.N R *.>X&X6XzXlXhX-X) .     X m Q.:Xv.9.:.> .                                 ",
"                                  Y I.d.9.m.1.8 &.hXgX-X&X3XgXhXdX$.~ (.W.U.P g @.rXdX6X;X>X5XgX6X{ . X % 3 8.v.~.Q.d.V 2 .                                 ",
"                                  7 h.7.w.Z.B R :XfX6X-X-X7XhXhXdXR 2.l.H.Q.T Y -XhXhXfXrX3X-X*X Xd + j B 9.e.0.c.~.U B : X                                 ",
"                                  @ M w.m.e.N i dXfX2X&X3XgXhXfX-XR 9.M.e.>.8 &.7XhXfXfXhXdX:X#.' # M 0.Z.9.8.e.k.I.$.F 2 .                                 ",
"                                    3 9.M.8.v @.dX7X>X&XrXhXfXfX#.L w.M.8.Z R <XhXhXfXhXfX7X;X*.i 2 1.m.w.<.7.M.m.g.o.W >                                   ",
"                                    @ A M.9.> -XgX4X&X;XdXhXhXrX@.l M.m.-.g *.rXhXhXfXfXdX3X-X&.* N w.w.1.<.0.M.m.j...X.+                                   ",
"                                      l e.:.y 4XdX>X*.;XrXfXhX6X] V m.1.b a 7XhXhXfXfXfX7X;X&X` 7 P w.7.1.w.m.M.M.w.c.Y -                                   ",
"                                      2 7.c | 6X6X&X*.;XdXhXhXrXy 7.0.M U *XfXhXfXhXfXgX3X-X=.y ! o.z.e.m.M.M.M.M.7.D 7 &                                   ",
"                                      : B z } fX5X&X>X7XfXfXhX4XT >.<.4 &.dXhXhXhXfXfX7X;X&X} $ E <XY.j.M.M.M.m.0.-.f X                                     ",
"                                      + j n =.gX3X&X6XfXhXfXfX6X] l F $.6XhXhXfXhXhXdX4X-X&.d v 6.R.^.x.M.M.M.8.-.j <                                       ",
"                                        @ - 2X7X2X5XgXhXfXhXfXdX#.y %.6XfXhXfXhXhXgX7X;X&X{ # <.m.v.~.H.m.e.8.V k +                                         ",
"                                        X d 5XrX4XgXfXhXhXhXhXfXdX6X7XhXfXfXhXfXhXdX3X>X@.y k w.M.x.~.R.q.<.M 2 +                                           ",
"                                        . ` 6XgXgXhXgXgXdX3XgXdXgXhXhXhXfXhXfXhXgX7X;X X_ 1 3.m.M.j.I.~.F f : .                                             ",
"                                        o ` fXfXhXfX8X$X} { _ #.<XdXhXfXhXfXhXfXrX3X>X@.7 c M.m.e.1.E ! 8 @                                                 ",
"                                        ; @.gXhXgX3X{ = s ) ) ) a *.rXfXfXfXfXgX5X<X*.d h <.w.1.V c > & .                                                   ",
"                                        O &XgXhX6X@.s +.1XuXwX$X) _ :XfXhXhXfX7X2X&X{ $ B 0.V k : +                                                         ",
"                                        e *.hXhX*Xe O.eXaXaXpXpX1X[ } rXhXhXdX4X>X#.y 3 M l > X                                                             ",
"                                        t *XfXrX&.d 1XsXpXpXyXyXiXO.' 2XhXgX6X-X=.) @ 3 > +                                                                 ",
"                                        ; ;XfXdX| ) qXaXtXtXtXyXtX$Xr 2XfX7X;X&X .q . @                                                                     ",
"                                        u *XhXdX#.u wXaXuXtXpXtXeX$X` <XdX2X*X&.9 .                                                                         ",
"                                        t ;XgXrX$Xp O.iXiXpXsXsXwX[ @.4X6X;X=.a O                                                                           ",
"                                        t 2X7X:X<X` s $XiXiXiXwXO.a *X7X<X*X' -                                                                             ",
"                                        ( *X;X-X7X2X .' [ O.O.) ` *.4X4X&X| *                                                                               ",
"                                        7 $X~.$X2XfX3X&.` ` _ +.-XdX3X*X| w                                                                                 ",
"                                        - a a a @.&.>X5XrX3X6XrXdX6X*X} - .                                                                                 ",
"                                        o t e d a i ' @.&X5XhXfX7X-X} t O                                                                                   ",
"                                        & ` *X;X&X&.| i _ $.<X6X2X#.e X                                                                                     ",
"                                          $.9X8XjXfX3X*.{ a ' &.@.s O                                                                                       ",
"                                          b z.G.v.W.0XjX2X .t t w &                                                                                         ",
"                                          b m.m.M.j.k.U.,X-Xa * ;                                                                                           ",
"                                          b 0.M.M.M.M.r.Q ] w                                                                                               ",
"                                          < 9.m.M.M.w.-.l <                                                                                                 ",
"                                            D Z.M.9.A 4 $                                                                                                   ",
"                                            b :.:.l :                                                                                                       ",
"                                              $ ,                                                                                                           ",
"                                                                                                                                                            ",
"                                                                                                                                                            ",
"                                                                                                                                                            ",
"                                                                                                                                                            ",
"                                                                                                                                                            ",
"                                                                                                                                                            ",
"                                                                                                                                                            ",
"                                                                                                                                                            ",
"                                                                                                                                                            ",
"                                                                                                                                                            "
};
