/* XPM */
static char *c15b8932849444349404f822184ea7f1[] = {
/* columns rows colors chars-per-pixel */
"95 95 226 2 ",
"   c None",
".  c #030203",
"X  c #0B0304",
"o  c #0B0B0B",
"O  c #070709",
"+  c #130302",
"@  c #1C0402",
"#  c #140B0B",
"$  c #1B0B0B",
"%  c #180707",
"&  c #0C0E11",
"*  c #160C11",
"=  c #131314",
"-  c #1A1A1A",
";  c #1A1615",
":  c #230402",
">  c #2B0603",
",  c #2D0A05",
"<  c #230C0B",
"1  c #260A08",
"2  c #330501",
"3  c #3C0500",
"4  c #3C0B04",
"5  c #330B0C",
"6  c #3A0B0B",
"7  c #330903",
"8  c #38150B",
"9  c #241D1C",
"0  c #241514",
"q  c #361A17",
"w  c #322516",
"e  c #3F3819",
"r  c #1F2122",
"t  c #242424",
"y  c #2B2B2C",
"u  c #2A2727",
"i  c #2B2F31",
"p  c #2E3334",
"a  c #333434",
"s  c #3B3534",
"d  c #3C3C3C",
"f  c #34393A",
"g  c #342F26",
"h  c #430601",
"j  c #430A02",
"k  c #4C0B02",
"l  c #4A0C0C",
"z  c #440B07",
"x  c #530B01",
"c  c #5C0B01",
"v  c #5D0E0C",
"b  c #540C0A",
"n  c #461209",
"m  c #591208",
"M  c #491815",
"N  c #561010",
"B  c #510E10",
"V  c #640B01",
"C  c #6B0B00",
"Z  c #680D0C",
"A  c #730D00",
"S  c #780E07",
"D  c #6A1408",
"F  c #7C1302",
"G  c #771609",
"H  c #651410",
"J  c #781311",
"K  c #482318",
"L  c #582218",
"P  c #69281A",
"I  c #782716",
"U  c #75341D",
"Y  c #492825",
"T  c #58322B",
"R  c #463A38",
"E  c #583B36",
"W  c #51302B",
"Q  c #773627",
"!  c #6A362D",
"~  c #53472E",
"^  c #68453E",
"/  c #754A2E",
"(  c #776634",
")  c #6B6732",
"_  c #394345",
"`  c #434343",
"'  c #4B4B4B",
"]  c #474747",
"[  c #584745",
"{  c #495557",
"}  c #535353",
"|  c #5C5C5C",
" . c #595655",
".. c #694B46",
"X. c #7A5D57",
"o. c #6D534D",
"O. c #546A6E",
"+. c #646464",
"@. c #6C6C6C",
"#. c #6A6564",
"$. c #766C6B",
"%. c #737373",
"&. c #7A7A7A",
"*. c #777877",
"=. c #6E6F70",
"-. c #810F07",
";. c #831301",
":. c #8C1201",
">. c #88140E",
",. c #931400",
"<. c #9C1500",
"1. c #971806",
"2. c #8B1311",
"3. c #9A1712",
"4. c #A41500",
"5. c #AA1700",
"6. c #A41901",
"7. c #AC1A01",
"8. c #B31A00",
"9. c #BC1C00",
"0. c #A31612",
"q. c #AC1612",
"w. c #AB1914",
"e. c #A51E16",
"r. c #B41613",
"t. c #B41814",
"y. c #BC1914",
"u. c #BC1612",
"i. c #852617",
"p. c #982A19",
"a. c #902B15",
"s. c #A9220A",
"d. c #B72308",
"f. c #A62817",
"g. c #B52814",
"h. c #A8331D",
"j. c #B83216",
"k. c #8C3A28",
"l. c #903B28",
"z. c #A33B25",
"x. c #B53C21",
"c. c #C31D00",
"v. c #CC1F00",
"b. c #C31A15",
"n. c #CC1B16",
"m. c #C11713",
"M. c #D21C16",
"N. c #C42306",
"B. c #925B31",
"V. c #95492E",
"C. c #A5432C",
"Z. c #A45936",
"A. c #AA4834",
"S. c #956937",
"D. c #97743C",
"F. c #8B743C",
"G. c #985748",
"H. c #87574C",
"J. c #A15343",
"K. c #86625A",
"L. c #93764A",
"P. c #8B6A63",
"I. c #89726D",
"U. c #9C736A",
"Y. c #8D7B77",
"T. c #99736B",
"R. c #A67368",
"E. c #A96A5D",
"W. c #8C8744",
"Q. c #978444",
"!. c #98944B",
"~. c #A5964C",
"^. c #ACA955",
"/. c #B3AF58",
"(. c #B9B55B",
"). c #B9B65C",
"_. c #9E857F",
"`. c #A48178",
"'. c #BFBE60",
"]. c #C1BD5F",
"[. c #C2BF60",
"{. c #C4C262",
"}. c #CDC965",
"|. c #C9C664",
" X c #D0CC67",
".X c #D2CE68",
"XX c #607B80",
"oX c #70868A",
"OX c #848484",
"+X c #8B8B8B",
"@X c #8B8685",
"#X c #948B8A",
"$X c #8F9090",
"%X c #939494",
"&X c #9B9B9B",
"*X c #94908F",
"=X c #A69894",
"-X c #A9908A",
";X c #8CB5BC",
":X c #93ACB1",
">X c #A4A5A5",
",X c #ACACAC",
"<X c #A5A8AA",
"1X c #B3B3B3",
"2X c #BBBBBB",
"3X c #B7B8B6",
"4X c #94BFC7",
"5X c #9AC7CF",
"6X c #BFC0C0",
"7X c #A9D5DC",
"8X c #B1D5DC",
"9X c #B7D8DD",
"0X c #AACDD3",
"qX c #ACDDE6",
"wX c #B4DCE4",
"eX c #B7E2EA",
"rX c #B7E8F1",
"tX c #C4C4C4",
"yX c #CDCDCD",
"uX c #C9C5C4",
"iX c #D1D1D1",
"pX c #DDDBDA",
"aX c #D5C6C2",
"sX c #E9E9E9",
"dX c #FBFBFB",
"fX c #F6F6F6",
/* pixels */
"                                                                                                                                                                                              ",
"                                                                                                                                                                                              ",
"                                                                                                                                                                                              ",
"                                                                                                                                                                                              ",
"                                                                                                                                                                                              ",
"                                                                                                                                                                                              ",
"                                                                                                                                                                                              ",
"                                                                                                                                                                                              ",
"                                                                                                                                                                                              ",
"                                                                                                                                                                                              ",
"                                                                                                                                                                                              ",
"                                                                                                                                                                                              ",
"                                                                                                                                                                                              ",
"                                                                                                                                                                                              ",
"                                                                                                                                                                                              ",
"                                                                                                                                                                                              ",
"                                                                                                                                                                                              ",
"                                                                                                                                                                                              ",
"                                1 B v v 6 6 $                                                                                                                                                 ",
"                              * Z b.y.w.w.3.J N *                                                                                                                                             ",
"                              * 2.n.n.y.t.w.t.0.2.b 5                                                                                                                                         ",
"                              $ Z b.n.n.b.t.t.r.y.r.0.v l                                                                                                                                     ",
"                                5 t.n.M.M.n.b.y.m.b.n.n.2.H <   * b >                                                                                                                         ",
"                                $ v n.M.M.M.w.p.k.p.t.n.M.y.2.l 5 >.q.Z 6                                                                                                                     ",
"                                  6 2.M.M.n.f.L.~.~./ h.u.M.M.0.J 3.n.r.S 5                                                                                                                   ",
"                                  o H y.M.M.f.F.{.}.(.W.V.f.M.M.b.b.M.n.r.>.6                 . O . .                                                                                         ",
"                                    % J n.b.u.V.^.}.|./.!.B.p.v.M.M.M.b.m.q.S 5               o h h 4 > + & O                                                                                 ",
"                                      6 3.b.n.3.B.]. X{.)./.D.l.m.n.M.M.y.u.0.v q             X 3 :.>.D W s u % . X O                                                                         ",
"                                      # Z 0.m.b.a.D.}. X|.[.).Q.V.u.n.M.M.y.q.3.z               X j Q X.H.^ P D c h > @ .                                                                     ",
"                                        $ 2.q.r.u.k.Q. X X}.{./.D.B.u.n.b.n.0.q.2.:               O u E i.s.8.8.4.:.F c h @ X                                                                 ",
"                                          5 3.r.t.u.V.~..X.X}.(.^.Q.Z.0.p.z.u.3.3.S                   : 2 ,.9.N.v.8.8.:.G v k % o                                                             ",
"                                          < l t.b.u.q.B.^. X.X{.^.^.~.S.( L.z.r.0.>.z                     + A 6.N.6.l.Q E ! ..^ u =                                                           ",
"                                            5 Z b.n.n.3.S.(. X X'.).|.^./.{.D.h.m.t.Z                       X m Q `.@X@X$.X.K.X...0 X                                                         ",
"                                              z >.n.n.w.J F.).}..X}..X}.}..X{.Z.g.b.S < O O                   O [ K.V.p.f.s.8.s.1.V +                                                         ",
"                                                k q.b.I / K W.(..X.X.X)././.[.(.C.;.n & = o O                   O D d.7.c.v.N.v.8.;.h =                                                       ",
"                                                X v d.i.( W.) ^.}.}.{.W.w e ( W.) q ; - - = o .                   3 8.7.5.c.v.v.v.<.V X                                                       ",
"                                                  > 2.y.U L.(.(.}. X{.e 4 m @ w ; - - - - - = O           . .     4 4.5.<.4.c.v.c.8.F 2                                                       ",
"                                                $ >.r.n.g.U Q.[.).{.{.) m 1.;.8 $ o t t t - - - f f t . o O . .   > <.c.,.,.c.v.v.9.,.3 .                                                     ",
"                                                  Z m.y.m.y.U L.).).}.!.8 <.z.H.E , # t u t u  .R i O ; - - o - . + ,.v.8.,.9.v.v.c.<.k +                                                     ",
"                                                  l J y.y.n.b.U D./.}.).~ n G.R.l.A 7 # - y +._ y - t t t t } =.] % C 5.9.4.c.v.v.v.8.V +                                                     ",
"                                                    B J b.n.M.y.i.S./.!.e 9 o.C.c.5.;.h # y i - y s s a ` OX2X6X+Xa $ C 6.s.8.g.g.d.6.D :                                                     ",
"                                                      l J b.n.M.N.3.U ~ t r q ,.v.c.7.>.W 9 . t f f d | ,XsXsX1XOX} a < L H.T.I.I.T.P.^ 9                                                     ",
"                                                        5 N 3.y.n.b.m - u y ; j 8.N.j.U.Y.^ , & y s =.2XdXdX3X%XOXOX%.d t [ K.K.H.E.K.o.u                                                     ",
"                                                            M B 3.J 0 u r t u ; c d.R.-X`.p.V 2 o | 6XdXfX1X%X,X1X>X%X*.~ 0 F s.d.c.s.J 7                                                     ",
"                                                                = 0 y y - t a r < W -X-Xj.N.4.V 6 ] iXdX,X%X3XyXiX3X>X%X*._ 1 ,.9.N.c.:.2                                                     ",
"                                                                  ; y i t t u t ] g o.C.N.v.c.4.V M | +X%X6XyXyXyXyX3X>X+X=.s 7 7.c.c.,.2                                                     ",
"                                                                  = t y y t u | d = q G v.v.v.c.<.V M d >XyXiXiXyXyXyX1X&XOX@.u j 8.c.,.3                                                     ",
"                                                    O .             & - u y } } t t r n ;.N.v.v.9.<.C M | 3XiXyXiXiXyXyX1X&XOX} q x 9.<.h                                                     ",
"                                                    + : .             o & u  .] - y i t M :.v.v.v.9.4.V Y %.2XiXiXiXyXyXyX,X&XXX` q A 5.k                                                     ",
"                                                    , A 7 .               a } - y t t y +.! :.v.v.v.9.p.L ` +X6XiXyXiXyXyX6X,X&X&.y 4 F x +                                                   ",
"                                                    4 >.P 9               - = u a t r | <X<X! F v.N.g.J.K.M R >XyXyXyXiXyXyX6X>X%X@.9 j x X                                                   ",
"                                                    % I P.R %             . - i d y +.&X1X&X=.! ;.N.J.R.z.:.x [ 2XyXiXyXiXiXaX2X>X+X| ; : +                                                   ",
"                                                    X .._.Q > #           O r d a @.6XpX>XOXXX%X..P U.A.N.c.:.l +.yXiXyXyXiXyXuX1X&X&.] # .                                                   ",
"                                                    = d P.s.;.+           O i s  .,XdXpX>X=.1XuX>X} T 7.v.v.8.C W OXiXiXiXyXiXyXtX<X$X@.y o                                                   ",
"                                                      g l.c.7.c O         O - ` OXfXdXyX@X1X6XyXtX1X .L ,.9.c.4.x o.1XyXyXiXyXiXyX2X>XOX .&                                                   ",
"                                                      ; F N.v.,.j O       . o _ pXdXiX+X3X2X6XyXiXyX6X+.T C 8.8.,.5 @XyXiXyXiXyXiXuX1X%X&.` .                                                 ",
"                                                      O A c.v.v.F 4 O       . ~ ,XpX>X1XyX,X<X2XyXyXyXyX&.[ h 1.<.J | 2XiXyXiXyXyXiXtX<X+X@.y .                                               ",
"                                                      o 4 8.v.v.9.F K = % X . . ' +X<XuXyX2X&X&X3XyXyXiXiX>X$.w v M ] 6XyXiXiXyXyXiXyX2X>X+X] =                                               ",
"                                                        , 6.v.v.v.d.P.^ b h h h @ s +XyXiX6X&X+X&X6XyXyXiXiX6X&X&.| &XtXyXyX,X=X&X>X2XyX1X&X&.t                                               ",
"                                                        % D v.v.N.z._.G.5.<.<.:.C % _ %XyXyX2X$X@X&X6XyXyXiXyXiXuXuXyXyX3X%.} a f _ | &X3X,X+X] =                                             ",
"                                                        o x d.N.c.J.%Xh.c.c.v.9.6.P - ~ *XyXyX2X&XOX&X6X6XuXiXiXiXyXiX3X+._ _ oXoXoX_ { OX,X&X@.;                                             ",
"                                                          $ :.N.9.H.-Xh.v.v.v.v.N.G.$.; d oXtXyX2X%XOX%X>X2XyXyXyXiXyX*.f { 4X7XwX0X5X_ } >X,XOX` .                                           ",
"                                                          # V 6.1.K.T.f.v.v.v.v.c.E.=XI 2 R =.6XyX2X%XOXOX&XuXyXiXiX,X .i ;XwX9X9X8X7X;X_ &.tX&X+.t                                           ",
"                                                            < ,.,.^ $.p.9.9.c.c.b.G.=Xz.5.x Y  .3XuX2X$X&.OX,XyXyXyX>Xy O.7XeXwX8X8XrX5X{ +.3X1X+Xd O                                         ",
"                                                            $ j <./ #.H <.1.,.4.6.V.$Xl.c.9.C M ` <X6X3X&XOX&XtXyXyX>Xi O.qXrX9X8XeXrX7X{ | 6XtX<X+.t                                         ",
"                                                              1 k ..I.k.:.:.:.;.:.P @.! 7.v.v.;.N y $X1XtX1X%X,XyXiX,X] _ 5XrXrX0X7XqX5X_ =.yXiX,X@.t                                         ",
"                                                                $ u *.k.5.5.5.7.6.>.o.X.;.5.c.N.4.V q @.>XyX2X,XtXyXtX+.i oX7XrXeXeXqXO.] &XiX,XOXf - &                                       ",
"                                                                    r w D ,.9.8.9.y.H.I.k.4.9.c.N.c.A M ` +X6XuXuXiXyX>X' p XXoX;X;XO._ +.tX%X+.a y a -                                       ",
"                                                                        o , z k D C P $.Q F :.<.,.<.4.A b 9 $.<XpXiXiXyX&X .p y f p ` @.6X$X .a ' &.OXs                                       ",
"                                                                                  % # = - 1 $ % > > @ j 2 + . ] XXuXaXiXyX3XOX%.+.*.&XuX$X{ i @.=XuXK.Y $                                     ",
"                                                                                                          X O . t ' &X3XyXyXiX2X>X3XtX&X| a =.,XaXG.p.C <                                     ",
"                                                                                                                  o i } %X1XiXuX<X$X%X#.i | ,XaXA.d.8.;.>                                     ",
"                                                                                                                        - | oX1X1X&X@.r s %XpXG.d.v.v.<.j                                     ",
"                                                                                                                            u  .*.$X} y ' uX`.j.v.v.v.5.k                                     ",
"                                                                                                                                p y y r | >XZ.9.v.N.v.9.k                                     ",
"                                                                                                                                      o ` ` H 6.8.9.9.,.m                                     ",
"                                                                                                                                              < x m k m                                       ",
"                                                                                                                                                                                              ",
"                                                                                                                                                                                              ",
"                                                                                                                                                                                              ",
"                                                                                                                                                                                              ",
"                                                                                                                                                                                              ",
"                                                                                                                                                                                              ",
"                                                                                                                                                                                              ",
"                                                                                                                                                                                              ",
"                                                                                                                                                                                              ",
"                                                                                                                                                                                              ",
"                                                                                                                                                                                              ",
"                                                                                                                                                                                              ",
"                                                                                                                                                                                              ",
"                                                                                                                                                                                              ",
"                                                                                                                                                                                              ",
"                                                                                                                                                                                              ",
"                                                                                                                                                                                              ",
"                                                                                                                                                                                              "
};
